Name,WeightClassKg,Sex,BodyweightKg,Best3SquatKg,Best3BenchKg,Best3DeadliftKg,TotalKg,Event,Equipment,Division,Place
Lynnette Brewer,44,F,,85,55,107.5,247.5,SBD,Single-ply,Open,1
Cincy Rhodes,44,F,,80,60,92.5,232.5,SBD,Single-ply,Open,2
Miyuki Seto,44,F,,60,25,70,155,SBD,Single-ply,Open,3
Nancy Belliveau,48,F,,112.5,55,135,302.5,SBD,Single-ply,Open,1
Shirely Guiterrez,48,F,,102.5,62.5,107.5,272.5,SBD,Single-ply,Open,4
Sophie Belanger,48,F,,105,57.5,120,282.5,SBD,Single-ply,Open,2
Gayle Hall,48,F,,110,50,122.5,282.5,SBD,Single-ply,Open,3
Gail Haston,48,F,,90,55,125,270,SBD,Single-ply,Open,5
E. Kizier,52,F,,122.5,55,165,342.5,SBD,Single-ply,Open,1
Mara Hancock,52,F,,85,50,105,240,SBD,Single-ply,Open,2
Agi Balogh,56,F,,122.5,77.5,140,340,SBD,Single-ply,Open,1
Ila King,56,F,,87.5,57.5,122.5,267.5,SBD,Single-ply,Open,2
Vanessa Syas,60,F,,107.5,57.5,170,335,SBD,Single-ply,Open,1
Fran Krauss,60,F,,112.5,62.5,137.5,312.5,SBD,Single-ply,Open,2
Leia Kawaii,60,F,,115,60,125,300,SBD,Single-ply,Open,3
Karlai Silva,60,F,,105,50,115,270,SBD,Single-ply,Open,4
Gwenna Pollock,60,F,,72.5,45,122.5,240,SBD,Single-ply,Open,5
Cathy Chew,60,F,,80,47.5,112.5,240,SBD,Single-ply,Open,6
M. Direnzo,60,F,,87.5,,125,,SBD,Single-ply,Open,DQ
Sue Springsteen,67.5,F,,150,95,175,420,SBD,Single-ply,Open,1
Suzanne Free,67.5,F,,145,77.5,160,382.5,SBD,Single-ply,Open,2
Pat Wagner,67.5,F,,132.5,80,150,362.5,SBD,Single-ply,Open,3
Lisa Beaudette,67.5,F,,145,62.5,152.5,360,SBD,Single-ply,Open,4
Sandy Bowlton,67.5,F,,85,57.5,110,252.5,SBD,Single-ply,Open,5
Cheryln Woods,67.5,F,,72.5,57.5,117.5,247.5,SBD,Single-ply,Open,6
Pamela Boaz,67.5,F,,107.5,65,,,SBD,Single-ply,Open,DQ
Christy Kling,75,F,,167.5,87.5,177.5,432.5,SBD,Single-ply,Open,1
Terry Georgeson,75,F,,112.5,70,125,307.5,SBD,Single-ply,Open,2
Mia Yellin,75,F,,85,42.5,137.5,265,SBD,Single-ply,Open,3
Chris Sorenson,82.5,F,,142.5,80,160,382.5,SBD,Single-ply,Open,1
Karen Meade,90,F,,147.5,100,155,402.5,SBD,Single-ply,Open,1
Gary Hunnicutt,52,M,,165,117.5,162.5,445,SBD,Single-ply,Open,1
Jeff Jackson,52,M,,155,92.5,160,407.5,SBD,Single-ply,Open,2
Chip Taylor,56,M,,147.5,142.5,185,475,SBD,Single-ply,Open,1
Mark Shijo,56,M,,147.5,77.5,175,400,SBD,Single-ply,Open,2
Brad Waskiewicz,56,M,,,,,,SBD,Single-ply,Open,DQ
K. VonSchoech,60,M,,205,140,205,550,SBD,Single-ply,Open,1
Gordon Santee,60,M,,170,125,180,475,SBD,Single-ply,Open,2
Joe Bernazzanni,67.5,M,,232.5,137.5,247.5,617.5,SBD,Single-ply,Open,1
Sergio Zenobi,67.5,M,,230,152.5,230,612.5,SBD,Single-ply,Open,2
Ray Neeley,67.5,M,,212.5,145,245,602.5,SBD,Single-ply,Open,3
Jon Schexnayder,67.5,M,,225,122.5,,,SBD,Single-ply,Open,DQ
Joe Triste,67.5,M,,160,107.5,,,SBD,Single-ply,Open,DQ
Armington Rafael,75,M,,265,190,250,705,SBD,Single-ply,Open,1
Pete King,75,M,,247.5,175,217.5,640,SBD,Single-ply,Open,2
Bill Cavalier,75,M,,275,160,,,SBD,Single-ply,Open,DQ
Mike Wonyetye,75,M,,,,,,SBD,Single-ply,Open,DQ
Vick Kemp,75,M,,150,105,,,SBD,Single-ply,Open,DQ
Dolph Pierce,82.5,M,,297.5,182.5,282.5,762.5,SBD,Single-ply,Open,1
Jim Lem,82.5,M,,295,160,,,SBD,Single-ply,Open,DQ
Adolph Jones,82.5,M,,205,147.5,,,SBD,Single-ply,Open,DQ
Kent Bush,90,M,,295,187.5,320,802.5,SBD,Single-ply,Open,1
Rich Woods,90,M,,285,195,302.5,782.5,SBD,Single-ply,Open,2
Danny Bullard,90,M,,237.5,210,265,712.5,SBD,Single-ply,Open,3
Bill Ennis,90,M,,,,,,SBD,Single-ply,Open,DQ
D. Hazelwood,90,M,,287.5,152.5,,,SBD,Single-ply,Open,DQ
Leon Reali,90,M,,240,152.5,,,SBD,Single-ply,Open,DQ
Mark Salansky,100,M,,307.5,222.5,307.5,837.5,SBD,Single-ply,Open,1
R. Marinello,100,M,,310,180,292.5,782.5,SBD,Single-ply,Open,2
Steve Foster,100,M,,327.5,,,,SBD,Single-ply,Open,DQ
Ted Hammer,100,M,,,,,,SBD,Single-ply,Open,DQ
Tom Pheil,100,M,,277.5,182.5,,,SBD,Single-ply,Open,DQ
Jerry Englebert,100,M,,262.5,145,,,SBD,Single-ply,Open,DQ
Ali Koshshkberiie,100,M,,195,147.5,,,SBD,Single-ply,Open,DQ
Sam Samaniego,110,M,,327.5,235,290,852.5,SBD,Single-ply,Open,1
David Shaw,125,M,,367.5,227.5,372.5,967.5,SBD,Single-ply,Open,1
Terry McCormick,125,M,,357.5,235,372.5,965,SBD,Single-ply,Open,2
Joe Free,125,M,,302.5,217.5,325,845,SBD,Single-ply,Open,3
Lee Moran #1,125+,M,138.61,432.5,285,320,1037.5,SBD,Single-ply,Open,1
Shawn Dear,125+,M,,355,230,350,935,SBD,Single-ply,Open,2
