Place,Name,Division,BodyweightKg,Squat1Kg,Squat2Kg,Squat3Kg,Best3SquatKg,Bench1Kg,Bench2Kg,Bench3Kg,Best3BenchKg,Deadlift1Kg,Deadlift2Kg,Deadlift3Kg,Best3DeadliftKg,TotalKg,WeightClassKg,Sex,CyrillicName,BirthYear,Equipment,Event
1,Kirill Krut,Juniors,52.8,,,,215,,,,140,,,,220,575,53,M,Кирилл Круть,1991,Single-ply,SBD
2,Gennadiy Yadne,Juniors,53,,,,140,,,,112.5,,,,152.5,405,53,M,Геннадий Ядне,1994,Single-ply,SBD
1,Konstantin Makarov,Juniors,58.6,,,,245,,,,150,,,,212.5,607.5,59,M,Константин Макаров,1991,Single-ply,SBD
2,Vladimir Serkin,Juniors,58.6,,,,230,,,,147.5,,,,220,597.5,59,M,Владимир Серкин,1992,Single-ply,SBD
3,Roman Sayfutdinov,Juniors,58.25,,,,212.5,,,,157.5,,,,217.5,587.5,59,M,Роман Сайфутдинов,1993,Single-ply,SBD
4,Aleksey Khrenkov,Juniors,58.15,,,,230,,,,155,,,,200,585,59,M,Алексей Хренков,1992,Single-ply,SBD
5,Maksim Chupakhin,Juniors,58.25,,,,217.5,,,,127.5,,,,215,560,59,M,Максим Чупахин,1994,Single-ply,SBD
6,Maksim Melikov,Juniors,58.7,,,,240,,,,120,,,,195,555,59,M,Максим Меликов,1994,Single-ply,SBD
DQ,Fazil Gasanov,Juniors,58.65,,,,200,,,,125,,,,,,59,M,Фазил Гасанов,1993,Single-ply,SBD
1,Aleksandr Shipchin,Juniors,65.8,,,,255,,,,175,,,,240,670,66,M,Александр Шипчин,1990,Single-ply,SBD
2,Vitaliy Leontyev,Juniors,65.3,,,,235,,,,172.5,,,,202.5,610,66,M,Виталий Леонтьев,1992,Single-ply,SBD
3,Vladimir Semenov,Juniors,65.6,,,,242.5,,,,147.5,,,,220,610,66,M,Владимир Семенов,1994,Single-ply,SBD
4,Roman Anorin,Juniors,63.6,,,,250,,,,130,,,,227.5,607.5,66,M,Роман Анорин,1992,Single-ply,SBD
5,Sergey Orban,Juniors,65.45,,,,240,,,,142.5,,,,225,607.5,66,M,Сергей Орбан,1992,Single-ply,SBD
6,Andrey Sergeev,Juniors,65.55,,,,240,,,,137.5,,,,230,607.5,66,M,Андрей Сергеев,1994,Single-ply,SBD
7,Maksim Pankratov,Juniors,65.75,,,,220,,,,127.5,,,,242.5,590,66,M,Максим Панкратов,1994,Single-ply,SBD
8,Aleksandr Dulepov,Juniors,64.7,,,,225,,,,142.5,,,,220,587.5,66,M,Александр Дулепов,1993,Single-ply,SBD
9,Gaziz Rakhmatulin,Juniors,65.8,,,,220,,,,120,,,,212.5,552.5,66,M,Газиз Рахматулин,1991,Single-ply,SBD
1,Roman Churbakov,Juniors,73.9,,,,310,,,,187.5,,,,250,747.5,74,M,Роман Чурбаков,1992,Single-ply,SBD
2,Ilya Orel,Juniors,73.65,,,,287.5,,,,175,,,,265,727.5,74,M,Илья Орел,1993,Single-ply,SBD
3,Aleksandr Belinskiy,Juniors,73.85,,,,270,,,,200,,,,245,715,74,M,Александр Белинский,1990,Single-ply,SBD
4,Andrey Danilov,Juniors,73.9,,,,290,,,,162.5,,,,255,707.5,74,M,Андрей Данилов,1990,Single-ply,SBD
5,Andrey Lunkov,Juniors,73.6,,,,265,,,,165,,,,267.5,697.5,74,M,Андрей Луньков,1990,Single-ply,SBD
6,Roman Bakhshiev,Juniors,73.05,,,,280,,,,185,,,,225,690,74,M,Роман Бахшиев,1993,Single-ply,SBD
7,Vladislav Leontyev,Juniors,73.3,,,,255,,,,167.5,,,,235,657.5,74,M,Владислав Леонтьев,1994,Single-ply,SBD
8,Vadim Galeev,Juniors,71.75,,,,260,,,,157.5,,,,230,647.5,74,M,Вадим Галеев,1992,Single-ply,SBD
9,Vitaliy Makarov,Juniors,73.1,,,,225,,,,145,,,,225,595,74,M,Виталий Макаров,1992,Single-ply,SBD
DQ,Nikolay Isaev,Juniors,72.5,,,,285,,,,,,,,,,74,M,Николай Исаев,1991,Single-ply,SBD
DQ,Aleksandr Bukharov,Juniors,73.85,,,,,,,,,,,,,,74,M,Александр Бухаров,1991,Single-ply,SBD
1,Nikolay Tsveloy,Juniors,82.55,,,,320,,,,195,,,,282.5,797.5,83,M,Николай Цвелой,1991,Single-ply,SBD
2,Aleksey Fursov,Juniors,82.25,,,,340,,,,185,,,,265,790,83,M,Алексей Фурсов,1990,Single-ply,SBD
3,Vladimir Govorukhin,Juniors,80.9,,,,300,,,,177.5,,,,262.5,740,83,M,Владимир Говорухин,1993,Single-ply,SBD
4,Sergey Statsenko,Juniors,81.75,,,,285,,,,170,,,,280,735,83,M,Сергей Стаценко,1993,Single-ply,SBD
5,Konstantin Ryzhov,Juniors,82.95,,,,285,,,,175,,,,270,730,83,M,Константин Рыжов,1991,Single-ply,SBD
6,Ilya Druzhinin,Juniors,78.1,,,,290,,,,175,,,,255,720,83,M,Илья Дружинин,1994,Single-ply,SBD
7,Ilya Shestakov,Juniors,81.4,,,,250,,,,135,,,,250,635,83,M,Илья Шестаков,1991,Single-ply,SBD
8,Aleksandr Plakhin,Juniors,81.6,,,,220,,,,137.5,,,,210,567.5,83,M,Александр Плахин,1993,Single-ply,SBD
DQ,Roman Antonyak,Juniors,79.5,,,,260,,,,,,,,,,83,M,Роман Антоняк,1993,Single-ply,SBD
1,Evgeniy Berdnikov,Juniors,91.85,,,,350,,,,220,,,,340,910,93,M,Евгений Бердников,1991,Single-ply,SBD
2,Aleksandr Vasev,Juniors,92.15,,,,335,,,,195,,,,315,845,93,M,Александр Васев,1991,Single-ply,SBD
3,Roman Asadulin,Juniors,89.3,,,,335,,,,200,,,,280,815,93,M,Роман Асадулин,1991,Single-ply,SBD
4,Andrey Kruk,Juniors,86.2,,,,330,,,,192.5,,,,275,797.5,93,M,Андрей Крук,1993,Single-ply,SBD
5,Aleksandr Mineev,Juniors,90,,,,320,,,,220,,,,255,795,93,M,Александр Минеев,1990,Single-ply,SBD
6,Artem Kulakov,Juniors,90.15,,,,295,,,,200,,,,277.5,772.5,93,M,Артем Кулаков,1990,Single-ply,SBD
7,Vladimir Razuvaev,Juniors,88.9,,,,297.5,,,,195,,,,270,762.5,93,M,Владимир Разуваев,1990,Single-ply,SBD
8,Vyacheslav Kuzminykh,Juniors,92.6,,,,300,,,,187.5,,,,250,737.5,93,M,Вячеслав Кузьминых,1992,Single-ply,SBD
9,Igor Tetyushkin,Juniors,88,,,,295,,,,157.5,,,,270,722.5,93,M,Игорь Тетюшкин,1994,Single-ply,SBD
10,Denis Balykov,Juniors,89.95,,,,230,,,,170,,,,215,615,93,M,Денис Балыков,1990,Single-ply,SBD
DQ,Sergey Kayurin,Juniors,91.9,,,,,,,,,,,,,,93,M,Сергей Каюрин,1992,Single-ply,SBD
DQ,Andrey Ryzhkov,Juniors,91.75,,,,,,,,,,,,,,93,M,Андрей Рыжков,1992,Single-ply,SBD
1,Yury Belkin,Juniors,99.85,,,,375,,,,245,,,,340,960,105,M,Юрий Белкин,1990,Single-ply,SBD
2,Andrey Inin,Juniors,104.75,,,,350,,,,235,,,,325,910,105,M,Андрей Инин,1990,Single-ply,SBD
3,Andrey Bystrov,Juniors,104.65,,,,310,,,,235,,,,310,855,105,M,Андрей Быстров,1991,Single-ply,SBD
4,Vladimir Ignatenkov,Juniors,94.35,,,,325,,,,217.5,,,,285,827.5,105,M,Владимир Игнатенков,1991,Single-ply,SBD
5,Sergey Gnusarev,Juniors,103.45,,,,310,,,,165,,,,275,750,105,M,Сергей Гнусарев,1993,Single-ply,SBD
1,Sergey Usov,Juniors,114.7,,,,375,,,,285.5,,,,332.5,993,120,M,Сергей Усов,1993,Single-ply,SBD
2,Aleksey Fokin,Juniors,111.5,,,,380,,,,252.5,,,,352.5,985,120,M,Алексей Фокин,1991,Single-ply,SBD
3,Ivan Goryachev,Juniors,119.7,,,,385,,,,285,,,,315,985,120,M,Иван Горячев,1990,Single-ply,SBD
4,Evgeniy Makushev,Juniors,109,,,,280,,,,175,,,,250,705,120,M,Евгений Макушев,1994,Single-ply,SBD
1,Artem Litvinenko,Juniors,127.1,,,,385,,,,245,,,,337.5,967.5,120+,M,Артём Литвиненко,1990,Single-ply,SBD
2,Dmitriy Dokalin,Juniors,128.75,,,,350,,,,285,,,,327.5,962.5,120+,M,Дмитрий Докалин,1990,Single-ply,SBD
3,Aleksandr Sabelfeld,Juniors,165.35,,,,360,,,,260,,,,310,930,120+,M,Александр Сабельфельд,1991,Single-ply,SBD
4,Ivan Tsigelnik,Juniors,139.85,,,,360,,,,205,,,,320,885,120+,M,Иван Цигельник,1990,Single-ply,SBD
5,Dmitriy Petrov,Juniors,187.3,,,,375,,,,190,,,,285,850,120+,M,Дмитрий Петров,1993,Single-ply,SBD
6,Artem Mizetskiy,Juniors,126.9,,,,310,,,,225,,,,220,755,120+,M,Артем Мизецкий,1994,Single-ply,SBD
1,Ekaterina Alikina,Juniors,41.65,,,,125,,,,57.5,,,,125,307.5,43,F,Екатерина Аликина,1993,Single-ply,SBD
2,Mariia Starostina,Juniors,42.8,,,,120,,,,60,,,,115,295,43,F,Мария Старостина,1991,Single-ply,SBD
3,Aleksandra Karacharovskaya,Juniors,42.3,,,,80,,,,42.5,,,,82.5,205,43,F,Александра Карачаровская,1990,Single-ply,SBD
1,Zinaida Evdokimova,Juniors,46.9,,,,142.5,,,,93,,,,140,375.5,47,F,Зинаида Евдокимова,1993,Single-ply,SBD
2,Kristina Moskaleva,Juniors,46.65,,,,147.5,,,,70,,,,130,347.5,47,F,Кристина Москалева,1990,Single-ply,SBD
3,Aleksandra Churkina,Juniors,46.7,,,,140,,,,75,,,,122.5,337.5,47,F,Александра Чуркина,1992,Single-ply,SBD
4,Alesya Sarancha,Juniors,46.75,,,,122.5,,,,80,,,,125,327.5,47,F,Алеся Саранча,1993,Single-ply,SBD
5,Anastasiya Retina,Juniors,46.05,,,,125,,,,60,,,,120,305,47,F,Анастасия Ретина,1992,Single-ply,SBD
1,Inna Filimonova #2,Juniors,51.4,,,,170,,,,112.5,,,,150,432.5,52,F,Инна Филимонова,1994,Single-ply,SBD
2,Ekaterina Volodina,Juniors,47.9,,,,140,,,,70,,,,140,350,52,F,Екатерина Володина,1994,Single-ply,SBD
3,Polina Ananyeva,Juniors,52,,,,140,,,,77.5,,,,130,347.5,52,F,Полина Ананьева,1993,Single-ply,SBD
4,Svetlana Ogorodnikova,Juniors,51.3,,,,135,,,,67.5,,,,137.5,340,52,F,Светлана Огородникова,1994,Single-ply,SBD
5,Tatyana Toltaeva,Juniors,51.45,,,,115,,,,65,,,,117.5,297.5,52,F,Татьяна Толтаева,1991,Single-ply,SBD
1,Yekaterina Osipova,Juniors,56.05,,,,187.5,,,,122.5,,,,170,480,57,F,Екатерина Осипова,1991,Single-ply,SBD
2,Viktoria Karlysheva,Juniors,55.5,,,,195,,,,102.5,,,,170,467.5,57,F,Виктория Карлышева,1993,Single-ply,SBD
3,Viktoriya Savkina,Juniors,56.45,,,,170,,,,82.5,,,,160,412.5,57,F,Виктория Савкина,1994,Single-ply,SBD
4,Tatyana Gabidulina,Juniors,56.1,,,,160,,,,115,,,,130,405,57,F,Татьяна Габидулина,1992,Single-ply,SBD
5,Natalia Melnikova,Juniors,56.8,,,,165,,,,97.5,,,,127.5,390,57,F,Наталья Мельникова,1992,Single-ply,SBD
6,Olesya Vracheva,Juniors,56.45,,,,125,,,,82.5,,,,135,342.5,57,F,Олеся Врачева,1990,Single-ply,SBD
1,Olga Adamovich,Juniors,61.6,,,,202.5,,,,110,,,,190.5,503,63,F,Ольга Адамович,1991,Single-ply,SBD
2,Rimma Gaynulina,Juniors,62.95,,,,170,,,,95,,,,167.5,432.5,63,F,Римма Гайнулина,1991,Single-ply,SBD
3,Ekaterina Nemets,Juniors,63,,,,172.5,,,,122.5,,,,137.5,432.5,63,F,Екатерина Немец,1990,Single-ply,SBD
4,Dina Batalova,Juniors,57.05,,,,162.5,,,,95,,,,150,407.5,63,F,Дина Баталова,1992,Single-ply,SBD
5,Valeriya Blinova,Juniors,63,,,,150,,,,80,,,,155,385,63,F,Валерия Блинова,1992,Single-ply,SBD
6,Olga Lipatova,Juniors,62.8,,,,140,,,,90,,,,130,360,63,F,Ольга Липатова,1990,Single-ply,SBD
DQ,Serafima Shastunova,Juniors,61.6,,,,,,,,,,,,,,63,F,Серафима Шастунова,1990,Single-ply,SBD
1,Lidiya Chukhonastova,Juniors,70.75,,,,200,,,,112.5,,,,207.5,520,72,F,Лидия Чухонастова,1993,Single-ply,SBD
2,Yana Talybova,Juniors,71.9,,,,185,,,,120,,,,157.5,462.5,72,F,Яна Талыбова,1991,Single-ply,SBD
3,Elena Ivanova,Juniors,71.25,,,,192.5,,,,107.5,,,,157.5,457.5,72,F,Елена Иванова,1992,Single-ply,SBD
4,Irina Zhernakova,Juniors,68.85,,,,165,,,,90,,,,170,425,72,F,Ирина Жернакова,1991,Single-ply,SBD
5,Viktoriya Vazhenina,Juniors,70.15,,,,170,,,,90,,,,150,410,72,F,Виктория Важенина,1992,Single-ply,SBD
6,Yuliya Chernova,Juniors,70.9,,,,162.5,,,,87.5,,,,160,410,72,F,Юлия Чернова,1992,Single-ply,SBD
7,Kseniya Karataeva,Juniors,69.5,,,,145,,,,72.5,,,,135,352.5,72,F,Ксения Каратаева,1992,Single-ply,SBD
1,Ekaterina Baranova,Juniors,83.25,,,,225,,,,152.5,,,,185,562.5,84,F,Екатерина Баранова,1992,Single-ply,SBD
2,Ekaterina Bratus,Juniors,82.75,,,,215,,,,122.5,,,,172.5,510,84,F,Екатерина Братусь,1991,Single-ply,SBD
3,Ekaterina Muksimova,Juniors,83.6,,,,167.5,,,,115,,,,175,457.5,84,F,Екатерина Муксимова,1991,Single-ply,SBD
1,Elena Kucherenko,Juniors,96.45,,,,240,,,,135,,,,205,580,84+,F,Елена Кучеренко,1992,Single-ply,SBD
2,Ulyana Krevopuskova,Juniors,103.65,,,,160,,,,100,,,,160,420,84+,F,Ульяна Кревопускова,1991,Single-ply,SBD
1,Sergey Fedosienko,Open,56.8,260,-280,285,285,175,185,-190,185,240,260,-273,260,730,59,M,Сергей Федосиенко,1982,Single-ply,SBD
2,Alexander Kolbin,Open,58.95,-240,250,-262.5,250,140,150,165,165,240,250,-255,250,665,59,M,Александр Колбин,1987,Single-ply,SBD
3,Aleksey Ilin,Open,58.85,220,-230,-230,220,-152.5,157.5,165,165,210,215,217.5,217.5,602.5,59,M,Алексей Ильин,1980,Single-ply,SBD
5,Vladimir Druzhinin,Open,58.5,210,222.2,-227.5,222.2,145,155,162.5,162.5,180,-190,-195,180,564.7,59,M,Владимир Дружинин,1985,Single-ply,SBD
DQ,Andrey Svistunov,Open,58.4,-220,-227.5,-227.5,,132.5,137.5,-140,137.5,220,225,-235,225,,59,M,Андрей Свистунов,1977,Single-ply,SBD
1,Aleksandr Molin,Open,65.95,275,290,-295,290,175,182.5,-187.5,182.5,245,255,-260,255,727.5,66,M,Александр Молин,1992,Single-ply,SBD
2,Anatoliy Leonov,Open,65.85,275,290,300,300,-165,165,170,170,240,-250,-250,240,710,66,M,Анатолий Леонов,1986,Single-ply,SBD
3,Yuriy Groshnikov,Open,65.75,260,270,-275,270,150,155,160,160,260,-270,-270,260,690,66,M,Юрий Грошников,1984,Single-ply,SBD
4,Artur Gafiyatullin,Open,64.65,235,245,252,252,180,190,195,195,230,-245,-250,230,677,66,M,Артур Гафиятуллин,1989,Single-ply,SBD
5,Aleksey Khankhaldov,Open,65.25,240,-250,-250,240,-135,-135,135,135,220,227.5,240,240,615,66,M,Алексей Ханхалдов,1987,Single-ply,SBD
1,Maxim Nurutdinov,Open,73.95,305,320,-327.5,320,180,185,190,190,267.5,277.5,287.5,287.5,797.5,74,M,Максим Нурутдинов,1982,Single-ply,SBD
2,Nikolay Sokolov,Open,73.6,270,300,307.5,307.5,200,210,217.5,217.5,260,270,-282.5,270,795,74,M,Николай Соколов,1979,Single-ply,SBD
3,Ivan Davydov,Open,73.9,-280,280,295,295,190,205,210,210,270,285,-292.5,285,790,74,M,Иван Давыдов,1989,Single-ply,SBD
4,Alexey Bakhirev,Open,73.65,257.5,270,275,275,200,210,217.5,217.5,282.5,295,-305,295,787.5,74,M,Алексей Бахирев,1981,Single-ply,SBD
5,Ivan Nesterov,Open,73.15,285,302.5,-305,302.5,140,147.5,152.5,152.5,260,-280,280,280,735,74,M,Иван Нестеров,1988,Single-ply,SBD
6,Mikhail Kryukov,Open,73.8,235,250,260,260,135,142.5,150,150,230,250,-255,250,660,74,M,Михаил Крюков,1972,Single-ply,SBD
DQ,Aleksandr Vedernikov,Open,71.65,275,290,-297.5,290,-185,-185,-185,,,,,,,74,M,Александр Ведерников,1986,Single-ply,SBD
1,Alexey Sorokin,Open,82.75,345,360,-372.5,360,220,227.5,-232.5,227.5,300,310,317.5,317.5,905,83,M,Алексей Сорокин,1985,Single-ply,SBD
2,Pavel Ozerov,Open,82.4,320,330,335,335,220,227.5,232.5,232.5,290,305,-315,305,872.5,83,M,Павел Озеров,1980,Single-ply,SBD
3,Konstantin Dyashkin,Open,82.95,320,340,-350,340,200,-210,210,210,-305,305,-312.5,305,855,83,M,Константин Дяшкин,1984,Single-ply,SBD
4,Artem Zaytsev,Open,82.55,-330,-330,330,330,207.5,-212.5,212.5,212.5,300,-307.5,-307.5,300,842.5,83,M,Артем Зайцев,1985,Single-ply,SBD
5,Alexey Kuzmin,Open,82.65,325,-335,-335,325,195,205,210,210,302.5,-325,-325,302.5,837.5,83,M,Алексей Кузьмин,1982,Single-ply,SBD
7,Vladimir Agafonov,Open,82.95,315,-330,-330,315,205,212.5,-215,212.5,305,-315,-315,305,832.5,83,M,Владимир Агафонов,1987,Single-ply,SBD
8,Sergey Melekhin,Open,82.6,-315,315,330,330,200,210,-220,210,260,-285,285,285,825,83,M,Сергей Мелехин,1972,Single-ply,SBD
6,Nikolay Bulatov,Open,82,290,-310,-320,290,220,-232.5,232.5,232.5,270,282.5,-292.5,282.5,805,83,M,Николай Булатов,1986,Single-ply,SBD
9,Renat Bayazitov,Open,82.1,280,290,-295,290,190,-200,-200,190,270,275,-280,275,755,83,M,Ренат Баязитов,1988,Single-ply,SBD
10,Evgeniy Korotchenkov,Open,83,265,,,265,202.5,207.5,212.5,212.5,255,,,255,732.5,83,M,Евгений Коротченков,1988,Single-ply,SBD
DQ,Aleksey Kartel,Open,82.4,270,285,-292.5,285,-155,-155,-155,,,,,,,83,M,Алексей Картель,1988,Single-ply,SBD
1,Sergey Mashintsov,Open,92.4,350,362.5,370,370,240,-250,250,250,332.5,350,-360,350,970,93,M,Сергей Машинцов,1987,Single-ply,SBD
2,Yuri Arkhipov,Open,92.3,355,-365,365,365,-260,260,-270,260,330,340,-350,340,965,93,M,Юрий Архипов,1985,Single-ply,SBD
3,Dmitry Inzarkin,Open,90.45,-350,350,-360,350,260,270,-275,270,310,320,325,325,945,93,M,Дмитрий Инзаркин,1987,Single-ply,SBD
4,Pavel Eliseev,Open,92.3,335,340,-345,340,190,205,210,210,310,322.5,330,330,880,93,M,Павел Елисеев,1988,Single-ply,SBD
5,Sergei Sukhodolin,Open,92.7,350,-365,-365,350,225,-235,235,235,260,280,-300,280,865,93,M,Сергей Суходолин,1989,Single-ply,SBD
6,Dmitriy Vinogradov,Open,92.5,300,320,-330,320,200,215,225,225,270,280,290,290,835,93,M,Дмитрий Виноградов,1988,Single-ply,SBD
7,Dmitriy Yushkov,Open,92.25,-330,340,-345,340,-215,215,220,220,265,270,-272.5,270,830,93,M,Дмитрий Юшков,1987,Single-ply,SBD
8,Aleksey Kuchnerov,Open,91.7,275,285,287.5,287.5,225,232.5,-235,232.5,252.5,-257.5,-257.5,252.5,772.5,93,M,Алексей Кучнеров,1981,Single-ply,SBD
DQ,Yevgeny Kuzmin,Open,92.05,370,-390,-392.5,370,240,,,240,,,,,,93,M,Евгений Кузьмин,1988,Single-ply,SBD
DD,Artem Puzyrnikov,Open,92.9,335,360,365,365,225,235,-240,235,-332.5,332.5,-347.5,332.5,,93,M,Артем Пузырников,1988,Single-ply,SBD
1,Andrey Shurbenkov,Open,104.55,370,385,400,400,260,275,-282.5,275,320,-340,-345,320,995,105,M,Андрей Шурбенков,1979,Single-ply,SBD
2,Vyacheslav Teglivets,Open,101.4,340,-355,360,360,230,-240,-240,230,320,-335,335,335,925,105,M,Вячеслав Тегливец,1988,Single-ply,SBD
3,Mikhail Kim,Open,103.4,-310,315,325,325,210,217.5,225,225,330,360,365,365,915,105,M,Михаил Ким,1980,Single-ply,SBD
4,Maksim Titov,Open,105,350,-365,365,365,220,230,-237.5,230,302.5,-317.5,320,320,915,105,M,Максим Титов,1988,Single-ply,SBD
5,Dmitriy Popov,Open,94.65,330,340,347.5,347.5,230,-235,-235,230,290,-297.5,,290,867.5,105,M,Дмитрий Попов,1987,Single-ply,SBD
1,Vasiliy Omelchenko,Open,118.4,380,395,,395,260,270,275,275,-335,335,352.5,352.5,1022.5,120,M,Василий Омельченко,1973,Single-ply,SBD
2,Artur Lauer,Open,118.55,350,-365,,350,240,250,257.5,257.5,315,340,-350,340,947.5,120,M,Артур Лауэр,1986,Single-ply,SBD
3,Dmitriy Yashurin,Open,115.25,320,340,,340,210,220,-225,220,300,315,-325,315,875,120,M,Дмитрий Яшурин,1982,Single-ply,SBD
DD,Igor Gagin,Open,119.65,405,415,425,425,275,290,297.5,297.5,300,330,350,350,,120,M,Игорь Гагин,1969,Single-ply,SBD
1,Marat Chirkov,Open,134.05,-370,385,400,400,245,260,270,270,320,340,-350,340,1010,120+,M,Марат Чирков,1984,Single-ply,SBD
2,Aleksandr Gavrilov,Open,124.15,350,-370,370,370,220,230,235,235,315,330,337.5,337.5,942.5,120+,M,Александр Гаврилов,1981,Single-ply,SBD
3,Sergey Mezhitov,Open,153.05,-340,350,370,370,250,265,272.5,272.5,280,300,-315,300,942.5,120+,M,Сергей Межитов,1979,Single-ply,SBD
4,Sergey Selezen,Open,123.35,300,320,340,340,300,310,-320,310,290,-305,-305,290,940,120+,M,Сергей Селезень,1980,Single-ply,SBD
5,Nikita Panov,Open,123.1,-290,290,310,310,190,200,-210,200,240,255,-262.5,255,765,120+,M,Никита Панов,1988,Single-ply,SBD
DQ,Yuriy Musikhin,Open,124.4,305,315,-325,315,220,225,-230,225,-305,-305,,,,120+,M,Юрий Мусихин,1984,Single-ply,SBD
DD,Anton Kibirev,Open,139.35,400,420,-440,420,270,280,285,285,330,350,370,370,,120+,M,Антон Кибирев,1982,Single-ply,SBD
1,Daniil Dolgulev,Sub-Juniors,47.95,,,,145,,,,87.5,,,,130,362.5,48,M,Даниил Долгулев,1998,Single-ply,SBD
2,Georgiy Klimenko,Sub-Juniors,44,,,,135,,,,87.5,,,,122.5,345,48,M,Георгий Клименко,1995,Single-ply,SBD
3,Dmitriy Maryanov,Sub-Juniors,47.2,,,,117.5,,,,77.5,,,,127.5,322.5,48,M,Дмитрий Марянов,1996,Single-ply,SBD
4,Dmitriy Surzhko,Sub-Juniors,47.75,,,,115,,,,72.5,,,,125,312.5,48,M,Дмитрий Суржко,1996,Single-ply,SBD
5,Vadim Zhalnin,Sub-Juniors,45.85,,,,115,,,,60,,,,125,300,48,M,Вадим Жалнин,1998,Single-ply,SBD
6,Pavel Korotkikh,Sub-Juniors,48,,,,105,,,,62.5,,,,127.5,295,48,M,Павел Коротких,1998,Single-ply,SBD
7,Nikita Panyukhin,Sub-Juniors,46.05,,,,115,,,,57.5,,,,120,292.5,48,M,Никита Панюхин,1998,Single-ply,SBD
8,Artur Dronov,Sub-Juniors,45.55,,,,100,,,,70,,,,115,285,48,M,Артур Дронов,1998,Single-ply,SBD
9,Denis Sharapov,Sub-Juniors,46.7,,,,85,,,,55,,,,120,260,48,M,Денис Шарапов,1998,Single-ply,SBD
1,Vitaliy Shevkunov,Sub-Juniors,52.9,,,,167.5,,,,107.5,,,,180,455,53,M,Виталий Шевкунов,1996,Single-ply,SBD
2,Vitaliy Mukhin,Sub-Juniors,51.7,,,,172.5,,,,105,,,,167.5,445,53,M,Виталий Мухин,1995,Single-ply,SBD
3,Azamat Asultanov,Sub-Juniors,53,,,,160,,,,100,,,,182.5,442.5,53,M,Азамат Асултанов,1997,Single-ply,SBD
4,Vladislav Bryksin,Sub-Juniors,53,,,,170,,,,97.5,,,,172.5,440,53,M,Владислав Брыксин,1995,Single-ply,SBD
5,Aleksey Kulakov,Sub-Juniors,52.8,,,,172.5,,,,92.5,,,,167.5,432.5,53,M,Алексей Кулаков,1997,Single-ply,SBD
6,Artem Antonov,Sub-Juniors,51.75,,,,177.5,,,,82.5,,,,170,430,53,M,Артем Антонов,1996,Single-ply,SBD
7,Evgeniy Smirnov,Sub-Juniors,52.95,,,,160,,,,100,,,,155,415,53,M,Евгений Смирнов,1997,Single-ply,SBD
8,Dmitriy Romaschuk,Sub-Juniors,50.6,,,,155,,,,85,,,,145,385,53,M,Дмитрий Ромащук,1995,Single-ply,SBD
9,Maksim Grachev,Sub-Juniors,50.7,,,,140,,,,97.5,,,,130,367.5,53,M,Максим Грачев,1996,Single-ply,SBD
10,Dinar Khayrulin,Sub-Juniors,51.85,,,,95,,,,60,,,,130,285,53,M,Динар Хайрулин,1996,Single-ply,SBD
1,Bulat Samkaev,Sub-Juniors,57.2,,,,215,,,,132.5,,,,195,542.5,59,M,Булат Самкаев,1995,Single-ply,SBD
2,Ruslan Balabanov,Sub-Juniors,58.15,,,,195,,,,127.5,,,,187.5,510,59,M,Руслан Балабанов,1996,Single-ply,SBD
3,Nikolay Kuntorovskiy,Sub-Juniors,58.9,,,,185,,,,110,,,,195,490,59,M,Николай Кунторовский,1995,Single-ply,SBD
4,Vladislav Berezin,Sub-Juniors,58.55,,,,185,,,,105,,,,187.5,477.5,59,M,Владислав Березин,1995,Single-ply,SBD
5,Aleksey Khomyakov,Sub-Juniors,58.6,,,,190,,,,107.5,,,,180,477.5,59,M,Алексей Хомяков,1995,Single-ply,SBD
6,Oleg Barskov,Sub-Juniors,58.8,,,,160,,,,100,,,,185,445,59,M,Олег Барсков,1996,Single-ply,SBD
7,Nikita Chimbur,Sub-Juniors,58.8,,,,167.5,,,,100,,,,150,417.5,59,M,Никита Чимбур,1997,Single-ply,SBD
8,Mikhail Khruschev,Sub-Juniors,56.85,,,,160,,,,85,,,,152.5,397.5,59,M,Михаил Хрущев,1998,Single-ply,SBD
9,Aleksandr Alsufyev,Sub-Juniors,56.9,,,,140,,,,75,,,,135,350,59,M,Александр Алсуфьев,1999,Single-ply,SBD
DQ,Nikita Kolesnikov,Sub-Juniors,56.05,,,,,,,,,,,,,,59,M,Никита Колесников,1996,Single-ply,SBD
DQ,Aleksey Bronnikov,Sub-Juniors,58,,,,,,,,,,,,,,59,M,Алексей Бронников,1995,Single-ply,SBD
1,Ilya Mishin,Sub-Juniors,65.4,,,,247.5,,,,137.5,,,,235,620,66,M,Илья Мишин,1995,Single-ply,SBD
2,Vladislav Shaybekov,Sub-Juniors,65.25,,,,250,,,,157.5,,,,210,617.5,66,M,Владислав Шайбеков,1995,Single-ply,SBD
3,Efim Tsebenko,Sub-Juniors,65.55,,,,230,,,,130,,,,225,585,66,M,Ефим Цебенко,1995,Single-ply,SBD
4,Valeriy Vorotilin,Sub-Juniors,65.25,,,,210,,,,162.5,,,,205,577.5,66,M,Валерий Воротилин,1995,Single-ply,SBD
5,Petr Novoseltsev,Sub-Juniors,65.45,,,,225,,,,127.5,,,,225,577.5,66,M,Петр Новосельцев,1995,Single-ply,SBD
6,Aleksandr Fedorov,Sub-Juniors,63.85,,,,210,,,,137.5,,,,190,537.5,66,M,Александр Федоров,1995,Single-ply,SBD
7,Vladislav Slaykovskiy,Sub-Juniors,64.5,,,,190,,,,145,,,,190,525,66,M,Владислав Слайковский,1996,Single-ply,SBD
8,Dmitriy Fedotov,Sub-Juniors,64.05,,,,190,,,,125,,,,195,510,66,M,Дмитрий Федотов,1995,Single-ply,SBD
9,Vladislav Gerasimov,Sub-Juniors,65.85,,,,190,,,,120,,,,180,490,66,M,Владислав Герасимов,1997,Single-ply,SBD
10,Dmitriy Vasilyev,Sub-Juniors,63.35,,,,172.5,,,,100,,,,172.5,445,66,M,Дмитрий Васильев,1995,Single-ply,SBD
11,Vladislav Kulchenko,Sub-Juniors,64.6,,,,145,,,,82.5,,,,155,382.5,66,M,Владислав Кульченко,1997,Single-ply,SBD
DQ,Pavel Mazurovskiy,Sub-Juniors,65.2,,,,185,,,,,,,,,,66,M,Павел Мазуровский,1995,Single-ply,SBD
DQ,Maksim Masson,Sub-Juniors,62.8,,,,,,,,,,,,,,66,M,Максим Массон,1995,Single-ply,SBD
DQ,Viktor Panteleev,Sub-Juniors,65.05,,,,,,,,,,,,,,66,M,Виктор Пантелеев,1996,Single-ply,SBD
1,Marat Aminov,Sub-Juniors,73.4,,,,255,,,,170,,,,240,665,74,M,Марат Аминов,1995,Single-ply,SBD
2,Yuriy Gimgin,Sub-Juniors,71.4,,,,255,,,,130,,,,225,610,74,M,Юрий Гимгин,1995,Single-ply,SBD
3,Artur Kurmanaev,Sub-Juniors,69.25,,,,220,,,,130,,,,250,600,74,M,Артур Курманаев,1995,Single-ply,SBD
4,Oleg Statsenko,Sub-Juniors,74,,,,235,,,,142.5,,,,222.5,600,74,M,Олег Стаценко,1996,Single-ply,SBD
5,Vladislav Sheruntaev,Sub-Juniors,70.85,,,,230,,,,130,,,,230,590,74,M,Владислав Шерунтаев,1997,Single-ply,SBD
6,Shodibek Ikromov,Sub-Juniors,71.2,,,,220,,,,150,,,,220,590,74,M,Шодибек Икромов,1995,Single-ply,SBD
7,Nikolay Vladykin,Sub-Juniors,74,,,,230,,,,140,,,,215,585,74,M,Николай Владыкин,1995,Single-ply,SBD
8,Oleg Ovchinnikov,Sub-Juniors,72.95,,,,220,,,,132.5,,,,220,572.5,74,M,Олег Овчинников,1995,Single-ply,SBD
9,Vladislav Kovalev,Sub-Juniors,73.05,,,,232.5,,,,115,,,,220,567.5,74,M,Владислав Ковалев,1996,Single-ply,SBD
10,Maksim Klimov,Sub-Juniors,72.4,,,,210,,,,135,,,,200,545,74,M,Максим Климов,1996,Single-ply,SBD
11,Nikolay Vlasov,Sub-Juniors,73,,,,195,,,,135,,,,197.5,527.5,74,M,Николай Власов,1996,Single-ply,SBD
12,Egor Komar,Sub-Juniors,72.85,,,,187.5,,,,130,,,,205,522.5,74,M,Егор Комар,1996,Single-ply,SBD
13,Berik Beldiubaev,Sub-Juniors,71.8,,,,200,,,,122.5,,,,180,502.5,74,M,Берик Бельдиубаев,1995,Single-ply,SBD
DQ,Andrey Astakhov,Sub-Juniors,69.7,,,,250,,,,120,,,,,,74,M,Андрей Астахов,1996,Single-ply,SBD
DQ,Aleksandr Kapturov,Sub-Juniors,73.3,,,,235,,,,,,,,,,74,M,Александр Каптуров,1995,Single-ply,SBD
DQ,Egor Ivanov,Sub-Juniors,73.25,,,,,,,,,,,,,,74,M,Егор Иванов,1996,Single-ply,SBD
DQ,Dmitriy Grishanin,Sub-Juniors,73.35,,,,,,,,,,,,,,74,M,Дмитрий Гришанин,1995,Single-ply,SBD
1,Aleksey Shvedov,Sub-Juniors,82.2,,,,242.5,,,,160,,,,237.5,640,83,M,Алексей Шведов,1995,Single-ply,SBD
2,Maksim Babikov,Sub-Juniors,82.9,,,,250,,,,160,,,,230,640,83,M,Максим Бабиков,1995,Single-ply,SBD
3,Vladimir Emelyanov,Sub-Juniors,82.6,,,,242.5,,,,150,,,,245,637.5,83,M,Владимир Емельянов,1995,Single-ply,SBD
4,Maksim Shebukhov,Sub-Juniors,82.45,,,,217.5,,,,157.5,,,,250,625,83,M,Максим Шебухов,1995,Single-ply,SBD
5,Petr Orischin,Sub-Juniors,79.1,,,,235,,,,155,,,,225,615,83,M,Петр Орищин,1995,Single-ply,SBD
6,Aleksandr Khnykin,Sub-Juniors,80.7,,,,245,,,,135,,,,227.5,607.5,83,M,Александр Хныкин,1995,Single-ply,SBD
7,Andrey Fedorov,Sub-Juniors,82.85,,,,247.5,,,,135,,,,220,602.5,83,M,Андрей Федоров,1995,Single-ply,SBD
8,Villi Shmidt,Sub-Juniors,82.85,,,,230,,,,147.5,,,,220,597.5,83,M,Вилли Шмидт,1995,Single-ply,SBD
9,Barkhuz Tagiev,Sub-Juniors,80.3,,,,222.5,,,,152.5,,,,220,595,83,M,Бархуз Тагиев,1995,Single-ply,SBD
10,Nikita Telkanov,Sub-Juniors,77.65,,,,235,,,,145,,,,210,590,83,M,Никита Тельканов,1995,Single-ply,SBD
11,Dmitriy Pavlov,Sub-Juniors,80.55,,,,227.5,,,,130,,,,210,567.5,83,M,Дмитрий Павлов,1995,Single-ply,SBD
DD,Dmitriy Cherkashin,Sub-Juniors,83,,,,262.5,,,,185,,,,220,,83,M,Дмитрий Черкашин,1995,Single-ply,SBD
1,Aleksey Tsapa,Sub-Juniors,92.5,,,,335,,,,185,,,,285,805,93,M,Алексей Цапа,1995,Single-ply,SBD
2,Aleksey Efimik,Sub-Juniors,91.7,,,,307.5,,,,192.5,,,,280,780,93,M,Алексей Ефимик,1995,Single-ply,SBD
3,Vladislav Kulikovskiy,Sub-Juniors,92.45,,,,275,,,,157.5,,,,272.5,705,93,M,Владислав Куликовский,1995,Single-ply,SBD
4,Denis Kildeev,Sub-Juniors,92.35,,,,240,,,,172.5,,,,237.5,650,93,M,Денис Кильдеев,1995,Single-ply,SBD
5,Taras Torlopov,Sub-Juniors,92.95,,,,250,,,,157.5,,,,222.5,630,93,M,Тарас Торлопов,1995,Single-ply,SBD
6,Andrey Filippov,Sub-Juniors,86.45,,,,240,,,,135,,,,245,620,93,M,Андрей Филиппов,1995,Single-ply,SBD
7,Viktor Kuznetsov,Sub-Juniors,89,,,,210,,,,172.5,,,,212.5,595,93,M,Виктор Кузнецов,1998,Single-ply,SBD
8,Sergey Fochenkov,Sub-Juniors,92.4,,,,230,,,,115,,,,225,570,93,M,Сергей Фоченков,1995,Single-ply,SBD
1,Vladislav Tereshchenko,Sub-Juniors,104.25,,,,320,,,,205,,,,285,810,105,M,Владислав Терещенко,1996,Single-ply,SBD
2,Nikita Yudin,Sub-Juniors,104.05,,,,280,,,,170,,,,255,705,105,M,Никита Юдин,1995,Single-ply,SBD
3,Vladislav Chvalov,Sub-Juniors,94.4,,,,220,,,,132.5,,,,230,582.5,105,M,Владислав Чвалов,1998,Single-ply,SBD
1,Sergey Yazykov,Sub-Juniors,114.5,,,,260,,,,175,,,,230,665,120,M,Сергей Языков,1995,Single-ply,SBD
2,Vladislav Nemov,Sub-Juniors,119.3,,,,245,,,,160,,,,222.5,627.5,120,M,Владислав Немов,1996,Single-ply,SBD
3,Sergey Fedorov,Sub-Juniors,118.85,,,,232.5,,,,162.5,,,,222.5,617.5,120,M,Сергей Федоров,1995,Single-ply,SBD
4,Anton Chervinskiy,Sub-Juniors,116.95,,,,250,,,,125,,,,220,595,120,M,Антон Червинский,1996,Single-ply,SBD
5,Roman Galyaminskikh,Sub-Juniors,116.25,,,,197.5,,,,155,,,,200,552.5,120,M,Роман Галяминских,1996,Single-ply,SBD
6,Maksim Chechuev,Sub-Juniors,107.5,,,,195,,,,107.5,,,,205,507.5,120,M,Максим Чечуев,1997,Single-ply,SBD
DQ,Vladimir Savenkov,Sub-Juniors,119.7,,,,,,,,130,,,,190,,120,M,Владимир Савенков,1995,Single-ply,SBD
1,Egor Rezepov,Sub-Juniors,139.45,,,,340,,,,222.5,,,,310,872.5,120+,M,Егор Резепов,1995,Single-ply,SBD
2,Vyacheslav Yakovlev,Sub-Juniors,153.65,,,,265,,,,165,,,,232.5,662.5,120+,M,Вячеслав Яковлев,1995,Single-ply,SBD
3,Ivan Burlaka,Sub-Juniors,120.5,,,,270,,,,157.5,,,,215,642.5,120+,M,Иван Бурлака,1996,Single-ply,SBD
4,Aleksandr Ognevoy,Sub-Juniors,140.2,,,,230,,,,175,,,,230,635,120+,M,Александр Огневой,1996,Single-ply,SBD
DQ,Aleksandr Dmitriev,Sub-Juniors,130.2,,,,275,,,,,,,,,,120+,M,Александр Дмитриев,1997,Single-ply,SBD
1,Daniela Kolesnik,Sub-Juniors,41.9,,,,130,,,,65,,,,110,305,43,F,Даниела Колесник,1999,Single-ply,SBD
2,Lolita Terskova,Sub-Juniors,41.2,,,,110,,,,60,,,,110,280,43,F,Лолита Терскова,1996,Single-ply,SBD
3,Oksana Butorina,Sub-Juniors,37.55,,,,117.5,,,,60,,,,100,277.5,43,F,Оксана Буторина,1998,Single-ply,SBD
4,Aleksandra Gerber,Sub-Juniors,42.35,,,,107.5,,,,57.5,,,,107.5,272.5,43,F,Александра Гербер,1995,Single-ply,SBD
5,Yuliya Korobovskaya,Sub-Juniors,42.5,,,,105,,,,50,,,,107.5,262.5,43,F,Юлия Коробовская,1998,Single-ply,SBD
6,Anna Savkina,Sub-Juniors,42.2,,,,90,,,,47.5,,,,95,232.5,43,F,Анна Савкина,1996,Single-ply,SBD
7,Yuliya Smirnova,Sub-Juniors,42.85,,,,90,,,,40,,,,102.5,232.5,43,F,Юлия Смирнова,1998,Single-ply,SBD
8,Ekaterina Makeeva,Sub-Juniors,41.85,,,,65,,,,37.5,,,,85,187.5,43,F,Екатерина Макеева,1997,Single-ply,SBD
DQ,Tatyana Zagaynova,Sub-Juniors,41.2,,,,,,,,,,,,,,43,F,Татьяна Загайнова,1998,Single-ply,SBD
1,Veronika Oglezneva,Sub-Juniors,45.95,,,,152.5,,,,80,,,,135,367.5,47,F,Вероника Оглезнева,1997,Single-ply,SBD
2,Lyudmila Shornikova,Sub-Juniors,46.5,,,,120,,,,65,,,,120,305,47,F,Людмила Шорникова,1995,Single-ply,SBD
3,Mariya Burova,Sub-Juniors,46.9,,,,110,,,,62.5,,,,122.5,295,47,F,Мария Бурова,1995,Single-ply,SBD
4,Vita Safonova,Sub-Juniors,45.9,,,,87.5,,,,42.5,,,,92.5,222.5,47,F,Вита Сафонова,1999,Single-ply,SBD
1,Ekaterina Purtova,Sub-Juniors,49.8,,,,145,,,,75,,,,140,360,52,F,Екатерина Пуртова,1997,Single-ply,SBD
2,Tatyana Smolekho,Sub-Juniors,49.7,,,,147.5,,,,90,,,,120,357.5,52,F,Татьяна Смолехо,1996,Single-ply,SBD
3,Tatyana Rikhelgof,Sub-Juniors,51.55,,,,135,,,,82.5,,,,130,347.5,52,F,Татьяна Рихельгоф,1997,Single-ply,SBD
4,Kristina Alekseeva,Sub-Juniors,51.3,,,,142.5,,,,55,,,,130,327.5,52,F,Кристина Алексеева,1997,Single-ply,SBD
5,Rozaliya Taipova,Sub-Juniors,52,,,,125,,,,75,,,,115,315,52,F,Розалия Таипова,1995,Single-ply,SBD
6,Viktoriya Andryukhova,Sub-Juniors,50.05,,,,130,,,,55,,,,122.5,307.5,52,F,Виктория Андрюхова,1998,Single-ply,SBD
5,Tatyana Toltaeva,Sub-Juniors,51.45,,,,115,,,,65,,,,117.5,297.5,52,F,Татьяна Толтаева,,Single-ply,SBD
7,Ekaterina Valkova,Sub-Juniors,50.45,,,,120,,,,60,,,,115,295,52,F,Екатерина Валькова,1997,Single-ply,SBD
8,Aygerim Niyazova,Sub-Juniors,50.7,,,,117.5,,,,55,,,,120,292.5,52,F,Айгерим Ниязова,1995,Single-ply,SBD
9,Nadezhda Churilova,Sub-Juniors,51.45,,,,122.5,,,,60,,,,110,292.5,52,F,Надежда Чурилова,1996,Single-ply,SBD
10,Kristina Odnokozova,Sub-Juniors,50.85,,,,110,,,,70,,,,105,285,52,F,Кристина Однокозова,1996,Single-ply,SBD
11,Mariya Zherebtsova,Sub-Juniors,51.85,,,,100,,,,47.5,,,,100,247.5,52,F,Мария Жеребцова,1995,Single-ply,SBD
1,Elizaveta Ikonnikova,Sub-Juniors,56.1,,,,130,,,,72.5,,,,140,342.5,57,F,Елизавета Иконникова,1995,Single-ply,SBD
2,Veronika Nikolenko,Sub-Juniors,56.35,,,,140,,,,67.5,,,,135,342.5,57,F,Вероника Николенко,1997,Single-ply,SBD
3,Alena Anokhina,Sub-Juniors,56.8,,,,132.5,,,,90,,,,117.5,340,57,F,Алена Анохина,1996,Single-ply,SBD
4,Natalya Shabusova,Sub-Juniors,55.8,,,,127.5,,,,80,,,,130,337.5,57,F,Наталья Шабусова,1995,Single-ply,SBD
5,Asmik Edigaryan,Sub-Juniors,55.95,,,,122.5,,,,70,,,,127.5,320,57,F,,1996,Single-ply,SBD
6,Irina Atamanova,Sub-Juniors,56.15,,,,130,,,,60,,,,112.5,302.5,57,F,Ирина Атаманова,1998,Single-ply,SBD
7,Anna Mikryukova,Sub-Juniors,55.6,,,,110,,,,70,,,,110,290,57,F,Анна Микрюкова,1999,Single-ply,SBD
8,Kseniya Averchenko,Sub-Juniors,54.55,,,,125,,,,50,,,,105,280,57,F,Ксения Аверченко,1997,Single-ply,SBD
9,Tatyana Sulaykina,Sub-Juniors,54.65,,,,92.5,,,,52.5,,,,95,240,57,F,Татьяна Сулайкина,1996,Single-ply,SBD
10,Yuliya Tsukanova,Sub-Juniors,53.2,,,,85,,,,50,,,,92.5,227.5,57,F,Юлия Цуканова,1997,Single-ply,SBD
DQ,Aleksandra Tsarkova,Sub-Juniors,56.95,,,,,,,,,,,,,,57,F,Александра Царькова,1995,Single-ply,SBD
1,Lyudmila Stepynina,Sub-Juniors,60.85,,,,172.5,,,,85,,,,152.5,410,63,F,Людмила Степынина,1996,Single-ply,SBD
2,Evgeniya Nuzhdina,Sub-Juniors,62.95,,,,175,,,,77.5,,,,135,387.5,63,F,Евгения Нуждина,1995,Single-ply,SBD
3,Natalya Kuznetsova,Sub-Juniors,62.9,,,,155,,,,70,,,,135,360,63,F,Наталья Кузнецова,1995,Single-ply,SBD
4,Elmira Makhmudova,Sub-Juniors,60.85,,,,140,,,,70,,,,135,345,63,F,Эльмира Махмудова,1996,Single-ply,SBD
5,Kseniya Atamanova,Sub-Juniors,61.25,,,,125,,,,60,,,,122.5,307.5,63,F,Ксения Атаманова,1997,Single-ply,SBD
DQ,Aleksandra Borisova,Sub-Juniors,63,,,,,,,,,,,,,,63,F,Александра Борисова,1997,Single-ply,SBD
1,Alina Davletshina,Sub-Juniors,69.05,,,,152.5,,,,90,,,,140,382.5,72,F,Алина Давлетшина,1996,Single-ply,SBD
2,Alina Nikolaenko,Sub-Juniors,69,,,,152.5,,,,85,,,,137.5,375,72,F,Алина Николаенко,1997,Single-ply,SBD
3,Anastasiya Bakunovich,Sub-Juniors,64.3,,,,110,,,,57.5,,,,100,267.5,72,F,Анастасия Бакунович,1998,Single-ply,SBD
4,Anastasiya Kurdakova,Sub-Juniors,65.4,,,,100,,,,57.5,,,,90,247.5,72,F,Анастасия Курдакова,1997,Single-ply,SBD
1,Arina Boyarshinova,Sub-Juniors,77.45,,,,110,,,,50,,,,117.5,277.5,84,F,Арина Бояршинова,1998,Single-ply,SBD
2,Alena Zhuravkova,Sub-Juniors,72.05,,,,87.5,,,,47.5,,,,110,245,84,F,Алена Журавкова,1998,Single-ply,SBD
1,Anastasia Pavlova,Sub-Juniors,87.65,,,,160,,,,107.5,,,,180,447.5,84+,F,Анастасія Павлова,1996,Single-ply,SBD
2,Yuliya Radchenko,Sub-Juniors,92.5,,,,172.5,,,,105,,,,170,447.5,84+,F,Юлия Радченко,1996,Single-ply,SBD
3,Alina Gordeeva,Sub-Juniors,112.2,,,,75,,,,52.5,,,,92.5,220,84+,F,Алина Гордеева,1997,Single-ply,SBD
1,Valentina Vermenyuk,Open,46.85,170,177.5,-182.5,177.5,90,95,-100,95,162.5,167.5,171,171,443.5,47,F,Валентина Верменюк,1986,Single-ply,SBD
2,Anastasya Strufa,Open,46.8,-170,170,175,175,107.5,-110,110,110,147.5,152.5,-157.5,152.5,437.5,47,F,Анастасия Струфа,1986,Single-ply,SBD
4,Dina Klimenkova,Open,46.9,-160,160,167.5,167.5,97.5,-102.5,102.5,102.5,155,157.5,-162.5,157.5,427.5,47,F,Дина Клименкова,1987,Single-ply,SBD
3,Olga Golubeva,Open,47,-155,-155,155,155,-100,100,105,105,-160,165,-172.5,165,425,47,F,Ольга Голубева,1970,Single-ply,SBD
5,Nadezhda Krivoruchko,Open,46.4,160,-170,-170,160,75,-80,80,80,132.5,137.5,-142.5,137.5,377.5,47,F,Надежда Криворучко,1984,Single-ply,SBD
1,Natalia Salnikova,Open,51.2,190,197.5,205,205,115,120,125,125,170,185,-190,185,515,52,F,Наталья Сальникова,1986,Single-ply,SBD
2,Anna Komlaeva,Open,51.95,175,185,192.5,192.5,100,105,107.5,107.5,160,-167.5,167.5,167.5,467.5,52,F,Анна Комлаева,1979,Single-ply,SBD
3,Svetlana Saydasheva,Open,51.8,160,170,180,180,80,-85,85,85,160,172.5,185,185,450,52,F,Светлана Сайдашева,1988,Single-ply,SBD
4,Lyubov Potanina,Open,51.6,182.5,-195,-195,182.5,-100,100,-105,100,152.5,160,165,165,447.5,52,F,Любовь Потанина,1984,Single-ply,SBD
5,Elena Scherbakova,Open,51.3,150,-157.5,157.5,157.5,90,97.5,-100,97.5,140,145,-150,145,400,52,F,Елена Щербакова,1985,Single-ply,SBD
6,Viktoriya Dzyubenko,Open,51.45,145,-160,-160,145,65,70,75,75,130,-140,-140,130,350,52,F,Виктория Дзюбенко,1984,Single-ply,SBD
7,Darima Kudrya,Open,51.05,-120,120,-127.5,120,75,-80,-80,75,120,-125,125,125,320,52,F,Дарима Кудря,1976,Single-ply,SBD
8,Irina Tkachenko,Open,51.65,-120,-120,120,120,55,57.5,60,60,130,135,140,140,320,52,F,Ирина Ткаченко,1979,Single-ply,SBD
1,Anna Ryzhkova,Open,56.8,-205,212.5,220,220,127.5,132.5,-140,132.5,175,185,,185,537.5,57,F,Анна Рыжкова,1986,Single-ply,SBD
2,Anastasia Petrova,Open,56.85,175,-182.5,-187.5,175,125,135,141.5,141.5,172.5,182.5,-192.5,182.5,499,57,F,Анастасия Петрова,1985,Single-ply,SBD
3,Yuliya Vavilova,Open,56.9,-195,-200,200,200,110,115,117.5,117.5,160,170,-175,170,487.5,57,F,Юлия Вавилова,1979,Single-ply,SBD
4,Tatyana Vislotskaya,Open,56.6,165,177.5,185,185,85,92.5,95,95,162.5,175,177.5,177.5,457.5,57,F,Татьяна Вислоцкая,1980,Single-ply,SBD
5,Natalya Tokareva,Open,55.1,165,175,177.5,177.5,95,100,102.5,102.5,160,-167.5,175,175,455,57,F,Наталья Токарева,1984,Single-ply,SBD
6,Anastasiya Solntseva,Open,56.8,140,-150,-150,140,75,-80,-80,75,140,147.5,-150,147.5,362.5,57,F,Анастасия Солнцева,1989,Single-ply,SBD
1,Irina Poletaeva,Open,62.85,205,212.5,-220,212.5,152.5,157.5,162.5,162.5,-185,187.5,192.5,192.5,567.5,63,F,Ирина Полетаева,1982,Single-ply,SBD
2,Maria Revva,Open,62.85,175,190,200,200,135,-142.5,142.5,142.5,190,205,213,213,555.5,63,F,Мария Ревва,1977,Single-ply,SBD
3,Maria Dubenskaya,Open,62.15,195,-205,-205,195,140,150,-158,150,185,-195,-195,185,530,63,F,Мария Дубенская,1988,Single-ply,SBD
4,Valentina Nelyubova,Open,62.55,170,180,185,185,125,135,-140,135,165,175,180,180,500,63,F,Валентина Нелюбова,1966,Single-ply,SBD
5,Ekaterina Efimova,Open,61.9,180,190,-195,190,-110,110,-115,110,180,,,180,480,63,F,Екатерина Ефимова,1982,Single-ply,SBD
1,Yulia Medvedeva,Open,66.5,220,-230,-230,220,-155,155,-165,155,190,200,210,210,585,72,F,Юлия Медведева,1986,Single-ply,SBD
2,Maria Gulidova,Open,69.9,210,220,230,230,145,150,-155,150,180,-187.5,-187.5,180,560,72,F,Мария Гулидова,1989,Single-ply,SBD
3,Darya Gerasimova,Open,69.85,185,195,200,200,117.5,-122.5,122.5,122.5,180,187.5,-192.5,187.5,510,72,F,Дарья Герасимова,1986,Single-ply,SBD
4,Aleksandra Akhmetyanova,Open,66.75,180,-195,-200,180,125,-130,-130,125,170,185,-200,185,490,72,F,Александра Ахметьянова,1987,Single-ply,SBD
5,Irina Prikhodkina,Open,71.5,140,150,-157.5,150,90,97.5,102.5,102.5,140,152.5,160,160,412.5,72,F,Ирина Приходкина,1983,Single-ply,SBD
6,Mariya Fedorova,Open,69.6,155,-165,-165,155,75,-80,-80,75,140,152.5,-170,152.5,382.5,72,F,Мария Федорова,1986,Single-ply,SBD
1,Valeria Timoshchuk,Open,83.6,260,270,280,280,150,155,160,160,190,200,-205,200,640,84,F,Валерия Тимощук,1988,Single-ply,SBD
2,Evgeniya Yudakova,Open,82.25,230,240,-250,240,135,-142.5,142.5,142.5,200,210,-217.5,210,592.5,84,F,Евгения Юдакова,1983,Single-ply,SBD
3,Nadezhda Sindikas,Open,80.8,220,230,-242.5,230,140,150,-155,150,190,-210,-212.5,190,570,84,F,Надежда Синдикас,1986,Single-ply,SBD
4,Yuliya Yakovleva,Open,81.05,180,-190,-190,180,130,-140,-140,130,200,210,-220,210,520,84,F,Юлия Яковлева,1979,Single-ply,SBD
5,Evgeniya Boldakova,Open,78.6,180,200,-215,200,115,-122.5,122.5,122.5,180,190,-200,190,512.5,84,F,Евгения Болдакова,1988,Single-ply,SBD
1,Olga Gemaletdinova,Open,120.8,270,290,-305,290,160,170,177.5,177.5,240,260,,260,727.5,84+,F,Ольга Гемалетдинова,1986,Single-ply,SBD
2,Mariya Zyryanova,Open,121.2,170,182.5,192.5,192.5,140,150,155,155,160,175,185,185,532.5,84+,F,Мария Зырянова,1983,Single-ply,SBD
3,Yevgeniya Shabanova,Open,91.45,160,170,180,180,125,130,,130,150,160,,160,470,84+,F,Евгения Шабанова,1977,Single-ply,SBD
