ChineseName,Name,Sex,Team,Event,Equipment,BodyweightKg,WeightClassKg,Squat1Kg,Squat2Kg,Squat3Kg,Best3SquatKg,Bench1Kg,Bench2Kg,Bench3Kg,Best3BenchKg,Deadlift1Kg,Deadlift2Kg,Deadlift3Kg,Best3DeadliftKg,TotalKg,Division,Place
宗林 何,Zonglin He,M,,SBD,Wraps,55.15,56,115,125,-132.5,125,83,87.5,-92.5,87.5,115,125,-135,125,337.5,T,1
永昊 宋,Yongzhen Song,M,,SBD,Wraps,59.35,60,110,120,130,130,75,90,100,100,120,140,160,160,390,T,1
孙象 冯,Sunxiang Feng,M,铁哥健身,SBD,Wraps,66.75,67.5,170,180,185,185,150,162.5,-170,162.5,170,190,210,210,557.5,O,1
宇凡 王,Yufan Wang,M,津门力量,SBD,Wraps,65.65,67.5,170,180,190,190,100,110,115,115,160,180,-190,180,485,T,1
子鹏 甄,Zipeng Zhai,M,铁人健身,SBD,Wraps,66.15,67.5,100,120,135,135,100,110,-115,110,130,145,155,155,400,M,1
晓安 饶,Xiaoan Rao,M,,SBD,Wraps,66.75,67.5,-125,135,152.5,152.5,85,-95,-100,85,160,-180,-180,160,397.5,O,2
金楷 曹,Jinyu Cao,M,SSC,SBD,Wraps,65.1,67.5,30,,,30,30,,,30,220,-243.5,243.5,243.5,303.5,T,2
殿雄 林,Dianxiong Lin,M,斌辰力量举,SBD,Wraps,74.5,75,215.5,-225,240,240,140,145,-150.5,145,242.5,262.5,273,273,658,O,1
嘉晨 徐,Jiachen Xu,M,SSC,SBD,Wraps,73.35,75,200,205,-210,205,130,140,-145,140,220.5,230,-240,230,575,T,1
军 满,Jūn Man,M,,SBD,Wraps,74.55,75,160,-185,190,190,-130,150,-160,150,160,180,200,200,540,O,2
文斌 何,Wenbin He,M,力量举废物群,SBD,Wraps,73.55,75,190,200,205,205,100,105,-110,105,200,210,220,220,530,T,2
皓 李,Wei Li,M,SSC,SBD,Wraps,74.15,75,195,205,-210,205,95,100,-102.5,100,200,-220,-222.5,200,505,O,3
正 孙,Zheng Sun,M,,SBD,Wraps,71.75,75,-155,155,170,170,95,105,-112.5,105,180,190,205,205,480,T,3
赢 王,Ying Wang,M,,SBD,Wraps,73.85,75,-150,150,-160,150,115,-122.5,122.5,122.5,170,-180,185,185,457.5,O,4
芝玉 张,Zhiyu Zhang,M,无,SBD,Wraps,74.55,75,-150,-160,160,160,-90,95,-100,95,175,200,,200,455,O,5
泽浩 沙,Zehao Sha,M,,SBD,Wraps,74.7,75,130,-140,140,140,95,-100,105,105,160,180,-200,180,425,T,4
永平 庞,Yongping Pang,M,铁人健身,SBD,Wraps,,75,,,,,,,,,,,,,,O,DQ
迎春 张,Yingchun Zhang,M,龙健力,SBD,Wraps,80.7,82.5,220,230,235,235,165,172.5,-177.5,172.5,265,285,-292.5,285,692.5,O,1
健 王,Jian Wang,M,西安BP战队,SBD,Wraps,81.7,82.5,150,160,167.5,167.5,120,-130,-135,120,210,-220,222.5,222.5,510,T,1
梓平 李,Yuping Li,M,USFPL,SBD,Wraps,81,82.5,-165,175,190,190,100,105,-110,105,180,190,-200,190,485,T,2
鹏翔 吴,Pengxiang Wu,M,HALE,SBD,Wraps,81.3,82.5,-130,140,-152.5,140,100,110,-115,110,200,210,-215,210,460,O,2
安 谢,An Xie,M,颜值健力,SBD,Wraps,80.15,82.5,-180,-180,180,180,95,-100,-100,95,140,-150,150,150,425,T,3
张正 高,Zhangzheng Gao,M,HALE,SBD,Wraps,80.65,82.5,120,135,142.5,142.5,85,95,-102.5,95,140,150,165,165,402.5,O,3
铂凯 王,Bokai Wang,M,野兽极限力量,SBD,Wraps,81.2,82.5,250,-265,-265,250,-180,190,-200,190,-205,-205,-205,,,O,DQ
启华 黄,Qihua Huang,M,SSC,SBD,Wraps,80.6,82.5,220,240,-250,240,-120,125,132.5,132.5,-250,-270,-290,,,O,DQ
帆 杨,Fan Yang,M,斌辰,SBD,Wraps,79.25,82.5,-160,-170,-190,,110,120,130,130,160,-180,-190,160,,O,DQ
子涛 宋,Zitao Song,M,BP战队,SBD,Wraps,,82.5,,,,,,,,,,,,,,O,DQ
丹东 康,Dandong Kang,M,西安bp战队,SBD,Wraps,88.6,90,225,-240,-240,225,130,-140,140,140,220,230,240,240,605,O,1
轩 李,Xuan Li,M,斌辰力量举,SBD,Wraps,86.3,90,200,205,-215,205,140,145,-155,145,210,225,-250,225,575,O,2
,Chuan Meng,M,SSC,SBD,Wraps,85,90,-160,180,,180,130,140,-150,140,230,-250,-250,230,550,O,3
敬一 王,Jingyi Wang,M,,SBD,Wraps,88.5,90,190,197.5,-202.5,197.5,135,-140,-145,135,200,207.5,212.5,212.5,545,M,1
春民 藏,Chunming Cang,M,,SBD,Wraps,89.4,90,180,-195,200,200,130,135,-140,135,200,210,,210,545,M,2
,Glennoy Goodwin,M,,SBD,Wraps,80.2,90,-160,160,167.5,167.5,-120,120,-130,120,197.5,210,-215,210,497.5,T,1
伟伟 桑,Weiwei Sang,M,,SBD,Wraps,89.8,90,150,165,180,180,155,165,-175,165,150,165,175,175,520,M,3
越 朱,Yue Zhu,M,斌辰力量举,SBD,Wraps,87.9,90,-180,180,-190,180,-110,115,-117.5,115,180,200,-215,200,495,O,4
,James Mayley,M,Independent,SBD,Wraps,89.1,90,155,160,162.5,162.5,125,130,135,135,170,180,187.5,187.5,485,O,5
毅劼 汪,Yizhen Wang,M,斌辰力量举,SBD,Wraps,80.7,90,150,-165,-175,150,95,105,-112.5,105,160,180,-200,180,435,O,6
云翔 张,Yunxiang Zhang,M,斌辰力量举,SBD,Wraps,84,90,160,180,-190,180,90,100,-107.5,100,160,-190,-190,160,440,T,2
浩麟 王,Haolin Wang,M,,SBD,Wraps,88,90,-140,145,150,150,85,90,,90,140,150,160,160,400,C,1
竞存 周,Jingcun Zhou,M,斌辰力量举,SBD,Wraps,99.3,100,230,245,-255,245,135,145,-150,145,240,-260,260,260,650,O,1
楚天 徐,Chutian Xu,M,SSC,SBD,Wraps,92.35,100,220,230,-240,230,145,155,-160,155,212.5,232.5,-245,232.5,617.5,T,1
家炜 蔡,Jiayu Cai,M,斌辰力量举,SBD,Wraps,97.3,100,-205,205,-210,205,130,140,142.5,142.5,205,220,-240,220,567.5,T,2
祺 陶,Wei Tao,M,SSC,SBD,Wraps,95,100,180,190,,190,125,132.5,-137.5,132.5,220,230,-240,230,552.5,O,2
振楠 朱,Zhennan Zhu,M,斌辰力量举,SBD,Wraps,97,100,195,205,-220,205,100,115,-125,115,210,-230,-235,210,530,T,3
雨 夏,Yu Xia,M,斌辰力量举,SBD,Wraps,95.3,100,110,130,-150,130,70,-85,-85,70,120,150,170,170,370,O,3
晨 申,Chen Shen,M,斌辰力量举,SBD,Wraps,97.5,100,-180,-200,-205,,95,105,-110,105,200,220,-240,220,,O,DQ
洪骋 莫,Hongyu Mo,M,SSC,SBD,Wraps,108.2,110,220,230,-240,230,145,155,-160,155,235,255,-270,255,640,O,1
雨龙 常,Yulong Chang,M,SSC,SBD,Wraps,105,110,80,,,80,75,,,75,200,240,,240,395,O,2
科诚 钟,Kecheng Zhong,M,SSC,SBD,Wraps,106,110,-257.5,-267.5,-270,,175,-186,-186,175,245,260,-270,260,,O,DQ
石磊 黄,Shilei Huang,M,西安BP战队,SBD,Wraps,113,125,220,235,250,250,120,127.5,140,140,200,235,-261.5,235,625,T,1
攀 张,Pan Zhang,M,西安BP战队,SBD,Wraps,115,125,220,225,227.5,227.5,140,155,165,165,220,230,-260,230,622.5,O,1
家骏 闵,Jiajun Yan,M,斌辰力量举,SBD,Wraps,117.5,125,-225,245,-265,245,125,137.5,147.5,147.5,215,227.5,-235,227.5,620,T,2
佳鑫 王,Jiaxin Wang,M,西安BP战队,SBD,Wraps,120,125,180,200,,200,120,-140,,120,240,-276.5,-276.5,240,560,T,3
腾飞 刁,Tengfei Diao,M,野兽极限力量,SBD,Wraps,131.8,140,-235,-235,-235,,,,,,,,,,,O,DQ
炀 刘,Wei Liu,F,斌辰力量举,SBD,Wraps,51.15,52,90,95,100,100,40,-45,-45,40,100,110,-115,110,250,O,1
芯蕊 蔡,Xinrui Cai,F,斌辰力量举,SBD,Wraps,51.85,52,82.5,90,-95,90,42.5,45,-47.5,45,92.5,100,-110,100,235,O,2
冰倩 雷,Bingqian Lei,F,西安BP战队,SBD,Wraps,53.55,56,80,85,-87.5,85,35,-37.5,-37.5,35,90,95,97.5,97.5,217.5,O,1
淑君 张,Shujun Zhang,F,斌辰力量举,SBD,Wraps,55.95,56,-120,-120,-120,-120,60,70,75,75,120,135,-157,135,,O,DQ
颖周 尚,Yingzhou Shang,F,野兽极限力量,SBD,Wraps,57.7,60,115,-122.5,-122.5,115,70,75,77.5,77.5,-130,135,145,145,337.5,O,1
恬宁 许,Yining Xu,F,,SBD,Wraps,59.8,60,80,-87.5,-90,80,55,60,-62.5,60,120,130,140,140,280,O,2
陆颖 钱,Luying Qian,F,,SBD,Wraps,57.25,60,70,80,-90,80,-35,35,-40,35,-105,105,-125,105,220,O,3
婧怡 张,Yiyi Zhang,F,,SBD,Wraps,59.5,60,90,95,100,100,-57.5,-60,-60,,95,110,-117.5,110,,O,DQ
睿卓 张,Ruizhuo Zhang,F,铁哥健身,SBD,Wraps,61.45,67.5,60,75,85,85,-30,35,-45,35,70,80,90,90,210,O,1
