Division,WeightClassKg,Place,Name,Team,BodyweightKg,Best3SquatKg,Best3BenchKg,Best3DeadliftKg,TotalKg,Equipment,Event,Sex
Boys,52,1,Sergio Huertas,Georgetown,46.81,102.06,63.5,108.86,274.42,Single-ply,SBD,M
Boys,52,2,Jaquariz Butler,Georgetown East View,48.4,79.38,38.56,102.06,219.99,Single-ply,SBD,M
Boys,56,1,Michael Guerrero,Georgetown East View,55.02,149.69,90.72,149.69,390.09,Single-ply,SBD,M
Boys,56,2,DJ Walker,Georgetown East View,55.79,104.33,61.23,122.47,288.03,Single-ply,SBD,M
Boys,60,1,Michael Marullo,Georgetown East View,59.01,133.81,90.72,127.01,351.53,Single-ply,SBD,M
Boys,60,2,Brett Smigelski,Georgetown East View,59.28,104.33,74.84,108.86,288.03,Single-ply,SBD,M
Boys,60,3,Leonel Jaimes,Georgetown,57.74,83.91,65.77,104.33,254.01,Single-ply,SBD,M
Boys,67.5,1,Daniel Mireles,Georgetown East View,63.73,161.03,108.86,154.22,424.11,Single-ply,SBD,M
Boys,67.5,2,Preston Perkins,Georgetown,66.54,124.74,74.84,136.08,335.66,Single-ply,SBD,M
Boys,67.5,3,Connor Black,Georgetown East View,62.78,115.67,88.45,120.2,324.32,Single-ply,SBD,M
Boys,67.5,4,Joseph Salazar,Georgetown East View,63.55,122.47,63.5,129.27,315.25,Single-ply,SBD,M
Boys,67.5,5,Ryan Adams,Georgetown East View,60.51,99.79,56.7,95.25,251.74,Single-ply,SBD,M
Boys,75,1,Daniel Russell,Georgetown East View,72.48,163.29,90.72,172.37,426.38,Single-ply,SBD,M
Boys,75,2,Isaac Ochoa,Georgetown East View,68.72,142.88,97.52,154.22,394.63,Single-ply,SBD,M
Boys,75,3,Marquis Sorrells,Georgetown,70.22,136.08,90.72,158.76,385.55,Single-ply,SBD,M
Boys,75,4,Elijah Gray,Georgetown,73.53,133.81,90.72,158.76,383.29,Single-ply,SBD,M
Boys,75,5,Jaden Selucky,Georgetown East View,71.85,140.61,77.11,151.95,369.68,Single-ply,SBD,M
Boys,75,6,Jacob Dreher,Georgetown,68.36,111.13,79.38,142.88,333.39,Single-ply,SBD,M
Boys,75,7,Joseph Carroll,Georgetown,69.26,138.35,56.7,136.08,331.12,Single-ply,SBD,M
Boys,75,8,Cameron Neilson,Georgetown,68.22,106.59,61.23,133.81,301.64,Single-ply,SBD,M
Boys,82.5,1,Nate Hines,Georgetown East View,81.83,190.51,108.86,197.31,496.68,Single-ply,SBD,M
Boys,82.5,2,Steven Crider,Austin Westlake,77.66,156.49,102.06,174.63,433.18,Single-ply,SBD,M
Boys,82.5,3,Marcus Maldonado,Georgetown East View,79.38,151.95,102.06,154.22,408.23,Single-ply,SBD,M
Boys,82.5,4,Cody Bannon,Georgetown,81.1,108.86,95.25,138.35,342.46,Single-ply,SBD,M
Boys,82.5,5,Whitman Frazier,Georgetown,77.16,111.13,83.91,145.15,340.19,Single-ply,SBD,M
Boys,90,1,Alan Hernandez #3,Georgetown,82.42,183.7,122.47,138.35,444.52,Single-ply,SBD,M
Boys,90,2,Eric Anderson,Georgetown,83.32,167.83,124.74,149.69,442.25,Single-ply,SBD,M
Boys,90,3,Jackson Coulson,Georgetown East View,82.92,163.29,95.25,165.56,424.11,Single-ply,SBD,M
Boys,90,4,Frankie Durante,Georgetown,83.01,149.69,104.33,156.49,410.5,Single-ply,SBD,M
Boys,100,1,David Neil,Austin Westlake,98.16,183.7,122.47,215.46,521.63,Single-ply,SBD,M
Boys,100,2,Jean Wiley,Austin Westlake,91.44,192.78,102.06,163.29,458.13,Single-ply,SBD,M
Boys,100,3,Tyler Solomon,Georgetown,90.9,165.56,113.4,156.49,435.45,Single-ply,SBD,M
Boys,100,4,Luke Wilkin,Austin Westlake,95.44,147.42,90.72,158.76,396.89,Single-ply,SBD,M
Boys,100,5,Mason Meyer,Georgetown,96.8,142.88,102.06,151.95,396.89,Single-ply,SBD,M
Boys,100,6,Connor Elston,Georgetown,93.58,145.15,104.33,136.08,385.55,Single-ply,SBD,M
Boys,100,7,Adam Vinyard,Georgetown East View,97.07,108.86,104.33,133.81,347,Single-ply,SBD,M
Boys,100,8,Nathan Carlin,Georgetown,94.94,102.06,70.31,133.81,306.17,Single-ply,SBD,M
Boys,110,1,Nakia Watson,Austin Westlake,104.24,235.87,149.69,215.46,601.01,Single-ply,SBD,M
Boys,110,2,Ben Christen,Austin Westlake,106.41,174.63,97.52,172.37,444.52,Single-ply,SBD,M
Boys,125,1,Luke Armstrong,Austin Westlake,111.4,183.7,111.13,163.29,458.13,Single-ply,SBD,M
Boys,125+,1,Eron Ortiz,Georgetown,131.9,183.7,113.4,181.44,478.54,Single-ply,SBD,M
Boys,125+,DQ,Brian Arroyo,Georgetown,126.19,,,,,Single-ply,SBD,M
