Name,BirthYear,Sex,Division,BodyweightKg,WeightClassKg,Squat1Kg,Squat2Kg,Squat3Kg,Best3SquatKg,Bench1Kg,Bench2Kg,Bench3Kg,Best3BenchKg,Deadlift1Kg,Deadlift2Kg,Deadlift3Kg,Best3DeadliftKg,TotalKg,Place,Country,Event,Equipment
Jannittzza Tapia,1994,F,Juniors,54.1,56,102.5,107.5,115,115,37.5,42.5,-47.5,42.5,102.5,110,-125,110,267.5,1,Puerto Rico,SBD,Single-ply
Ladys M. Burgos,1989,F,Juniors,68.6,75,105,117.5,125,125,57.5,-65,-65,57.5,115,130,-142.5,130,312.5,2,Puerto Rico,SBD,Single-ply
Milianny Santiago,1987,F,Juniors,117.2,90+,175,185,190,190,115,120,-125,120,160,175,180,180,490,1,Puerto Rico,SBD,Single-ply
Joan Báez,1986,F,Juniors,79.4,82.5,-145,145,-160,145,-80,80,-87.5,80,125,135,-142.5,135,360,2,Puerto Rico,SBD,Single-ply
Paula Smith,1966,F,Masters 1,137.5,90+,160,167.5,172.5,172.5,87.5,97.5,105,105,160,172.5,177.5,177.5,455,1,US Virgin Islands,SBD,Single-ply
Carolyn Phillips,1948,F,Masters 1,80.5,82.5,85,95,100,100,42.5,47.5,-50,47.5,105,112.5,-120,112.5,260,2,USA,SBD,Single-ply
Roslyn MacMillam,1966,F,Masters 1,73.4,75,85,-90,-90,85,-47.5,-47.5,-47.5,,,,,,,DQ,British Virgin Islands,SBD,Single-ply
Tashira Camacho,1984,F,Open,49.6,52,55,60,80,80,50,60,-65,60,105,115,120,120,260,1,Puerto Rico,SBD,Single-ply
Jannittzza Tapia,1994,F,Open,54.1,56,102.5,107.5,115,115,37.5,42.5,-47.5,42.5,102.5,110,-125,110,267.5,1,Puerto Rico,SBD,Single-ply
Silvia Torres,1972,F,Open,56.9,60,107.5,112.5,120,120,37.5,-47.5,-47.5,37.5,102.5,110,120,120,277.5,1,Puerto Rico,SBD,Single-ply
Ladys M. Burgos,1989,F,Open,68.6,75,105,117.5,125,125,57.5,-65,-65,57.5,115,130,-142.5,130,312.5,1,Puerto Rico,SBD,Single-ply
Roslyn MacMillam,1966,F,Open,73.4,75,85,-90,-90,85,-47.5,-47.5,-47.5,,,,,,,DQ,British Virgin Islands,SBD,Single-ply
Joan Báez,1986,F,Open,79.4,82.5,-145,145,-160,145,-80,80,-87.5,80,125,135,-142.5,135,360,1,Puerto Rico,SBD,Single-ply
Carolyn Phillips,1948,F,Open,80.5,82.5,85,95,100,100,42.5,47.5,-50,47.5,105,112.5,-120,112.5,260,2,USA,SBD,Single-ply
Milianny Santiago,1987,F,Open,117.2,90+,175,185,190,190,115,120,-125,120,160,175,180,180,490,1,Puerto Rico,SBD,Single-ply
Paula Smith,1966,F,Open,137.5,90+,160,167.5,172.5,172.5,87.5,97.5,105,105,160,172.5,177.5,177.5,455,2,US Virgin Islands,SBD,Single-ply
Juanita Grant,1971,F,Open,103.4,90+,-87.5,92.5,100,100,47.5,52.5,60,60,117.5,130,137.5,137.5,297.5,3,US Virgin Islands,SBD,Single-ply
Ramon Burgos,1987,M,Juniors,89.5,90,270,287.5,295,295,145,157.5,162.5,162.5,-275,275,300,300,757.5,1,Puerto Rico,SBD,Single-ply
Jesus Ocasio,1987,M,Juniors,58.9,60,142.5,170,-175,170,92.5,102.5,110,110,140,165,172.5,172.5,452.5,2,Puerto Rico,SBD,Single-ply
Alex Gaskin,1994,M,Juniors,78.3,82.5,160,172.5,187.5,187.5,82.5,90,-92.5,90,165,175,182.5,182.5,460,3,US Virgin Islands,SBD,Single-ply
Erik Rassmussen,1962,M,Masters 1,87.4,90,265,280,-290,280,165,175,180,180,150,175,225,225,685,1,Denmark,SBD,Single-ply
Alexis Morell,1964,M,Masters 1,50.1,52,105,115,142.5,142.5,-75,75,85,85,120,137.5,152.5,152.5,380,2,Puerto Rico,SBD,Single-ply
Jonathan Joseph,1963,M,Masters 1,65.5,67.5,-105,115,127.5,127.5,82.5,87.5,90,90,147.5,157.5,170,170,387.5,3,US Virgin Islands,SBD,Single-ply
John Edwards,1967,M,Masters 1,117.1,125,310,327.5,337.5,337.5,215,-230,-230,215,285,-295,-295,285,837.5,1,Guyana,SBD,Single-ply
Raymond Victorine,1969,M,Masters 1,108.9,110,260,272.5,-280,272.5,165,-172.5,-172.5,165,262.5,272.5,282.5,282.5,720,2,US Virgin Islands,SBD,Single-ply
Randall Hartman,1964,M,Masters 1,95.4,100,160,172.5,182.5,182.5,100,105,-110,105,182.5,200,215,215,502.5,3,US Virgin Islands,SBD,Single-ply
Cruz Rodríguez,1959,M,Masters 2,65.9,67.5,185,200,-205,200,115,120,130,130,172.5,-182.5,-182.5,172.5,502.5,1,Puerto Rico,SBD,Single-ply
Jose Ocasio,1955,M,Masters 2,101.7,110,227.5,-250,-250,227.5,155,160,165,165,227.5,,,227.5,620,2,Puerto Rico,SBD,Single-ply
Jim Klostergaard,1948,M,Masters 2,82.3,82.5,165,-185,,165,173,-180,,173,150,200,-222.5,200,538,3,USA,SBD,Single-ply
Alexis Morell,1964,M,Open,50.1,52,105,115,142.5,142.5,-75,75,85,85,120,137.5,152.5,152.5,380,1,Puerto Rico,SBD,Single-ply
Jesus Ocasio,1987,M,Open,58.9,60,142.5,170,-175,170,92.5,102.5,110,110,140,165,172.5,172.5,452.5,1,Puerto Rico,SBD,Single-ply
Cruz Rodríguez,1959,M,Open,65.9,67.5,185,200,-205,200,115,120,130,130,172.5,-182.5,-182.5,172.5,502.5,1,Puerto Rico,SBD,Single-ply
Jonathan Joseph,1963,M,Open,65.5,67.5,-105,115,127.5,127.5,82.5,87.5,90,90,147.5,157.5,170,170,387.5,2,US Virgin Islands,SBD,Single-ply
Vasant Saith,1982,M,Open,73.4,75,210,217.5,222.5,222.5,130,137.5,-140,137.5,215,225,230,230,590,1,Trinidad and Tobago,SBD,Single-ply
Eddie Perez,1974,M,Open,73.4,75,182.5,200,212.5,212.5,122.5,130,-137.5,130,205,220,-250,220,562.5,2,Puerto Rico,SBD,Single-ply
Giovani Herbert,1983,M,Open,74.6,75,-142.5,-142.5,142.5,142.5,110,122.5,-142.5,122.5,182.5,190,200,200,465,3,British Virgin Islands,SBD,Single-ply
Mervyn Tremor Moses,1976,M,Open,73,75,-275,275,290,290,-140,-165,-165,,,,,,,DQ,Guyana,SBD,Single-ply
Randolph Morgan,1978,M,Open,79.8,82.5,265,275,285,285,170,182.5,190,190,275,282.5,285,285,760,1,Guyana,SBD,Single-ply
Jim Klostergaard,1948,M,Open,82.3,82.5,165,-185,,165,173,-180,,173,150,200,-222.5,200,538,2,USA,SBD,Single-ply
Alex Gaskin,1994,M,Open,78.3,82.5,160,172.5,187.5,187.5,82.5,90,-92.5,90,165,175,182.5,182.5,460,3,US Virgin Islands,SBD,Single-ply
Ramon Burgos,1987,M,Open,89.5,90,270,287.5,295,295,145,157.5,162.5,162.5,-275,275,300,300,757.5,1,Puerto Rico,SBD,Single-ply
Erik Rassmussen,1962,M,Open,87.4,90,265,280,-290,280,165,175,180,180,150,175,225,225,685,2,Denmark,SBD,Single-ply
Omotosho Yearwood,1977,M,Open,84.2,90,165,185,195,195,132.5,137.5,142.5,142.5,175,190,200,200,537.5,3,British Virgin Islands,SBD,Single-ply
Danley Anderson,1980,M,Open,88.4,90,125,130,-142.5,130,-130,130,137.5,137.5,142.5,-185,185,185,452.5,4,British Virgin Islands,SBD,Single-ply
Ricardo Garcia,1985,M,Open,93.2,100,265,282.5,292.5,292.5,-170,170,-185,170,260,272.5,-290,272.5,735,1,Puerto Rico,SBD,Single-ply
Tony McInerney,1972,M,Open,91.2,100,217.5,227.5,240,240,120,125,132.5,132.5,-227.5,230,245,245,617.5,2,Cayman Islands,SBD,Single-ply
Sydney James,1971,M,Open,92,100,182.5,205,227.5,227.5,135,142.5,-147.5,142.5,182.5,205,232.5,232.5,602.5,3,British Virgin Islands,SBD,Single-ply
Kentrey McFerlane,1974,M,Open,93.6,100,142.5,175,192.5,192.5,120,-125,-125,120,182.5,225,-270,225,537.5,4,British Virgin Islands,SBD,Single-ply
Matthew Cockburn,1975,M,Open,96.6,100,-142.5,-142.5,142.5,142.5,102.5,122.5,-127.5,122.5,227.5,240,242.5,242.5,507.5,5,British Virgin Islands,SBD,Single-ply
Randall Hartman,1964,M,Open,95.4,100,160,172.5,182.5,182.5,100,105,-110,105,182.5,200,215,215,502.5,6,US Virgin Islands,SBD,Single-ply
Raymond Victorine,1969,M,Open,108.9,110,260,272.5,-280,272.5,165,-172.5,-172.5,165,262.5,272.5,282.5,282.5,720,1,US Virgin Islands,SBD,Single-ply
Jose Ocasio,1955,M,Open,101.7,110,227.5,-250,-250,227.5,155,160,165,165,227.5,,,227.5,620,2,Puerto Rico,SBD,Single-ply
John Edwards,1967,M,Open,117.1,125,310,327.5,337.5,337.5,215,-230,-230,215,285,-295,-295,285,837.5,1,Guyana,SBD,Single-ply
Shevron Reefe,1979,M,Open,115.4,125,165,185,210,210,152.5,162.5,-180,162.5,185,-227.5,227.5,227.5,600,2,British Virgin Islands,SBD,Single-ply
William Schouten,1975,M,Open,136.2,125+,-320,342.5,365,365,205,215,-220,215,275,295,-317.5,295,875,1,US Virgin Islands,SBD,Single-ply
Mette Jensen,1985,F,Open,56.5,60,,,,,-55,-55,-55,,,,,,,DQ,Denmark,B,Single-ply
Elroy Fergus,1984,M,Open,66.6,67.5,,,,,110,115,-120,115,,,,,115,1,British Virgin Islands,B,Single-ply
Evan Black,1968,M,Open,66.3,67.5,,,,,95,105,110,110,,,,,110,2,USA,B,Single-ply
Thomas Brutvan,1982,M,Open,72.6,75,,,,,102.5,110,117.5,117.5,,,,,117.5,3,US Virgin Islands,B,Single-ply
Nigel Dennis,1974,M,Open,79.3,82.5,,,,,102.5,110,-115,110,,,,,110,4,British Virgin Islands,B,Single-ply
Cliff Williams,1973,M,Open,113.8,125,,,,,-175,175,-180,175,,,,,175,1,British Virgin Islands,B,Single-ply
Kyron Vanterpool,1988,M,Open,78.2,82.5,,,,,110,115,122.5,122.5,,,,,122.5,2,British Virgin Islands,B,Single-ply
Clifford Tallman,1943,M,Open,108,110,,,,,-220,-220,-220,,,,,,,DQ,USA,B,Single-ply
Chris Calvano,1969,M,Open,111.9,125,,,,,-257.5,-257.5,-257.5,,,,,,,DQ,USA,B,Single-ply
