Sex,Equipment,Division,WeightClassKg,Name,BodyweightKg,Best3SquatKg,Squat4Kg,Best3BenchKg,Best3DeadliftKg,Deadlift4Kg,TotalKg,Event,Place
F,Wraps,Amateur Open,44,Sara Florence,44,72.5,,42.5,95,,209.99,SBD,1
F,Wraps,Pro Open,56,Sarah Brown,53.98,160,,90,170,,419.99,SBD,1
F,Raw,Amateur Masters 55-59,56,Kathy Jones,53.07,57.5,,35,80,,172.5,SBD,1
F,Raw,Pro Open,60,Lindsay Parish,59.06,105,,72.5,152.5,,329.99,SBD,1
F,Wraps,Amateur Juniors 20-23,60,Emily Mingus,57.79,77.5,,50,100,,227.49,SBD,1
F,Wraps,Amateur Open,60,Emily Mingus,57.79,77.5,,50,100,,227.49,SBD,1
F,Raw,Amateur Teen 16-17,67.5,Sarah Palmer,65.5,67.5,,30,95,,192.49,SBD,1
F,Raw,Amateur Open,67.5,Maureen Broce,63.96,102.5,,65,150,,317.5,SBD,1
F,Raw,Amateur Open,75,Jessica Raes,70.94,77.5,,55,125,,257.49,SBD,2
F,Wraps,Pro Teen 18-19,75,Shelby Sadler,69.04,107.5,,70,130,,307.49,SBD,1
F,Raw,Pro Open,75,Kenna Smoak,73.21,135,,97.5,155,,387.49,SBD,1
F,Wraps,Pro Open,75,Tammy Baize,72.76,165,,82.5,175,,422.49,SBD,1
F,Wraps,Pro Masters 40-44,75,Tammy Baize,72.76,165,,82.5,175,,422.49,SBD,1
F,Raw,Amateur Open,75,Nicole Gee,74.93,107.5,,55,112.5,,274.99,SBD,1
F,Wraps,Amateur Juniors 20-23,82.5,Susan Nielsen,77.11,152.5,,72.5,157.5,,382.49,SBD,1
F,Raw,Amateur Open,82.5,Bethany Dick,80.29,85,,52.5,100,,237.5,SBD,1
F,Wraps,Amateur Masters 40-44,90,Melissa Woodson,84.46,95,,57.5,112.5,,264.99,SBD,1
F,Wraps,Amateur Open,90,Patience Brewer,88.63,165,,95,185,,444.99,SBD,1
F,Raw,Amateur Open,110+,Rachel Bush,116.39,112.5,,77.5,162.5,,352.5,SBD,1
F,Wraps,Amateur Open,110+,Amanda Metcalf,115.76,145,,92.5,175,,412.49,SBD,1
F,Wraps,Amateur Open,110+,Amanda McFarland-Smith,115.21,137.5,,85,155,,377.49,SBD,2
M,Wraps,Amateur Open,67.5,Mauricio Felix,65.59,160,,100,187.5,,447.5,SBD,1
M,Wraps,Amateur Open,75,Travis Dudding,74.93,150,,95,175,,419.99,SBD,1
M,Raw,Amateur Masters 60-64,75,Don Jones,74.66,105,,70,110,,284.99,SBD,1
M,Wraps,Amateur Open,82.5,Justin Linger,79.11,185,,140,207.5,,532.49,SBD,1
M,Wraps,Pro Open,82.5,Oscar Cummins,81.92,252.5,,160,250,,662.49,SBD,2
M,Wraps,Pro Open,82.5,Daniel Lindlow,81.83,272.5,,182.5,240,,694.99,SBD,1
M,Wraps,Amateur Teen 16-17,90,Seth Clark,88.81,202.5,207.5,130,220,227.5,552.49,SBD,1
M,Wraps,Amateur Teen 18-19,90,Nick Alvarez,89.86,272.5,,175,262.5,,709.99,SBD,1
M,Wraps,Amateur Open,90,Kelby Raymer,86.82,222.5,,152.5,262.5,,637.49,SBD,1
M,Wraps,Pro Open,90,Tyler Mingus,88.9,267.5,,175,235,,677.49,SBD,1
M,Raw,Pro Masters 45-49,90,Jerry Byrd Jr,89.27,190,,160,227.5,,577.5,SBD,1
M,Wraps,Amateur Teen 16-17,100,Wyatt Gatti,97.43,220,,142.5,227.5,,589.99,SBD,1
M,Wraps,Amateur Juniors 20-23,100,Noah Baker,99.34,190,,115,215,,519.99,SBD,1
M,Wraps,Amateur Open,100,Justin Ryan,95.44,190,,125,230,,544.99,SBD,1
M,Raw,Pro Open,100,Josh Broce,94.08,207.5,,155,230,,592.49,SBD,2
M,Raw,Pro Open,100,Drew Bingham,98.16,227.5,,210,305,,742.5,SBD,1
M,Wraps,Pro Open,100,Dalton Cissell,99.7,317.5,,227.5,300,,844.99,SBD,1
M,Wraps,Pro Open,100,Ethan Long,96.16,272.5,,165,240,,677.49,SBD,2
M,Single-ply,Pro Open,100,Jason Figg,93.8,247.5,,187.5,197.5,,632.49,SBD,1
M,Raw,Amateur Submasters 33-39,100,Moose Acevedo,99.43,207.5,,157.5,242.5,,607.49,SBD,1
M,Wraps,Pro Submasters 33-39,100,Robbie Ring,96.8,240,,180,262.5,,682.49,SBD,2
M,Wraps,Pro Submasters 33-39,100,Paul Rohrer,95.35,260,,165,257.5,,682.5,SBD,1
M,Wraps,Pro Masters 45-49,100,Bryan Borders,98.61,202.5,,142.5,240,,584.99,SBD,1
M,Wraps,Police/Fire/Military Pro Open,100,Bryan Borders,98.61,202.5,,142.5,240,,584.99,SBD,1
M,Wraps,Pro Masters 50-54,100,Brad Bishop,97.89,245,,182.5,299.98,,727.48,SBD,1
M,Wraps,Pro Masters 55-59,100,James Robinson,97.61,250,,137.5,307.5,,694.99,SBD,1
M,Raw,Amateur Teen 14-15,110,Hunter Veach,109.95,190,,130,230,,549.99,SBD,1
M,Wraps,Amateur Juniors 20-23,110,Aaron Rosenhamer,107.32,255,,152.5,235,,642.49,SBD,1
M,Wraps,Pro Juniors 20-23,110,Mac Lucas,105.41,300,,207.5,282.5,,789.99,SBD,1
M,Single-ply,Pro Juniors 20-23,110,Tommy Hill,106.32,270,,192.48,237.5,,699.97,SBD,1
M,Raw,Pro Open,110,Alex Kramer,108.77,272.5,,182.5,272.5,,727.5,SBD,1
M,Wraps,Amateur Open,110,Michael Drechsler,109.86,200,,127.5,212.5,,539.99,SBD,2
M,Wraps,Amateur Open,110,Luke Mullins,109.77,232.5,,165,272.5,,670,SBD,1
M,Wraps,Pro Open,110,Jordan Jarrell,102.06,330,,230,302.5,,862.49,SBD,1
M,Wraps,Pro Open,110,Matthew Pack,109.95,317.5,,207.5,310,,834.99,SBD,2
M,Wraps,Amateur Juniors 20-23,125,Zach Hardin,122.65,217.5,,135,262.5,,614.99,SBD,1
M,Wraps,Amateur Open,125,Zach Hardin,122.65,217.5,,135,262.5,,614.99,SBD,1
M,Wraps,Pro Open,125,Oran Smith,123.83,317.5,,265,325,,907.49,SBD,1
M,Wraps,Pro Open,125,David Elmore,122.02,335,,185,292.5,,812.49,SBD,2
M,Wraps,Pro Submasters 33-39,125,Billy Hughes,117.03,272.5,,210,317.5,,800,SBD,1
M,Wraps,Pro Masters 40-44,125,Thomas Brock,122.92,202.5,,182.5,275,,660,SBD,1
M,Wraps,Pro Open,140,Jason Harbin,128.91,340,,207.5,295,,842.49,SBD,2
M,Wraps,Pro Open,140,Boone Wilson,133.08,330,,227.5,322.5,,880,SBD,1
M,Raw,Amateur Teen 16-17,140+,Bascom Bailey,161.93,250,,165,267.5,,682.49,SBD,1
M,Wraps,Amateur Open,140+,Logan Emery,144.7,297.5,,175,255,,727.49,SBD,1
M,Wraps,Military Pro Open,140+,Chris Lane #2,152.41,292.5,,195,290,,777.5,SBD,1
M,Raw,Pro Masters 65-69,110,Rick Cornett,107.77,,,172.5,,,172.5,B,1
M,Raw,Pro Open,110,Issac Gleason,107.23,,,230,,,230,B,1
M,Raw,Pro Submasters 33-39,110,Issac Gleason,107.23,,,230,,,230,B,1
M,Raw,Pro Open,125,Jacob Harlan,113.76,,,215,,,215,B,1
M,Raw,Pro Teen 18-19,100,Nathaniel Davidson,98.97,,,160,242.5,,402.5,BD,1
M,Raw,Amateur Teen 18-19,110,Chase Harvey,106.41,,,187.5,265,,452.49,BD,1
F,Raw,Amateur Open,110,Sydney Gatas,108.32,,,,145,,145,D,1
M,Raw,Amateur Masters 75-79,82.5,David Palmer,77.29,,,,155,,155,D,1
M,Raw,Pro Masters 60-64,110,Jeff Hughart,109.23,,,,227.5,,227.5,D,1
M,Raw,Amateur Masters 45-49,125,Kerry Overfelt,123.92,,,,275,,275,D,1
