Event,Sex,Name,State,BodyweightKg,WeightClassKg,Division,Best3SquatKg,Best3BenchKg,Best3DeadliftKg,TotalKg,Equipment,Place
B,M,Samra Karun Singh,BC,86.3,90,Sub-Juniors,,42.5,,42.5,Single-ply,2
B,M,Arora Inderprete Singh,BC,82.9,90,Sub-Juniors,,82.5,,82.5,Single-ply,1
B,M,Franklin Marion,AB,79.1,82.5,Sub-Juniors,,70,,70,Single-ply,1
B,M,Herman Singh Hehar,BC,67.9,75,Sub-Juniors,,60,,60,Single-ply,2
B,M,Curtis Mihalicz,SK,74.2,75,Sub-Juniors,,105,,105,Single-ply,1
B,F,Karine Royer,QU,59.4,60,Sub-Juniors,,47.5,,47.5,Single-ply,1
B,M,Darshan Singh Gill,BC,60,60,Sub-Juniors,,47.5,,47.5,Single-ply,2
B,M,Carter Balaberda,SK,58,60,Sub-Juniors,,143.5,,143.5,Single-ply,1
B,M,Joravar Singh Aujia,BC,53.1,56,Sub-Juniors,,42.5,,42.5,Single-ply,1
B,M,Marcus Jones,ON,41,52,Sub-Juniors,,35,,35,Single-ply,1
B,F,Raelene Marion,AB,89.1,90,Open,,135,,135,Single-ply,1
B,M,Greg Doucette,NS,89.1,90,Open,,252.5,,252.5,Single-ply,1
B,M,Dave Walters,ON,89,90,Open,,205,,205,Single-ply,2
B,F,Rhaea Stinn,SK,76.5,82.5,Open,,136,,136,Single-ply,1
B,F,Irene King,NL,76.7,82.5,Open,,107.5,,107.5,Single-ply,2
B,M,Eytan Rip,ON,82.5,82.5,Open,,137.5,,137.5,Single-ply,2
B,M,Barry Antoniow,ON,81.6,82.5,Open,,192.5,,192.5,Single-ply,1
B,M,Richard Lush,NL,74.9,75,Open,,170,,170,Single-ply,1
B,F,Kim Dennis,BC,67.3,67.5,Open,,90,,90,Single-ply,1
B,M,John Lefuel,QU,66.3,67.5,Open,,135,,135,Single-ply,3
B,M,Jean-Sébastien Rhéaume,QU,66.3,67.5,Open,,160,,160,Single-ply,2
B,M,Art Chan,ON,67.1,67.5,Open,,175,,175,Single-ply,1
B,F,Lee-Ann Dalling,NS,51.4,52,Open,,91,,91,Single-ply,1
B,M,Alex Mardell,AB,131.1,125+,Open,,285,,285,Single-ply,1
B,M,Matt Cuthbert,ON,123.7,125,Open,,207.5,,207.5,Single-ply,2
B,M,Jason Byrne,ON,125,125,Open,,227.5,,227.5,Single-ply,1
B,M,Tim Ekert,ON,107.3,110,Open,,197.5,,197.5,Single-ply,6
B,M,Mike Johnson,NS,105.5,110,Open,,212.5,,212.5,Single-ply,4
B,M,Mark Finochio,ON,106.5,110,Open,,230,,230,Single-ply,2
B,M,John MacDonald,PE,109.4,110,Open,,215,,215,Single-ply,3
B,M,John Giffen,AB,109.3,110,Open,,240,,240,Single-ply,1
B,M,Jody Roemer,ON,105,110,Open,,205,,205,Single-ply,5
B,M,Harpreet Brar,BC,106.6,110,Open,,62.5,,62.5,Single-ply,8
B,M,Alex Crosby,NS,103.2,110,Open,,160,,160,Single-ply,7
B,M,Vince Byrne,ON,91.5,100,Open,,210,,210,Single-ply,3
B,M,Sheldon Duncan,ON,99,100,Open,,190,,190,Single-ply,5
B,M,Mark MacPhail,NS,99.4,100,Open,,227.5,,227.5,Single-ply,2
B,M,Jeff Butt,SK,93.8,100,Open,,227.5,,227.5,Single-ply,1
B,M,Aaron Ziffle,SK,91.4,100,Open,,195,,195,Single-ply,4
B,M,Darshan Gill,BC,94.6,100,Masters 4,,137.5,,137.5,Single-ply,1
B,M,David Hoffman,ON,168.7,125+,Masters 3,,162.5,,162.5,Single-ply,1
B,M,Colin Bonneau,AB,117.6,125,Masters 3,,227.5,,227.5,Single-ply,1
B,M,Tilman Gallant,PE,91,100,Masters 3,,160,,160,Single-ply,1
B,M,Harvey Hanec,MB,97.9,100,Masters 3,,140,,140,Single-ply,2
B,M,Marc Vézina,BC,87.2,90,Masters 2,,145,,145,Single-ply,3
B,M,Kevin Stirling,ON,90,90,Masters 2,,162.5,,162.5,Single-ply,2
B,M,Jerry Marentette,ON,84.8,90,Masters 2,,172.5,,172.5,Single-ply,1
B,M,Réjean Talon,QU,67.9,75,Masters 2,,165,,165,Single-ply,1
B,F,Jane Smith,BC,71.9,75,Masters 2,,65,,65,Single-ply,2
B,F,Denise Oullet,QU,72.7,75,Masters 2,,72.5,,72.5,Single-ply,1
B,M,Fred English,ON,108.5,110,Masters 2,,170,,170,Single-ply,2
B,M,Daniel Royer,QU,109.2,110,Masters 2,,177.5,,177.5,Single-ply,1
B,M,Ron Cormier,NL,96.2,100,Masters 2,,192.5,,192.5,Single-ply,1
B,M,Miroslav Koprnicky,ON,98.9,100,Masters 2,,165,,165,Single-ply,2
B,M,Byron Monstur,NL,93.8,100,Masters 2,,127.5,,127.5,Single-ply,3
B,M,David Pigozzo,ON,90,90,Masters 1,,150,,150,Single-ply,1
B,M,Neil White,NL,70.9,75,Masters 1,,117.5,,117.5,Single-ply,1
B,F,Jackie Pritchard,ON,70.8,75,Masters 1,,87.5,,87.5,Single-ply,1
B,M,Michael Knott,ON,141,125+,Masters 1,,205,,205,Single-ply,1
B,M,Trevor Winfield,MB,114.7,125,Masters 1,,260,,260,Single-ply,1
B,M,John Clayton,ON,112.4,125,Masters 1,,167.5,,167.5,Single-ply,2
B,M,Paul Gidney,NS,101.9,110,Masters 1,,182.5,,182.5,Single-ply,1
B,M,Ben Worsell,ON,99.3,100,Masters 1,,217.5,,217.5,Single-ply,1
B,M,Simon Benoît,QU,89.4,90,Juniors,,167.5,,167.5,Single-ply,1
B,M,Yves Brousseau,QU,69.5,75,Juniors,,161,,161,Single-ply,1
B,F,Karyne Turcotte,QU,59.3,60,Juniors,,60,,60,Single-ply,1
B,M,Jon Rountree,NS,59.3,60,Juniors,,110,,110,Single-ply,2
B,M,Anthony Couture,QU,59.9,60,Juniors,,130,,130,Single-ply,1
B,M,Scott Simmonds,NL,105.9,110,Juniors,,142.5,,142.5,Single-ply,1
B,M,Nathan Christensen,AB,95.8,100,Juniors,,147.5,,147.5,Single-ply,3
B,M,Mike MacDonald #2,NS,91.9,100,Juniors,,175,,175,Single-ply,2
B,M,Daniel MacInnis,PE,97.9,100,Juniors,,182.5,,182.5,Single-ply,1
