Division,WeightClassKg,Place,Name,Team,BodyweightKg,Best3SquatKg,Best3BenchKg,Best3DeadliftKg,TotalKg,Equipment,Event,Sex
Boys,52,1,Jose Garcia,Brownfield,50.71,92.99,65.77,111.13,269.89,Single-ply,SBD,M
Boys,52,2,Joseph Hernandez,Sundown,50.17,95.25,52.16,95.25,242.67,Single-ply,SBD,M
Boys,56,1,Brett Salas,Lubbock Cooper,53.8,147.42,70.31,158.76,376.48,Single-ply,SBD,M
Boys,56,DQ,Landon Morgan,Sundown,55.79,117.93,,,,Single-ply,SBD,M
Boys,60,1,Zack Gass,Lubbock Cooper,58.97,136.08,79.38,161.03,376.48,Single-ply,SBD,M
Boys,60,2,Cailer Woolam,Lubbock Cooper,59.87,122.47,83.91,165.56,371.95,Single-ply,SBD,M
Boys,60,3,Markee Rodriguez,Brownfield,56.79,136.08,83.91,136.08,356.07,Single-ply,SBD,M
Boys,60,4,Jonathan Flores,Meadow,58.69,115.67,63.5,131.54,310.71,Single-ply,SBD,M
Boys,60,5,Chris Mendez,Lubbock Roosevelt,59.15,113.4,70.31,113.4,297.1,Single-ply,SBD,M
Boys,60,6,Brayan Jacquez,Sundown,59.69,97.52,52.16,117.93,267.62,Single-ply,SBD,M
Boys,60,DQ,Rhett Wilkes,Sundown,59.51,104.33,74.84,,,Single-ply,SBD,M
Boys,67.5,1,Michael Prieto,Lubbock Cooper,67.13,165.56,88.45,174.63,428.64,Single-ply,SBD,M
Boys,67.5,2,Nick Aguirre,Tahoka,67.31,136.08,113.4,151.95,401.43,Single-ply,SBD,M
Boys,67.5,3,Julian Paiz,Sundown,63.87,142.88,88.45,158.76,390.09,Single-ply,SBD,M
Boys,67.5,4,Trystan Hilger,Tahoka,66.59,136.08,102.06,151.95,390.09,Single-ply,SBD,M
Boys,67.5,5,Adrien Martinez,Brownfield,63.41,138.35,79.38,145.15,362.87,Single-ply,SBD,M
Boys,67.5,6,Luke Hawthorne,Tahoka,65.14,129.27,72.57,124.74,326.59,Single-ply,SBD,M
Boys,67.5,7,Joseph Quevedo,Lubbock Roosevelt,67.36,113.4,88.45,111.13,312.98,Single-ply,SBD,M
Boys,67.5,8,Keagan Daniel,Lubbock Roosevelt,62.14,122.47,61.23,120.2,303.91,Single-ply,SBD,M
Boys,67.5,9,Cesar Retana,Meadow,65.23,108.86,56.7,133.81,299.37,Single-ply,SBD,M
Boys,67.5,10,Kordell Baker,Tahoka,61.96,108.86,63.5,113.4,285.76,Single-ply,SBD,M
Boys,67.5,11,Andrew Castillo,Meadow,63.41,106.59,63.5,113.4,283.5,Single-ply,SBD,M
Boys,67.5,DQ,Justin Forsythe,Tahoka,60.87,102.06,,,,Single-ply,SBD,M
Boys,75,1,Kyle Reno,Tahoka,74.39,158.76,120.2,199.58,478.54,Single-ply,SBD,M
Boys,75,2,Roland Zamora,Meadow,75,165.56,95.25,185.97,446.79,Single-ply,SBD,M
Boys,75,3,Robby Escobar,Sundown,70.03,149.69,77.11,149.69,376.48,Single-ply,SBD,M
Boys,75,4,Luis Torrez,Meadow,74.84,145.15,86.18,145.15,376.48,Single-ply,SBD,M
Boys,75,5,Rafael Urias,Meadow,73.94,138.35,74.84,142.88,356.07,Single-ply,SBD,M
Boys,75,6,Colton Barclay,Meadow,72.03,120.2,70.31,133.81,324.32,Single-ply,SBD,M
Boys,75,7,Jacob Bray,Sundown,74.03,117.93,72.57,113.4,303.91,Single-ply,SBD,M
Boys,82.5,1,Bryan Vela,Meadow,80.56,226.8,127.01,240.4,594.21,Single-ply,SBD,M
Boys,82.5,2,Jamie Bingham,Tahoka,76.2,183.7,106.59,208.65,498.95,Single-ply,SBD,M
Boys,82.5,3,Adrian Soto,Meadow,78.47,158.76,92.99,181.44,433.18,Single-ply,SBD,M
Boys,82.5,4,Pete Munoz,Brownfield,79.11,163.29,113.4,154.22,430.91,Single-ply,SBD,M
Boys,82.5,5,Daniel Paiva,Brownfield,82.1,124.74,92.99,138.35,356.07,Single-ply,SBD,M
Boys,82.5,6,Bryce McHam,Sundown,81.37,117.93,90.72,131.54,340.19,Single-ply,SBD,M
Boys,82.5,7,Victor Rodriguez,Lubbock Roosevelt,76.02,129.27,83.91,113.4,326.59,Single-ply,SBD,M
Boys,82.5,DQ,Tim Rodriguez,Sundown,77.29,136.08,,,,Single-ply,SBD,M
Boys,90,1,Fili Jaquez,Lubbock Cooper,88.99,208.65,133.81,201.85,544.31,Single-ply,SBD,M
Boys,90,2,Devin Elmore,Sundown,83.01,167.83,102.06,149.69,419.57,Single-ply,SBD,M
Boys,100,1,Tim Bergara,Brownfield,91.08,204.12,136.08,197.31,537.51,Single-ply,SBD,M
Boys,100,2,Spencer Chance,Sundown,93.8,190.51,120.2,190.51,501.22,Single-ply,SBD,M
Boys,100,3,Daniel Carmona,Brownfield,95.25,181.44,102.06,204.12,487.61,Single-ply,SBD,M
Boys,100,4,Sammy Sambrano,Brownfield,93.71,176.9,108.86,176.9,462.66,Single-ply,SBD,M
Boys,100,5,Andrew Clayman,Brownfield,97.52,172.37,104.33,145.15,421.84,Single-ply,SBD,M
Boys,110,1,Joey Elizardo,Brownfield,109.95,226.8,147.42,226.8,601.01,Single-ply,SBD,M
Boys,110,2,Daniel Rivera,Lubbock Roosevelt,103.69,147.42,90.72,151.95,390.09,Single-ply,SBD,M
Boys,110,3,Caelan Decker,Tahoka,109.77,127.01,108.86,147.42,383.29,Single-ply,SBD,M
Boys,125,1,Micheal Johnson,Lubbock Cooper,110.77,172.37,111.13,199.58,483.08,Single-ply,SBD,M
Boys,125,2,Mike Perez,Brownfield,121.38,185.97,106.59,176.9,469.47,Single-ply,SBD,M
Boys,125,3,Riley Thompson,Sundown,120.11,142.88,97.52,170.1,410.5,Single-ply,SBD,M
Boys,125,4,Efrain Ramirez,Tahoka,110.04,113.4,74.84,142.88,331.12,Single-ply,SBD,M
Boys,125+,1,Dillon Beesinger,Lubbock Cooper,136.89,254.01,154.22,213.19,621.42,Single-ply,SBD,M
Boys,125+,2,Luke Moore,Lubbock Cooper,139.89,242.67,142.88,224.53,610.08,Single-ply,SBD,M
Boys,125+,3,Ben Bertreaux,Tahoka,146.42,147.42,90.72,156.49,394.63,Single-ply,SBD,M
Boys,125+,4,Garrett McCarty,Lubbock Roosevelt,153.13,129.27,88.45,149.69,367.41,Single-ply,SBD,M
