Place,Name,Sex,Event,Division,WeightClassKg,Equipment,BirthYear,State,BodyweightKg,Squat1Kg,Squat2Kg,Squat3Kg,Best3SquatKg,Bench1Kg,Bench2Kg,Bench3Kg,Best3BenchKg,Deadlift1Kg,Deadlift2Kg,Deadlift3Kg,Best3DeadliftKg,TotalKg
1,Matt Muccigrosso,M,B,R-M2,93,Raw,1959,MO,87.70,,,,,152.5,157.5,-162.5,157.5,,,,,157.5
1,Matt Muccigrosso,M,B,R-O,93,Raw,1959,MO,87.70,,,,,152.5,157.5,-162.5,157.5,,,,,157.5
DQ,Willie Jordan,M,B,R-O,120+,Raw,1966,MO,178.30,,,,,-145,-145,-145,,,,,,
1,Shubhi Choudhary,F,SBD,R-OG,47,Raw,1986,MO,46.30,-65,-65,65,65.0,32.5,35,-37.5,35.0,-75,-75,75,75.0,175
2,Isabella Martin,F,SBD,R-OG,47,Raw,2009,IL,35.80,42.5,47.5,-50,47.5,22.5,25,27.5,27.5,63.5,67.5,72.5,72.5,147.5
1,Julia Spielmann,F,SBD,R-OG,52,Raw,1992,IL,51.70,90,95,-100,95.0,57.5,60,-62.5,60.0,110,115,120,120.0,275
1,Supawadee Pongsua,F,SBD,R-OG,63,Raw,1994,MO,60.10,102.5,110,112.5,112.5,60,65,67.5,67.5,112.5,120,127.5,127.5,307.5
2,Jennifer Runyon,F,SBD,R-OG,63,Raw,1986,IL,61.10,45,-50,-50,45.0,32.5,-37.5,37.5,37.5,70,77.5,-90,77.5,160
1,Shellaine Frazier,F,SBD,R-M1,52,Raw,1971,MO,51.70,65,70,-72.5,70.0,70,-72.5,-72.5,70.0,115,120,125,125.0,265
1,Sara Eller,F,SBD,R-M1,57,Raw,1977,MO,56.30,65,70,-75,70.0,30,32.5,-35,32.5,77.5,85,92.5,92.5,195
1,Carmella Mattingly,F,SBD,R-M1,63,Raw,1971,MO,60.30,132.5,140,145,145.0,67.5,72.5,77.5,77.5,147.5,152.5,157.5,157.5,380
2,Abby Upmeyer,F,SBD,R-M1,63,Raw,1972,MO,62.40,95,100,-110,100.0,52.5,57.5,-60,57.5,120,127.5,135,135.0,292.5
DQ,Rhoda Hall,F,SBD,R-M1,63,Raw,1977,MO,61.80,-82.5,-90,-90,,50,55,-60,55.0,-87.5,,,,
1,Carrie Schrum,F,SBD,R-M1,72,Raw,1973,MO,64.60,117.5,122.5,-127.5,122.5,65,72.5,-75,72.5,152.5,160,-172.5,160.0,355
2,Cynthia Goodwin-Sak,F,SBD,R-M1,72,Raw,1976,MO,67.50,80,85,87.5,87.5,55,57.5,60,60.0,95,102.5,107.5,107.5,255
1,Angela Waits,F,SBD,R-M1,84+,Raw,1977,MO,90.50,120,142.5,,142.5,65,72.5,-77.5,72.5,122.5,135,145,145.0,360
2,Karissa Evans,F,SBD,R-M1,84+,Raw,1974,MO,84.80,100,112.5,-115,112.5,47.5,-50,-50,47.5,142.5,155,-160,155.0,315
3,Rhonda Hurd,F,SBD,R-M1,84+,Raw,1977,MO,88.50,102.5,112.5,120,120.0,47.5,50,55,55.0,107.5,117.5,130,130.0,305
1,Alma Hopkins,F,SBD,R-M2,57,Raw,1964,MO,56.30,-67.5,70,72.5,72.5,45,47.5,-50,47.5,102.5,110,117.5,117.5,237.5
1,Patricia Urban,F,SBD,R-M2,63,Raw,1960,MO,61.60,-62.5,62.5,-65,62.5,42.5,-45,-45,42.5,90,97.5,102.5,102.5,207.5
DQ,Joni Barry,F,SBD,R-M2,72,Raw,1965,MO,68.30,-80,-80,-80,,55,60,65,65.0,130,137.5,142.5,142.5,
1,Theresa Norman,F,SBD,R-M2,84,Raw,1958,MO,79.30,52.5,57.5,65,65.0,30,-35,-35,30.0,72.5,77.5,85,85.0,180
1,Colleen Sansone,F,SBD,R-M2,84+,Raw,1965,MO,85.40,80,85,90,90.0,35,40,45,45.0,105,112.5,122.5,122.5,257.5
1,Christine Harms,F,SBD,R-M3,63,Raw,1952,MO,62.40,62.5,75,82.5,82.5,37.5,40,-45,40.0,100,-112.5,,100.0,222.5
1,Jai-Jai Goldstein,F,SBD,R-M3,84,Raw,1957,MO,82.90,62.5,72.5,85,85.0,52.5,-57.5,57.5,57.5,90,105,115,115.0,257.5
1,Sonya Stevenson,F,SBD,R-M3,84+,Raw,1951,MO,91.50,82.5,92.5,102.5,102.5,60,-65,-65,60.0,110,120,125,125.0,287.5
2,Denise Bamert,F,SBD,R-M3,84+,Raw,1957,MO,99.80,75,82.5,-85,82.5,47.5,52.5,-55,52.5,92.5,100,-105,100.0,235
1,Peggy Linn,F,SBD,R-M4,72,Raw,1948,MO,70.70,-65,65,-70,65.0,42.5,45,-47.5,45.0,85,90,92.5,92.5,202.5
1,Amya Houston,F,SBD,R-O,47,Raw,2002,MO,42.90,90,-97.5,-97.5,90.0,45,-50,50,50.0,95,102.5,105,105.0,245
1,Alexandra Adams,F,SBD,R-O,52,Raw,1988,MO,52.00,100,107.5,-110,107.5,60,-65,-65,60.0,112.5,120,122.5,122.5,290
2,Erica Leong,F,SBD,R-O,52,Raw,1986,MO,51.60,95,102.5,105,105.0,55,60,62.5,62.5,92.5,100,105,105.0,272.5
3,Shellaine Frazier,F,SBD,R-O,52,Raw,1971,MO,51.70,65,70,-72.5,70.0,70,-72.5,-72.5,70.0,115,120,125,125.0,265
4,Cherylou Montefalcon,F,SBD,R-O,52,Raw,1993,MO,50.60,87.5,-95,-95,87.5,40,45,-47.5,45.0,92.5,102.5,112.5,112.5,245
1,Carmella Mattingly,F,SBD,R-O,63,Raw,1971,MO,60.30,132.5,140,145,145.0,67.5,72.5,77.5,77.5,147.5,152.5,157.5,157.5,380
2,Sarah Sawayanagi,F,SBD,R-O,63,Raw,1993,MO,62.10,-105,105,115,115.0,67.5,72.5,75,75.0,132.5,140,-145,140.0,330
3,Pepper Young,F,SBD,R-O,63,Raw,1993,MO,62.10,105,110,-115,110.0,72.5,77.5,-82.5,77.5,117.5,125,130,130.0,317.5
4,Nicole Gibson,F,SBD,R-O,63,Raw,1988,MO,62.40,110,117.5,-122.5,117.5,62.5,67.5,-70,67.5,117.5,125,-132.5,125.0,310
5,Abby Upmeyer,F,SBD,R-O,63,Raw,1972,MO,62.40,95,100,-110,100.0,52.5,57.5,-60,57.5,120,127.5,135,135.0,292.5
6,Angie Dockins,F,SBD,R-O,63,Raw,1983,MO,58.80,90,-97.5,-97.5,90.0,55,-60,60,60.0,102.5,112.5,120,120.0,270
1,Abbee Van Ness,F,SBD,R-O,72,Raw,1993,MO,71.00,145,152.5,-160,152.5,75,80,-82.5,80.0,160,170,177.5,177.5,410
2,Carrie Schrum,F,SBD,R-O,72,Raw,1973,MO,64.60,117.5,122.5,-127.5,122.5,65,72.5,-75,72.5,152.5,160,-172.5,160.0,355
3,Alexandra Hall,F,SBD,R-O,72,Raw,1991,MO,71.20,112.5,130,137.5,137.5,60,65,-67.5,65.0,127.5,140,147.5,147.5,350
4,Erin Wilmes,F,SBD,R-O,72,Raw,1986,MO,68.60,115,-122.5,-127.5,115.0,60,65,67.5,67.5,140,150,155,155.0,337.5
5,Brittany Kussman,F,SBD,R-O,72,Raw,1984,MO,70.70,105,112.5,120,120.0,57.5,60,-65,60.0,140,145,152.5,152.5,332.5
6,Jordan Fryer,F,SBD,R-O,72,Raw,1986,MO,71.80,-112.5,-115,115,115.0,60,62.5,-65,62.5,147.5,150,-155,150.0,327.5
7,Cara Ciccarelli,F,SBD,R-O,72,Raw,1983,MO,69.30,-122.5,-122.5,130,130.0,62.5,65,-70,65.0,117.5,122.5,130,130.0,325
8,Jessica Mccullough,F,SBD,R-O,72,Raw,1984,MO,64.20,95,102.5,-107.5,102.5,-45,47.5,-50,47.5,102.5,110,117.5,117.5,267.5
9,Amanda Dieker,F,SBD,R-O,72,Raw,1987,MO,71.40,92.5,-102.5,-105,92.5,50,52.5,-60,52.5,110,120,122.5,122.5,267.5
10,Cynthia Goodwin-Sak,F,SBD,R-O,72,Raw,1976,MO,67.50,80,85,87.5,87.5,55,57.5,60,60.0,95,102.5,107.5,107.5,255
DQ,Joni Barry,F,SBD,R-O,72,Raw,1965,MO,68.30,-80,-80,-80,,55,60,65,65.0,130,137.5,142.5,142.5,
1,Shannon McDonald,F,SBD,R-O,84,Raw,1987,MO,82.30,117.5,120,142.5,142.5,42.5,52.5,-60,52.5,160,-175,-175,160.0,355
2,Christine Tosie,F,SBD,R-O,84,Raw,1990,MO,74.30,112.5,122.5,127.5,127.5,-60,-65,65,65.0,142.5,155,-162.5,155.0,347.5
3,Megan Goss,F,SBD,R-O,84,Raw,1986,MO,78.10,92.5,97.5,100,100.0,52.5,57.5,-62.5,57.5,125,137.5,142.5,142.5,300
4,Melinda Bowen,F,SBD,R-O,84,Raw,1979,MO,72.30,95,100,102.5,102.5,42.5,45,-47.5,45.0,132.5,137.5,147.5,147.5,295
1,Denise Boyd,F,SBD,R-O,84+,Raw,1981,MO,89.00,132.5,145,155,155.0,60,67.5,-75,67.5,135,145,152.5,152.5,375
2,Mary Tobin,F,SBD,R-O,84+,Raw,1985,MO,90.20,107.5,112.5,120,120.0,77.5,82.5,85,85.0,155,160,165,165.0,370
3,Angela Waits,F,SBD,R-O,84+,Raw,1977,MO,90.50,120,142.5,,142.5,65,72.5,-77.5,72.5,122.5,135,145,145.0,360
4,Angela Roam,F,SBD,R-O,84+,Raw,1984,MO,88.60,92.5,100,107.5,107.5,55,57.5,-60,57.5,137.5,147.5,155,155.0,320
5,Addie Larson,F,SBD,R-O,84+,Raw,1992,MO,117.60,102.5,110,115,115.0,70,75,77.5,77.5,105,115,125,125.0,317.5
6,Kristin Stansfield,F,SBD,R-O,84+,Raw,1980,MO,110.10,95,100,105,105.0,65,70,72.5,72.5,100,107.5,115,115.0,292.5
7,Sonya Stevenson,F,SBD,R-O,84+,Raw,1951,MO,91.50,82.5,92.5,102.5,102.5,60,-65,-65,60.0,110,120,125,125.0,287.5
8,Colleen Sansone,F,SBD,R-O,84+,Raw,1965,MO,85.40,80,85,90,90.0,35,40,45,45.0,105,112.5,122.5,122.5,257.5
9,Kathryn Holley,F,SBD,R-O,84+,Raw,1989,MO,102.40,70,75,85,85.0,40,50,-57.5,50.0,80,92.5,100,100.0,235
1,Amya Houston,F,SBD,R-T,43,Raw,2002,MO,42.90,90,-97.5,-97.5,90.0,45,-50,50,50.0,95,102.5,105,105.0,245
1,Emma Hampton,F,SBD,R-T,84+,Raw,2002,MO,93.00,110,120,127.5,127.5,40,45,50,50.0,115,125,-135,125.0,302.5
1,Alexis Muccigrosso,F,SBD,R-Y,35,Raw,2009,MO,31.00,17.5,22.5,25,25.0,15,17.5,20,20.0,35,40,47.5,47.5,92.5
1,Zachary Standefer,M,SBD,R-OG,93,Raw,1992,IL,88.50,185,197.5,207.5,207.5,112.5,120,-127.5,120.0,227.5,240,250,250.0,577.5
1,Dimitri Gianacakes,M,SBD,R-OG,105,Raw,1993,KY,103.40,250,262.5,272.5,272.5,147.5,-155,155,155.0,285,300,-310,300.0,727.5
2,Cooper Brooks,M,SBD,R-OG,105,Raw,1997,MN,96.40,235,-260,-260,235.0,152.5,165,-172.5,165.0,252.5,270,275,275.0,675
1,Brandon Ware,M,SBD,R-JR,74,Raw,1994,MO,73.10,175,187.5,-192.5,187.5,117.5,-127.5,-127.5,117.5,185,195,202.5,202.5,507.5
1,Michael Willis,M,SBD,R-JR,83,Raw,1996,MO,82.20,170,185,190,190.0,150,157.5,165,165.0,182.5,190,200,200.0,555
2,Austin Dietrich,M,SBD,R-JR,83,Raw,1997,MO,78.00,185,195,200,200.0,102.5,107.5,112.5,112.5,220,235,240,240.0,552.5
1,David Mcintosh,M,SBD,R-JR,105,Raw,1995,MO,93.60,245,260,-267.5,260.0,142.5,152.5,-160,152.5,247.5,267.5,277.5,277.5,690
1,Robert Braithwaite,M,SBD,R-JR,120,Raw,1996,MO,118.00,180,190,197.5,197.5,130,137.5,-142.5,137.5,242.5,252.5,255,255.0,590
1,Michael Schrimpf,M,SBD,R-M1,83,Raw,1977,MO,79.80,162.5,172.5,182.5,182.5,107.5,112.5,-117.5,112.5,215,225,237.5,237.5,532.5
1,Kurt Richardson,M,SBD,R-M1,93,Raw,1972,MO,91.40,165,185,192.5,192.5,115,120,-125,120.0,165,187.5,202.5,202.5,515
1,Anthony Goebel,M,SBD,R-M1,105,Raw,1975,MO,97.80,170,182.5,190,190.0,125,135,-137.5,135.0,175,190,195,195.0,520
1,Mike Zimmerman,M,SBD,R-M1,120,Raw,1978,MO,117.50,282.5,292.5,300,300.0,192.5,205,-210,205.0,282.5,297.5,-312.5,297.5,802.5
2,Bryan Koen,M,SBD,R-M1,120,Raw,1969,MO,114.70,127.5,137.5,142.5,142.5,80,85,-92.5,85.0,125,132.5,140,140.0,367.5
1,Greg Teakert,M,SBD,R-M1,120+,Raw,1972,MO,126.20,215,227.5,-237.5,227.5,130,137.5,-140,137.5,215,230,-240,230.0,595
2,Doug Pettibone,M,SBD,R-M1,120+,Raw,1970,MO,131.00,175,190,207.5,207.5,147.5,155,160,160.0,190,202.5,217.5,217.5,585
1,Steve Lewis,M,SBD,R-M2,66,Raw,1962,MO,64.80,120,140,,140.0,80,87.5,90,90.0,147.5,160,170,170.0,400
1,Darin Gilley,M,SBD,R-M2,83,Raw,1963,MO,81.20,100,145,147.5,147.5,110,-122.5,-122.5,110.0,125,,,125.0,382.5
1,Matt Muccigrosso,M,SBD,R-M2,93,Raw,1959,MO,87.70,185,197.5,202.5,202.5,152.5,157.5,-162.5,157.5,220,230,-237.5,230.0,590
2,Bill Shields,M,SB,R-M2,93,Raw,1962,MO,90.30,120,-125,-125,120.0,82.5,90,-97.5,90.0,,,,,210
DQ,Jeff Jacques,M,SBD,R-M2,105,Raw,1967,MO,101.30,-265,-265,-265,,-145,,,,-240,,,,
1,Ben Miller,M,SBD,R-O,74,Raw,1991,MO,73.00,215,227.5,-235,227.5,135,142.5,147.5,147.5,260,272.5,-280,272.5,647.5
2,Gregory Selle,M,SBD,R-O,74,Raw,1992,MO,73.70,157.5,167.5,177.5,177.5,-112.5,-117.5,117.5,117.5,205,217.5,227.5,227.5,522.5
3,Brandon Ware,M,SBD,R-O,74,Raw,1994,MO,73.10,175,187.5,-192.5,187.5,117.5,-127.5,-127.5,117.5,185,195,202.5,202.5,507.5
1,Miguel Romero,M,SBD,R-O,83,Raw,1992,MO,83.00,210,225,232.5,232.5,132.5,140,145,145.0,240,-267.5,-267.5,240.0,617.5
2,Dan Cannon,M,SBD,R-O,83,Raw,1993,MO,81.40,172.5,182.5,-192.5,182.5,115,-122.5,-122.5,115.0,197.5,205,215,215.0,512.5
DQ,Thomas Coghill,M,SBD,R-O,83,Raw,1992,MO,74.40,132.5,-142.5,-142.5,132.5,-85,-85,-85,,-185,-192.5,192.5,192.5,
1,Justin Ruedrich,M,SBD,R-O,93,Raw,1988,MO,90.10,215,227.5,232.5,232.5,155,162.5,167.5,167.5,260,270,277.5,277.5,677.5
2,Jeremiah Keao,M,SBD,R-O,93,Raw,1998,MO,85.70,200,215,230,230.0,115,125,-127.5,125.0,237.5,265,-277.5,265.0,620
3,Diontre Dukes,M,SBD,R-O,93,Raw,1978,MO,86.50,-160,177.5,210,210.0,142.5,157.5,-170,157.5,170,205,230,230.0,597.5
4,Matt Muccigrosso,M,SBD,R-O,93,Raw,1959,MO,87.70,185,197.5,202.5,202.5,152.5,157.5,-162.5,157.5,220,230,-237.5,230.0,590
5,McKinley Griggs,M,SBD,R-O,93,Raw,1986,MO,92.40,185,195,205,205.0,-135,135,150,150.0,185,200,215,215.0,570
6,Ron Lipsmire,M,SBD,R-O,93,Raw,1993,MO,89.10,172.5,182.5,190,190.0,115,120,127.5,127.5,207.5,220,227.5,227.5,545
7,Ryan Orr,M,SBD,R-O,93,Raw,1991,MO,88.80,172.5,182.5,187.5,187.5,127.5,-135,-135,127.5,195,207.5,215,215.0,530
8,Kevin Hoang,M,SBD,R-O,93,Raw,1997,MO,92.30,147.5,157.5,170,170.0,110,115,120,120.0,145,157.5,172.5,172.5,462.5
9,Brian Goldstein #2,M,SBD,R-O,93,Raw,1984,MO,89.30,140,147.5,155,155.0,95,100,-105,100.0,160,170,182.5,182.5,437.5
1,Ken Jones,M,SBD,R-O,105,Raw,1990,MO,99.70,200,212.5,225,225.0,150,160,162.5,162.5,235,250,262.5,262.5,650
2,Michael Stramel,M,SBD,R-O,105,Raw,1989,MO,103.60,215,230,-235,230.0,115,125,-137.5,125.0,210,230,245,245.0,600
3,Althone Torregosa,M,SBD,R-O,105,Raw,1989,MO,103.30,-177.5,192.5,205,205.0,90,97.5,110,110.0,182.5,-210,210,210.0,525
4,Charles Coghill,M,SBD,R-O,105,Raw,1994,MO,104.00,165,175,185,185.0,125,-135,135,135.0,205,-215,-215,205.0,525
5,Anthony Goebel,M,SBD,R-O,105,Raw,1975,MO,97.80,170,182.5,190,190.0,125,135,-137.5,135.0,175,190,195,195.0,520
DQ,Jeff Jacques,M,SBD,R-O,105,Raw,1967,MO,101.60,-265,-265,-265,,-145,,,,-240,,,,
1,Mike Zimmerman,M,SBD,R-O,120,Raw,1978,MO,117.50,282.5,292.5,300,300.0,192.5,205,-210,205.0,282.5,297.5,-312.5,297.5,802.5
2,William Korte,M,SBD,R-O,120,Raw,1992,MO,111.90,227.5,242.5,-257.5,242.5,170,-182.5,-182.5,170.0,272.5,297.5,-307.5,297.5,710
3,Paul Kienker,M,SBD,R-O,120,Raw,1989,MO,108.10,210,-217.5,217.5,217.5,135,140,145,145.0,245,260,-272.5,260.0,622.5
1,Joseph Morrell,M,SBD,R-O,120+,Raw,1983,MO,133.00,207.5,227.5,-240,227.5,152.5,160,-170,160.0,260,272.5,-282.5,272.5,660
2,Jowallace Rotellini,M,SBD,R-O,120+,Raw,1988,MO,136.50,217.5,225,-227.5,225.0,152.5,160,-167.5,160.0,220,230,-237.5,230.0,615
3,Greg Teakert,M,SBD,R-O,120+,Raw,1972,MO,126.20,215,227.5,-237.5,227.5,130,137.5,-140,137.5,215,230,-240,230.0,595
4,Doug Pettibone,M,SBD,R-O,120+,Raw,1970,MO,131.00,175,190,207.5,207.5,147.5,155,160,160.0,190,202.5,217.5,217.5,585
1,Shareef Odah,M,SBD,R-T,66,Raw,2000,MO,62.40,-125,130,-132.5,130.0,82.5,90,-100,90.0,142.5,150,-160,150.0,370
1,Ryan Pettibone,M,SBD,R-T,83,Raw,2002,MO,80.30,97.5,110,120,120.0,90,-100,100,100.0,130,142.5,145,145.0,365
1,Jeremiah Keao,M,SBD,R-T,93,Raw,1998,MO,85.70,200,215,230,230.0,115,125,-127.5,125.0,237.5,265,-277.5,265.0,620
