Event,Sex,Name,State,BodyweightKg,WeightClassKg,Division,Best3SquatKg,Best3BenchKg,Best3DeadliftKg,TotalKg,Equipment,Place
SBD,F,Brianna Swyryda,SK,79.6,84,Sub-Juniors,116,67.5,115,298.5,Single-ply,1
SBD,F,Natalie Hastings,SK,59.6,63,Sub-Juniors,95,57.5,105,257.5,Single-ply,1
SBD,M,William Steep,BC,91.4,93,Open,280,182.5,265,727.5,Single-ply,3
SBD,M,John MacDonald,PE,92.6,93,Open,305,212.5,287.5,805,Single-ply,1
SBD,M,Aaron Ziffle,SK,92.8,93,Open,310,230,265,805,Single-ply,2
SBD,F,Angelina Van Ryswyk,AB,87.9,84+,Open,170,110,55,335,Single-ply,1
SBD,F,Rhaea Stinn,SK,72.4,84,Open,235.5,180,202.5,618,Single-ply,1
SBD,F,Rebecca Adams,NL,80.6,84,Open,187.5,95,192.5,475,Single-ply,2
SBD,F,Hannah Brock,SK,83.9,84,Open,180,102.5,172.5,455,Single-ply,3
SBD,M,Marc Morris,SK,82.6,83,Open,262.5,187.5,255,705,Single-ply,1
SBD,M,Chris Fudge,ON,82.3,83,Open,260,175,255,690,Single-ply,2
SBD,F,Shantelle Szuch,SK,64,72,Open,180,102.5,187.5,470,Single-ply,1
SBD,F,Charlene Cossar,SK,67.2,72,Open,155,92.5,175,422.5,Single-ply,2
SBD,M,Garrett Bentley,ON,129.3,120+,Open,350,245,300,895,Single-ply,1
SBD,M,Dre Grasdal,SK,137.7,120+,Open,330,150,300,780,Single-ply,2
SBD,M,Kam Hughes,ON,115,120,Open,325,207.5,320,852.5,Single-ply,1
SBD,M,Denis LaBreche,SK,111.3,120,Open,292.5,185,300,777.5,Single-ply,2
SBD,M,John-Wesley Cummings,BC,102.7,105,Open,292.5,235,267.5,795,Single-ply,2
SBD,M,Adrian Locke,AB,104.6,105,Open,340,215,310,865,Single-ply,1
SBD,M,Brett Zoerb,SK,78.6,83,Masters 3,75,135,155,365,Single-ply,1
SBD,M,Don Lovell,BC,64.7,66,Masters 3,144,70,175,389,Single-ply,1
SBD,F,Patricia Kowal,BC,61.4,63,Masters 3,120,73,137.5,330.5,Single-ply,1
SBD,M,Ron Strong,ON,119,120,Masters 3,270,190,305,765,Single-ply,1
SBD,M,Darwin Eckstrom,AB,104.3,105,Masters 3,190,160,180,530,Single-ply,1
SBD,F,Gwendelyn Grasdal,SK,110.8,84+,Masters 2,147.5,95,155,397.5,Single-ply,1
SBD,M,Jeff Becker,ON,82.5,83,Masters 2,262.5,170,275,707.5,Single-ply,1
SBD,M,Andrew Bryant,BC,82.6,83,Masters 2,232.5,175,227.5,635,Single-ply,2
SBD,F,Karen Hann,NL,56.2,57,Masters 2,120.5,62.5,115,298,Single-ply,1
SBD,F,Marnel Spencer,SK,45.6,47,Masters 2,105,62.5,112.5,280,Single-ply,1
SBD,M,John Smart,NL,84.5,93,Masters 1,222.5,112.5,167.5,502.5,Single-ply,2
SBD,M,Barry Antoniow,ON,90.2,93,Masters 1,227.5,220,195,642.5,Single-ply,1
SBD,M,Robert King,NL,82.5,83,Masters 1,227.5,155,240,622.5,Single-ply,1
SBD,F,Babette Meister,NL,62.3,63,Masters 1,125,75,165.5,365.5,Single-ply,1
SBD,M,Steve Magistrale,ON,135,120+,Masters 1,340,250,300,890,Single-ply,1
SBD,M,Jeff Butt,NL,95.7,105,Masters 1,282.5,205,298,785.5,Single-ply,1
SBD,M,Tanner Lepage,SK,92.7,93,Juniors,272.5,202.5,235,710,Single-ply,2
SBD,M,Dylan Moldovan,SK,89.5,93,Juniors,295,155,272.5,722.5,Single-ply,1
SBD,M,Mehar Bhogal,BC,82.7,83,Juniors,230,165,265,660,Single-ply,1
SBD,F,Mikayla Lohse,SK,54.8,57,Juniors,137.5,67.5,159,364,Single-ply,1
SBD,M,Jacob Sinnott,PE,96.1,105,Juniors,265,162.5,242.5,670,Single-ply,1
SBD,M,Austen Zentner,SK,103.4,105,Juniors,280,162.5,227.5,670,Single-ply,2
SBD,M,Thomas Papolis,ON,89.6,93,Sub-Juniors,197.5,135,227.5,560,Raw,2
SBD,M,Marcus Whiteway,NL,90.2,93,Sub-Juniors,160,120,185,465,Raw,4
SBD,M,Connor Stiles,NB,87.2,93,Sub-Juniors,227.5,117.5,245,590,Raw,1
SBD,M,Adam Deibert,SK,88.6,93,Sub-Juniors,195,127.5,235,557.5,Raw,3
SBD,F,Brianna Swyryda,SK,78.9,84,Sub-Juniors,87.5,50,107.5,245,Raw,1
SBD,M,Josiah Nickel,AB,80.3,83,Sub-Juniors,160,105,245,510,Raw,2
SBD,M,Jeret Jordan,ON,79.6,83,Sub-Juniors,192.5,127.5,187.5,507.5,Raw,3
SBD,M,Carson Schamahorn,AB,82.3,83,Sub-Juniors,205,130,260,595,Raw,1
SBD,M,Anthony Nendarto,PE,82.6,83,Sub-Juniors,167.5,102.5,220,490,Raw,4
SBD,M,Matt Robertson,MB,69.3,74,Sub-Juniors,160,100,212.5,472.5,Raw,1
SBD,F,Erika Frost,ON,71.2,72,Sub-Juniors,122.5,52.5,130,305,Raw,1
SBD,M,Zachary Doucette,NS,62.1,66,Sub-Juniors,125,80,205,410,Raw,2
SBD,M,Ben Herriott,NL,65.5,66,Sub-Juniors,160,95,182.5,437.5,Raw,1
SBD,F,Natalie Hastings,SK,59.5,63,Sub-Juniors,65,45,92.5,202.5,Raw,2
SBD,F,Emma Dyck,ON,61.5,63,Sub-Juniors,77.5,50,115,242.5,Raw,1
SBD,F,Marie-Li Dion,QU,55.6,57,Sub-Juniors,107.5,73,110,290.5,Raw,1
SBD,M,Derek Smith,NS,122.4,120+,Sub-Juniors,237.5,150,266,653.5,Raw,1
SBD,M,Jaston Dhaliwal,BC,110.6,120,Sub-Juniors,182.5,120,197.5,500,Raw,1
SBD,M,Axel Lund,SK,96.2,105,Sub-Juniors,162.5,92.5,212.5,467.5,Raw,1
SBD,M,Willy Lam,AB,91.9,93,Open,252.5,145,292.5,690,Raw,8
SBD,M,Walter Cariazo,ON,91.9,93,Open,270,190,330,790,Raw,1
SBD,M,Trent Blanchard,ON,88.8,93,Open,287.5,157.5,292.5,737.5,Raw,3
SBD,M,Thomas Gear,NL,90.4,93,Open,210,175,287.5,672.5,Raw,11
SBD,M,Taro Yamashita,ON,91,93,Open,235,150,307.5,692.5,Raw,6
SBD,M,Stanley Guedes,AB,92.2,93,Open,280,147.5,317.5,745,Raw,2
SBD,M,Quinton LaBorde,AB,91.2,93,Open,240,152.5,280,672.5,Raw,12
SBD,M,Michael Previdsa,ON,88.7,93,Open,255,165,305,725,Raw,4
SBD,M,Kristers Sauka,AB,90.6,93,Open,245,167.5,265,677.5,Raw,10
SBD,M,Keto Allen,AB,91,93,Open,242.5,175,275,692.5,Raw,7
SBD,M,John Odgers,SK,92.4,93,Open,220,155,255,630,Raw,15
SBD,M,Jeremy Tsui,ON,90.8,93,Open,227.5,167.5,235,630,Raw,14
SBD,M,Devin Proulx,AB,92.9,93,Open,245,147.5,295,687.5,Raw,9
SBD,M,Devan Normandin,MB,91.9,93,Open,220,157.5,230,607.5,Raw,17
SBD,M,Dave Powell,QU,92.5,93,Open,220,180,75,475,Raw,18
SBD,M,Danny Dinh,ON,88.5,93,Open,217.5,155,257.5,630,Raw,13
SBD,M,Cody Weeks,BC,91.3,93,Open,257.5,167.5,295,720,Raw,5
SBD,M,Brian Chuong,AB,90,93,Open,235,157.5,222.5,615,Raw,16
SBD,F,Samantha Pigeon,ON,99.5,84+,Open,150,75,162.5,387.5,Raw,10
SBD,F,Lindsay Hollahan,NL,121.4,84+,Open,172.5,70,192.5,435,Raw,5
SBD,F,Lexie Elias,MB,134.7,84+,Open,157.5,95,177.5,430,Raw,6
SBD,F,Jillian Mullowney,NL,131.6,84+,Open,160,77.5,155,392.5,Raw,9
SBD,F,Hailey Kostynuik,MB,131.5,84+,Open,252.5,125,222.5,600,Raw,1
SBD,F,Gaïa Willis,AB,96.9,84+,Open,202.5,80,200,482.5,Raw,4
SBD,F,Emilie Belanger,AB,134.7,84+,Open,192.5,95,210,497.5,Raw,2
SBD,F,Christine Hearn,QU,96.8,84+,Open,155,75,175,405,Raw,8
SBD,F,Bianca Broadbent,BC,115.3,84+,Open,195,107.5,190,492.5,Raw,3
SBD,F,Aileen Bishop,AB,96.2,84+,Open,170,77.5,180,427.5,Raw,7
SBD,F,Shelly Hollingshead,AB,76.9,84,Open,150,72.5,155,377.5,Raw,8
SBD,F,Sara Cowan,ON,83.2,84,Open,200,107.5,220,527.5,Raw,1
SBD,F,Rebecca Garand,QU,82.4,84,Open,165,92.5,200,457.5,Raw,3
SBD,F,Melissa Lemire,ON,78.3,84,Open,137.5,67.5,142.5,347.5,Raw,11
SBD,F,Megan Swidnicki,MB,77.6,84,Open,130,80,165,375,Raw,10
SBD,F,Lynne Desautels,BC,81.5,84,Open,137.5,90,150,377.5,Raw,9
SBD,F,Krista Petersen,AB,74.9,84,Open,145,87.5,160,392.5,Raw,6
SBD,F,Darron Bunt,AB,81.5,84,Open,132.5,90,175,397.5,Raw,5
SBD,F,Danielle Reid-Clavelle,SK,74,84,Open,165,80,185,430,Raw,4
SBD,F,Danielle Philibert,AB,81.7,84,Open,190,100,192.5,482.5,Raw,2
SBD,F,Alexandria Schellenberg,BC,82.5,84,Open,140,75,167.5,382.5,Raw,7
SBD,M,Sylvain Paradis,ON,82.3,83,Open,217.5,155,262.5,635,Raw,6
SBD,M,Stephen Kim,ON,82.5,83,Open,202.5,127.5,257.5,587.5,Raw,14
SBD,M,Shawn McCarthy,MB,82,83,Open,212.5,140,237.5,590,Raw,13
SBD,M,Roland Sae,ON,81.1,83,Open,245,160,272.5,677.5,Raw,3
SBD,M,Randy Yee,BC,78.8,83,Open,242.5,147.5,267.5,657.5,Raw,4
SBD,M,Mike Brennan,AB,77.1,83,Open,220,142.5,262.5,625,Raw,7
SBD,M,Kyle Oleniuk,SK,81,83,Open,210,125,257.5,592.5,Raw,12
SBD,M,Khalil Mouallem,AB,81.9,83,Open,215,152.5,240,607.5,Raw,9
SBD,M,Josh Reyes,ON,80.1,83,Open,247.5,147.5,282.5,677.5,Raw,2
SBD,M,Jonathan Dupuis,QU,81,83,Open,200,155,240,595,Raw,11
SBD,M,Jeremy Klaus,BC,82.8,83,Open,247.5,165,245,657.5,Raw,5
SBD,M,Henry de Guzman,MB,76.3,83,Open,210,150,242.5,602.5,Raw,10
SBD,M,Byrin Wylie,AB,80.3,83,Open,197.5,140,272.5,610,Raw,8
SBD,M,Adam Ramzy,BC,82.3,83,Open,262.5,194,315,771.5,Raw,1
SBD,M,Matt Landsman,AB,73.2,74,Open,200,117.5,230,547.5,Raw,10
SBD,M,Loc Nguyen,ON,72,74,Open,187.5,160,217.5,565,Raw,6
SBD,M,Kris Tiller,NL,72.4,74,Open,200,155,220,575,Raw,5
SBD,M,Jason Houle,AB,73.2,74,Open,195,120,207.5,522.5,Raw,11
SBD,M,Daniel Nhung,BC,71.8,74,Open,192.5,140,222.5,555,Raw,9
SBD,M,Daniel Duran,AB,70.1,74,Open,192.5,125,242.5,560,Raw,7
SBD,M,Conor Demone,NS,73.1,74,Open,230,150,225,605,Raw,4
SBD,M,Connor Lutz,SK,73.7,74,Open,250,192.5,280,722.5,Raw,1
SBD,M,Bryce Thomson,BC,73.7,74,Open,250,127.5,280,657.5,Raw,3
SBD,M,Ben Langley,MB,73.3,74,Open,247.5,155,262.5,665,Raw,2
SBD,M,Aaron Sun,ON,72,74,Open,185,130,242.5,557.5,Raw,8
SBD,F,Valérie Lemay,QU,68.5,72,Open,150,87.5,167.5,405,Raw,6
SBD,F,Teighan McIntyre,ON,64.2,72,Open,142.5,72.5,162.5,377.5,Raw,10
SBD,F,Steph Assad,ON,67.1,72,Open,152.5,87.5,200,440,Raw,5
SBD,F,Sarah Leighton,ON,70.8,72,Open,170,105,182.5,457.5,Raw,4
SBD,F,Rhaea Stinn,SK,71.3,72,Open,192.5,118,190,500.5,Raw,1
SBD,F,Morgan Cahill,AB,71,72,Open,145,85,137.5,367.5,Raw,13
SBD,F,Miranda Crane,PE,70.3,72,Open,112.5,70,155,337.5,Raw,17
SBD,F,Mikaela Law,NS,70.6,72,Open,160,80,157.5,397.5,Raw,8
SBD,F,Lydia North,ON,71.7,72,Open,110,90,162.5,362.5,Raw,14
SBD,F,Kelly Winter,ON,70.1,72,Open,150,82.5,167.5,400,Raw,7
SBD,F,Katie Sorenson,AB,70.7,72,Open,115,72.5,145,332.5,Raw,19
SBD,F,Jessica McNutt,NS,71.6,72,Open,132.5,92.5,145,370,Raw,12
SBD,F,Jeri Munro,PE,71.2,72,Open,122.5,67.5,165,355,Raw,15
SBD,F,Jennifer-Grace Cruz,MB,68.5,72,Open,120,60,157.5,337.5,Raw,16
SBD,F,Jennifer Theron,ON,70.2,72,Open,145,77.5,170,392.5,Raw,9
SBD,F,Domini Zanon,AB,64.9,72,Open,135,72.5,170,377.5,Raw,11
SBD,F,Danielle Fontyn,ON,64.8,72,Open,122.5,65,147.5,335,Raw,18
SBD,F,Christine Castro,ON,69.9,72,Open,180,85,202.5,467.5,Raw,3
SBD,F,Alyssa Smith,ON,71.6,72,Open,185,97.5,210,492.5,Raw,2
SBD,M,Stephen Cascioli,BC,65.7,66,Open,240,150,252.5,642.5,Raw,1
SBD,M,Leng Tang,ON,65.1,66,Open,180,145,215,540,Raw,4
SBD,M,Jesse Moores,ON,65.7,66,Open,225,142.5,257.5,625,Raw,3
SBD,M,Daniel Remulla,ON,65.6,66,Open,217.5,169,247.5,634,Raw,2
SBD,F,Wendy Pronick,BC,62.1,63,Open,117.5,87.5,152.5,357.5,Raw,13
SBD,F,Vanessa Choy,AB,59,63,Open,122.5,70,132.5,325,Raw,16
SBD,F,Teresa Yeung,ON,58,63,Open,157.5,92.5,175,425,Raw,3
SBD,F,Teresa Parsons,AB,62.6,63,Open,160,100,190,450,Raw,2
SBD,F,Nathalie Murphy,ON,62.6,63,Open,120,65,130,315,Raw,17
SBD,F,Natalie Nikiforuk,AB,62,63,Open,135,80,180,395,Raw,6
SBD,F,Miriam Schwabe,ON,62.1,63,Open,145,80,162.5,387.5,Raw,8
SBD,F,Mimi Frank,AB,60.6,63,Open,110,85,150,345,Raw,15
SBD,F,Milayna Goruick,SK,61.2,63,Open,127.5,75,155,357.5,Raw,11
SBD,F,Maria Htee,NL,61,63,Open,183.5,103.5,195,482,Raw,1
SBD,F,Maria Christina Taccone,ON,62.8,63,Open,150,82.5,177.5,410,Raw,4
SBD,F,Maggie Morgan,ON,62.3,63,Open,122.5,75,152.5,350,Raw,14
SBD,F,Leah Mamane,QU,61.8,63,Open,150,87.5,170,407.5,Raw,5
SBD,F,Kristy Fisher,MB,61.6,63,Open,117.5,77.5,162.5,357.5,Raw,12
SBD,F,Jenna Sabino,BC,60.4,63,Open,140,75,160,375,Raw,10
SBD,F,Amy Morris,SK,62.3,63,Open,145,85,147.5,377.5,Raw,9
SBD,F,Abby Hall,AB,62.7,63,Open,145,85,162.5,392.5,Raw,7
SBD,M,Pete Williams,BC,57.7,59,Open,172.5,120,212.5,505,Raw,2
SBD,M,Derek Ng,ON,58.5,59,Open,167.5,87.5,261,516,Raw,1
SBD,F,Sumalee Salahub,AB,55.9,57,Open,117.5,60,142.5,320,Raw,8
SBD,F,Stephanie Puddicome,NL,54,57,Open,147.5,72.5,170,390,Raw,1
SBD,F,Stephanie Earl,ON,56.7,57,Open,127.5,82.5,137.5,347.5,Raw,4
SBD,F,Skylar Yanke,AB,52.4,57,Open,105,72.5,130,307.5,Raw,10
SBD,F,Natasha Hochstein,SK,55.4,57,Open,117.5,62.5,142.5,322.5,Raw,7
SBD,F,Jannelle Van Den Bosch,MB,55.7,57,Open,125,65,142.5,332.5,Raw,5
SBD,F,Colleen O'Toole,BC,55.5,57,Open,125,70,130,325,Raw,6
SBD,F,Chelsea Cluett,NS,56,57,Open,100,77.5,137.5,315,Raw,9
SBD,F,Carolyn Tran,SK,55.7,57,Open,130,80,152.5,362.5,Raw,2
SBD,F,Alicia Stajniak,SK,55.7,57,Open,127.5,65,155,347.5,Raw,3
SBD,F,Sarah Weijand,BC,49.8,52,Open,122.5,57.5,145,325,Raw,5
SBD,F,Nicola Paviglianiti,ON,51.2,52,Open,132.5,67.5,142.5,342.5,Raw,3
SBD,F,Melissa Janis,SK,49.9,52,Open,105,57.5,125,287.5,Raw,9
SBD,F,Mae Lehmann,ON,51.9,52,Open,95,60,127.5,282.5,Raw,10
SBD,F,Joanna Rieber,ON,50.6,52,Open,132.5,95.5,150,378,Raw,1
SBD,F,Isabel Ungar,ON,50.6,52,Open,115,67.5,137.5,320,Raw,6
SBD,F,Clarissa Stewart,MB,50.5,52,Open,122.5,82.5,147.5,352.5,Raw,2
SBD,F,Christina Gee,BC,50.6,52,Open,122.5,62.5,142.5,327.5,Raw,4
SBD,F,Carissa Sideroff,SK,51.1,52,Open,102.5,57.5,135,295,Raw,8
SBD,F,Alexa Rochford,ON,51.7,52,Open,115,62.5,132.5,310,Raw,7
SBD,F,Simone Lai,ON,46.4,47,Open,125,62.5,127.5,315,Raw,2
SBD,F,Rhonda Wong,AB,46.5,47,Open,122.5,67.5,142.5,332.5,Raw,1
SBD,M,Steve Snell,AB,132.6,120+,Open,275,175,290,740,Raw,6
SBD,M,Raymond Hickie,SK,135.6,120+,Open,305,197.5,285,787.5,Raw,4
SBD,M,Nathan Sparks,AB,131.3,120+,Open,265,185,280,730,Raw,8
SBD,M,Kelly Branton,ON,173,120+,Open,410,265,325,1000,Raw,1
SBD,M,John Boyd,SK,134.2,120+,Open,275,200,317.5,792.5,Raw,3
SBD,M,Jeff Martens,AB,153,120+,Open,285,172.5,295,752.5,Raw,5
SBD,M,Jason Byrne,ON,138.9,120+,Open,340,207.5,340,887.5,Raw,2
SBD,M,Curtis Demelo,AB,144.8,120+,Open,280,162.5,292.5,735,Raw,7
SBD,M,Chris McLaren-Almond,ON,136.1,120+,Open,255,172.5,227.5,655,Raw,9
SBD,M,Shane Martin,AB,111.7,120,Open,272.5,215,272.6,760,Raw,6
SBD,M,Russell Agnew,SK,119.7,120,Open,280,170,280,730,Raw,8
SBD,M,Philip Brougham,ON,119,120,Open,300,190,295,785,Raw,4
SBD,M,Mickael Cloutier,QU,119.2,120,Open,295,217.5,315,827.5,Raw,3
SBD,M,Max Seeley,AB,114,120,Open,245,157.5,272.5,675,Raw,10
SBD,M,Marc Cardinal,QU,119.4,120,Open,292.5,187.5,351,831,Raw,2
SBD,M,Kyle Paterson,SK,118.5,120,Open,252.5,185,292.5,730,Raw,7
SBD,M,Kerry Dennison,ON,109,120,Open,262.5,182.5,322.5,767.5,Raw,5
SBD,M,Jeff Baker,AB,117.7,120,Open,270,155,280,705,Raw,9
SBD,M,Erik Willis,ON,119.7,120,Open,310,230,320,860,Raw,1
SBD,M,Anthony Singeris,,117.6,120,Open,250,135,252.5,637.5,Raw,11
SBD,M,Trung Lieu,ON,103.6,105,Open,75,195,75,345,Raw,17
SBD,M,Tarik Sehovic,ON,100.7,105,Open,225,145,290,660,Raw,14
SBD,M,Rory McIntyre,AB,103.1,105,Open,245,142.5,250,637.5,Raw,15
SBD,M,Rob Rooney,SK,102,105,Open,230,177.5,262.5,670,Raw,12
SBD,M,Mike MacDonald #2,AB,100.6,105,Open,255,202.5,307.5,765,Raw,2
SBD,M,Leon Brown,ON,103.3,105,Open,292.5,215,250,757.5,Raw,3
SBD,M,Justin Alfante,ON,104.9,105,Open,280,170,295,745,Raw,5
SBD,M,Julien Mercier,QC,103.9,105,Open,250,180,250,680,Raw,10
SBD,M,Joël Boulianne,QU,104.1,105,Open,240,200,285,725,Raw,6
SBD,M,Gage Bush,SK,101.4,105,Open,280,137.5,297.5,715,Raw,7
SBD,M,Gabriel-Antoine Gosselin,QU,102.2,105,Open,280,75,252.5,607.5,Raw,16
SBD,M,Eric Olsson,BC,104.3,105,Open,250,145,295,690,Raw,8
SBD,M,Cameron Kennedy,AB,102.4,105,Open,245,162.5,260,667.5,Raw,13
SBD,M,Bryce Krawczyk,AB,103.9,105,Open,295,180,375,850,Raw,1
SBD,M,Brett Lund,SK,98.6,105,Open,240,167.5,262.5,670,Raw,11
SBD,M,Austyn Ryan,ON,104,105,Open,282.5,177.5,295,755,Raw,4
SBD,M,Alex Aleman,BC,104.7,105,Open,232.5,145,305,682.5,Raw,9
SBD,M,Tilman Gallant,PE,88.2,93,Masters 4,130,142.5,155,427.5,Raw,2
SBD,M,Laurie Greenidge,ON,89.6,93,Masters 4,170,110,200,480,Raw,1
SBD,M,Tom Cragg,BC,70,74,Masters 4,82.5,55,142.5,280,Raw,1
SBD,M,Robert Caron,ON,72.8,74,Masters 4,95,65,112.5,272.5,Raw,2
SBD,F,Janice Shulman,ON,49.8,52,Masters 4,63,43,95.5,201.5,Raw,1
SBD,M,Bill Stevens,ON,111.4,120,Masters 4,205,130,205,540,Raw,1
SBD,M,Walt Dengler,BC,90.2,93,Masters 3,210,120,227.5,557.5,Raw,1
SBD,M,John Fraser,NS,90.4,93,Masters 3,170,137.5,240.5,548,Raw,2
SBD,F,Sandra Nase,SK,103.4,84+,Masters 3,102.5,58.5,158,319,Raw,1
SBD,F,Sylvia Gaucher,AB,80.9,84,Masters 3,100,52.5,125,277.5,Raw,4
SBD,F,Stephanie Needham,BC,80.6,84,Masters 3,107.5,67.5,137.5,312.5,Raw,1
SBD,F,Linda Rousseau,ON,79.5,84,Masters 3,117.5,65,117.5,300,Raw,2
SBD,F,Arlene van Diepen,PE,79.3,84,Masters 3,107.5,50,140,297.5,Raw,3
SBD,M,Stan Goss,ON,82.1,83,Masters 3,147.5,97.5,165,410,Raw,4
SBD,M,Ron Delaney,NS,82.5,83,Masters 3,175,120,242.5,537.5,Raw,1
SBD,M,John MacQueen,AB,79.6,83,Masters 3,160,115,162.5,437.5,Raw,3
SBD,M,Brett Zoerb,SK,79.5,83,Masters 3,175,125,200,500,Raw,2
SBD,M,Bob Hindley,BC,71.5,74,Masters 3,167.5,77.5,222.5,467.5,Raw,2
SBD,M,Bernard Vachon,QU,73.3,74,Masters 3,197.5,82.5,225,505,Raw,1
SBD,F,Mava Brydges,SK,71.4,72,Masters 3,85,60.5,110,255.5,Raw,1
SBD,M,Don Lovell,BC,64.9,66,Masters 3,105,62.5,180,347.5,Raw,1
SBD,F,Tania Spak,SK,59.8,63,Masters 3,90,60,130,280,Raw,2
SBD,F,Sharlene Brunjes,BC,60.4,63,Masters 3,80,40,100,220,Raw,4
SBD,F,Deb Ellard,AB,60.9,63,Masters 3,107.5,62.5,125,295,Raw,1
SBD,F,Allison Bernard-Mahadeo,AB,62.1,63,Masters 3,92.5,47.5,127.5,267.5,Raw,3
SBD,F,Kim Crumpton,ON,55.2,57,Masters 3,55,50,110,215,Raw,1
SBD,M,Ron Strong,ON,118.2,120,Masters 3,215,150,290,655,Raw,1
SBD,M,Miroslav Koprnicky,ON,99.7,105,Masters 3,180,151.5,205,536.5,Raw,1
SBD,M,Gordon Sjodin,BC,92.6,93,Masters 2,160,162.5,227.5,550,Raw,3
SBD,M,Gordon Langfield,BC,91.7,93,Masters 2,210,175,227.5,612.5,Raw,1
SBD,M,Conrad Cowan,BC,91.6,93,Masters 2,195,142.5,230,567.5,Raw,2
SBD,F,Wanda Lewis,NL,91.1,84+,Masters 2,137.5,67.5,177.5,382.5,Raw,2
SBD,F,Shelley Colter,ON,112.3,84+,Masters 2,122.5,70,152.5,345,Raw,3
SBD,F,Bonnie Rempel,BC,107.8,84+,Masters 2,175.5,107.5,180,463,Raw,1
SBD,F,Janine Wheeler,ON,82.8,84,Masters 2,117.5,67.5,135,320,Raw,3
SBD,F,Janet Martin,NL,83.4,84,Masters 2,110,60,152.5,322.5,Raw,2
SBD,F,Felicia Greenidge,ON,81.7,84,Masters 2,151,80,170,401,Raw,1
SBD,M,Jeff Becker,ON,82.1,83,Masters 2,217.5,145,265,627.5,Raw,1
SBD,M,Andrew Bryant,BC,82.3,83,Masters 2,195,140,205,540,Raw,2
SBD,M,Joe McCullough,ON,73,74,Masters 2,180,115,215,510,Raw,1
SBD,M,Glenn Chaytor,NL,74,74,Masters 2,185,105,195,485,Raw,2
SBD,F,Melissa McPherson,SK,71.5,72,Masters 2,116.5,55,115,286.5,Raw,2
SBD,F,Linda Guillemette,NL,71.7,72,Masters 2,70,60,110,240,Raw,3
SBD,F,Gayle Johnson,NL,70.2,72,Masters 2,105,65,147,317,Raw,1
SBD,M,Jay McGrath,NL,64.3,66,Masters 2,146,98.5,190,434.5,Raw,1
SBD,F,Sandy Bellan-Miron,AB,62.7,63,Masters 2,90,45,130,265,Raw,2
SBD,F,Sandra Drake,AB,59.3,63,Masters 2,87.5,47.5,122.5,257.5,Raw,3
SBD,F,Kelly Wharton,BC,59.9,63,Masters 2,102.5,52.5,125,280,Raw,1
SBD,F,Anne Graham,NS,60.7,63,Masters 2,97.5,47.5,107.5,252.5,Raw,4
SBD,F,Jody McPeak,AB,56,57,Masters 2,110,57.5,132.5,300,Raw,1
SBD,F,Jayne Egan,ON,51,52,Masters 2,108.5,63,132.5,304,Raw,1
SBD,F,Marnel Spencer,SK,45.3,47,Masters 2,85,52.5,112.5,250,Raw,1
SBD,M,Mike Forster,ON,115.9,120,Masters 2,215,132.5,240,587.5,Raw,2
SBD,M,David Holmes,ON,115.3,120,Masters 2,200,167.5,260,627.5,Raw,1
SBD,M,Wayne Cormier,SK,103.3,105,Masters 2,182.5,137.5,190,510,Raw,4
SBD,M,Sterling Nering,BC,102.4,105,Masters 2,212.5,155,242.5,610,Raw,2
SBD,M,Mark McGowan,AB,102.6,105,Masters 2,187.5,125,200,512.5,Raw,3
SBD,M,Andy Childs,ON,104.6,105,Masters 2,235,155,278.5,668.5,Raw,1
SBD,M,Mark Gharibians,BC,91.5,93,Masters 1,205,122.5,205,532.5,Raw,5
SBD,M,Gabe Festing,BC,91.2,93,Masters 1,247.5,170,240,657.5,Raw,2
SBD,M,Brennan McIntyre,MB,92.1,93,Masters 1,190,142.5,225,557.5,Raw,4
SBD,M,Brandon Summers,,92.6,93,Masters 1,255,185,275,715,Raw,1
SBD,M,Al Rodriguez,ON,92.9,93,Masters 1,215,125,227.5,567.5,Raw,3
SBD,F,Tess Dehoog,AB,116.5,84+,Masters 1,120,75,152.5,347.5,Raw,8
SBD,F,Suzanne Westcott,AB,95.8,84+,Masters 1,152.5,72.5,142.5,367.5,Raw,5
SBD,F,Krista Sanger,MB,90.4,84+,Masters 1,147.5,77.5,172.5,397.5,Raw,2
SBD,F,Jennifer Wessner,SK,87.4,84+,Masters 1,152.5,62.5,175,390,Raw,3
SBD,F,Danielle Smith,SK,90.3,84+,Masters 1,145,77.5,167.5,390,Raw,4
SBD,F,Cathy Quinlan,NL,92.4,84+,Masters 1,135,52.5,172.5,360,Raw,7
SBD,F,Anjeannette Wynands,ON,114,84+,Masters 1,172.5,95,212.5,480,Raw,1
SBD,F,Alisa Cutler,NL,121.4,84+,Masters 1,130,60,175,365,Raw,6
SBD,F,Vicky Taylor-Hood,NL,76,84,Masters 1,162.5,82.5,195,440,Raw,1
SBD,F,Renae Witzaney,AB,76.3,84,Masters 1,132.5,72.5,140,345,Raw,6
SBD,F,Railene Keller,AB,75.8,84,Masters 1,145,67.5,155,367.5,Raw,3
SBD,F,Janet Loesel Sitar,MB,74.3,84,Masters 1,117.5,72.5,157.5,347.5,Raw,5
SBD,F,Heather Unsworth,NL,79.6,84,Masters 1,130,60,160,350,Raw,4
SBD,F,Hannah Gray,AB,81.3,84,Masters 1,127.5,60,152.5,340,Raw,7
SBD,F,Dana Mills,QU,81.5,84,Masters 1,147.5,80,157.5,385,Raw,2
SBD,M,Rob Dyke,,78.1,83,Masters 1,182.5,140,232.5,555,Raw,3
SBD,M,PK Mills,ON,80.8,83,Masters 1,210,142.5,275,627.5,Raw,1
SBD,M,Lee Reynolds,AB,82.7,83,Masters 1,200,127.5,222.5,550,Raw,4
SBD,M,Kevin Weiss,AB,82,83,Masters 1,210,140,230,580,Raw,2
SBD,M,Kevin Steiger,ON,79.8,83,Masters 1,172.5,115,245,532.5,Raw,6
SBD,M,John Smart,NL,82.1,83,Masters 1,180,105,255,540,Raw,5
SBD,M,Tom Kean,NL,73.9,74,Masters 1,210,147.5,235,592.5,Raw,1
SBD,M,Shiek Ali,NS,73,74,Masters 1,175,122.5,195,492.5,Raw,2
SBD,F,Tracy Wise,ON,70,72,Masters 1,110,67.5,132.5,310,Raw,4
SBD,F,Jennifer Hotner,BC,71.2,72,Masters 1,147.5,75,142.5,365,Raw,2
SBD,F,Debbie Huq,QU,69,72,Masters 1,127.5,60,165,352.5,Raw,3
SBD,F,Christine Kluge,ON,69.7,72,Masters 1,147.5,92.5,180,420,Raw,1
SBD,M,Lewis Noppers,AB,65.9,66,Masters 1,195,132.5,265,592.5,Raw,1
SBD,M,Jean-Sébastien Rhéaume,QU,65.3,66,Masters 1,210,130,240,580,Raw,2
SBD,M,Chris Aviado,ON,64.7,66,Masters 1,177.5,167.5,195,540,Raw,3
SBD,F,Natasha Dunn-Kvedaras,ON,61.7,63,Masters 1,127.5,82.5,132.5,342.5,Raw,2
SBD,F,Johanna Reichel #1,AB,57.8,63,Masters 1,110,62.5,160,332.5,Raw,4
SBD,F,Holly Lasante,ON,61.6,63,Masters 1,130,62.5,155,347.5,Raw,1
SBD,F,Frances Manias,ON,62.2,63,Masters 1,125,72.5,145,342.5,Raw,3
SBD,F,Wendy Yamazaki,BC,55.7,57,Masters 1,87.5,57.5,125,270,Raw,4
SBD,F,Joanne Rose,NL,55.9,57,Masters 1,102.5,57.5,137.5,297.5,Raw,3
SBD,F,Jill MacFarlane,PE,54.3,57,Masters 1,92.5,50,95,237.5,Raw,5
SBD,F,Heather Ayles,PE,56.5,57,Masters 1,124,75,140,339,Raw,1
SBD,F,Danielle Hussey,NL,56.2,57,Masters 1,112.5,65,127.5,305,Raw,2
SBD,F,Shelley Sandiford,ON,51.6,52,Masters 1,107.5,65,155,327.5,Raw,2
SBD,F,Ellissa Hull,NL,50.1,52,Masters 1,117.5,65,150,332.5,Raw,1
SBD,M,Mario Sayeur,QU,144.2,120+,Masters 1,305,157.5,312.5,775,Raw,2
SBD,M,Josh Simpson,BC,141.1,120+,Masters 1,310,237.5,302.5,850,Raw,1
SBD,M,Tim Nadeau,AB,117.5,120,Masters 1,220,127.5,250,597.5,Raw,4
SBD,M,Rob Lepine,SK,116.1,120,Masters 1,270,185,267.5,722.5,Raw,2
SBD,M,John Giffen,AB,119.2,120,Masters 1,227.5,210,245,682.5,Raw,3
SBD,M,Collin Pullar,SK,119.7,120,Masters 1,287.5,205,285,777.5,Raw,1
SBD,M,Vince Green,MB,102.3,105,Masters 1,232.5,180,240,652.5,Raw,3
SBD,M,Ryan Kells,NS,97.9,105,Masters 1,207.5,115,270,592.5,Raw,6
SBD,M,Nick Doelman,,104.6,105,Masters 1,190,120,187.5,497.5,Raw,7
SBD,M,Keith Dunne,NL,103.2,105,Masters 1,240,160,225,625,Raw,5
SBD,M,Jeffrey Dawson,ON,103.4,105,Masters 1,237.5,182.5,275,695,Raw,2
SBD,M,Jeff Butt,NL,96.3,105,Masters 1,257.5,160,277.5,695,Raw,1
SBD,M,Dan Milo,SK,100.3,105,Masters 1,252.5,107.5,280,640,Raw,4
SBD,M,Yohann Savinsky,QU,90.8,93,Juniors,260,167.5,320,747.5,Raw,1
SBD,M,Sam Byrne,NL,92.3,93,Juniors,260,137.5,255,652.5,Raw,5
SBD,M,Richard Yamaguchi,BC,91.8,93,Juniors,205,100,227.5,532.5,Raw,15
SBD,M,Ravjot Dhillon,AB,85.4,93,Juniors,182.5,132.5,225,540,Raw,14
SBD,M,Nick Longo,ON,91.2,93,Juniors,255,157.5,295,707.5,Raw,3
SBD,M,Newton Ly,BC,92.5,93,Juniors,300,180,267.5,747.5,Raw,2
SBD,M,Matthew Shapiera,ON,90.5,93,Juniors,220,137.5,235,592.5,Raw,9
SBD,M,Matthew Lewis Vena,BC,90.5,93,Juniors,270,137.5,285,692.5,Raw,4
SBD,M,Matt Zukowski,AB,88.7,93,Juniors,172.5,110,232,515,Raw,16
SBD,M,Lukas Nering,BC,83.5,93,Juniors,215,137.5,227.5,580,Raw,12
SBD,M,Landyn Hickmott,BC,89.4,93,Juniors,260,137.5,240,637.5,Raw,6
SBD,M,Kurtis Tallaire,MB,92.7,93,Juniors,210,115,242.5,567.5,Raw,13
SBD,M,Josh Smith #13,ON,88.7,93,Juniors,225,152.5,250,627.5,Raw,7
SBD,M,Derrick Chuong,AB,90.4,93,Juniors,227.5,137.5,255,620,Raw,8
SBD,M,Bryan van Genne,AB,92.5,93,Juniors,217.5,145,227.5,590,Raw,10
SBD,M,Blake Taylor,BC,91.8,93,Juniors,220,142.5,222.5,585,Raw,11
SBD,F,Hailey Marwood,SK,104.6,84+,Juniors,137.5,75,152.5,365,Raw,1
SBD,F,Olivia Lim,BC,82.3,84,Juniors,165,82.5,200,447.5,Raw,1
SBD,M,Simon Chang,ON,81.2,83,Juniors,245,167.5,285,697.5,Raw,1
SBD,M,Paul Ionescu,ON,81.8,83,Juniors,60,120,227.5,407.5,Raw,10
SBD,M,Nicolas Chapedelaine,QU,80.5,83,Juniors,247.5,160,285,692.5,Raw,2
SBD,M,Nick Hayward,NL,82.3,83,Juniors,230,130,275,635,Raw,4
SBD,M,Mikal Thrones,MB,81.2,83,Juniors,182.5,125,242.5,550,Raw,5
SBD,M,Mackenzie Beattie,NS,81.6,83,Juniors,200,142.5,207.5,550,Raw,6
SBD,M,Logan Tarasoff,BC,82,83,Juniors,250,145,257.5,652.5,Raw,3
SBD,M,Kevin Gray,AB,82.8,83,Juniors,185,120,232.5,537.5,Raw,8
SBD,M,Justin Lee,BC,81.5,83,Juniors,195,132.5,205,532.5,Raw,9
SBD,M,Jaydan Sisson,MB,79.9,83,Juniors,190,120,232.5,542.5,Raw,7
SBD,M,Quentin Chan,ON,73.8,74,Juniors,205,142.5,235,582.5,Raw,6
SBD,M,Olanrewaju Adeoye,ON,72.6,74,Juniors,240,122.5,252.5,615,Raw,4
SBD,M,Nicolas L'Amarca,AB,70.5,74,Juniors,175,127.5,210,512.5,Raw,11
SBD,M,Jordan Hoang,AB,73.4,74,Juniors,190,137.5,202.5,530,Raw,10
SBD,M,Jake Rossanese,ON,66.8,74,Juniors,190,102.5,250,542.5,Raw,9
SBD,M,Eric Wu,AB,68.9,74,Juniors,142.5,102.5,200,445,Raw,13
SBD,M,Eric Melendez-Duke,SK,73.8,74,Juniors,195,127.5,255,577.5,Raw,7
SBD,M,Dimitri Hadjistavropoulos,SK,72.3,74,Juniors,182.5,135,185,502.5,Raw,12
SBD,M,Daniel Heintz,SK,73.7,74,Juniors,237.5,132.5,250,620,Raw,3
SBD,M,Christopher Dang,AB,73.5,74,Juniors,212.5,145,265,622.5,Raw,1
SBD,M,Cameron Preymack,SK,73.3,74,Juniors,215,150,255,620,Raw,2
SBD,M,Blake Barrett,ON,73.6,74,Juniors,210,137.5,250,597.5,Raw,5
SBD,M,Asif Munir,ON,72.8,74,Juniors,210,115,225,550,Raw,8
SBD,F,Taylor Leonhardt,SK,70.7,72,Juniors,135,72.5,142.5,350,Raw,6
SBD,F,Rashenna Grzybowski,SK,70.7,72,Juniors,142.1,65,155,362.5,Raw,5
SBD,F,Paige Kernot,MB,68.6,72,Juniors,147.5,80,172.5,400,Raw,3
SBD,F,Ly Nguyen,AB,71.3,72,Juniors,137.5,57.5,152.5,347.5,Raw,8
SBD,F,Kayla Filiatrault,AB,70.1,72,Juniors,137.5,62.5,147.5,347.5,Raw,7
SBD,F,Kamille Lim,AB,71.8,72,Juniors,135,60,147.5,342.5,Raw,10
SBD,F,Jessica Buettner,SK,71.7,72,Juniors,173,90,220,483,Raw,1
SBD,F,Esther Watt,AB,70.2,72,Juniors,112.5,75,150,337.5,Raw,11
SBD,F,Chelsey Gaulin,ON,70.7,72,Juniors,140,70,135,345,Raw,9
SBD,F,Camille Tremblay,QU,70.6,72,Juniors,172.5,80,162.5,415,Raw,2
SBD,F,Ashleigh Wiebe,MB,69.2,72,Juniors,142.5,80,167.5,390,Raw,4
SBD,M,Tristan Martel,NS,65.3,66,Juniors,182.5,147.5,245,575,Raw,5
SBD,M,Mark Tobias,ON,66,66,Juniors,235,125,232.5,592.5,Raw,4
SBD,M,Luke Homer,ON,65.6,66,Juniors,235,122.5,250,607.5,Raw,3
SBD,M,Jake Allison,BC,65.9,66,Juniors,227.5,137.5,277.5,642.5,Raw,1
SBD,M,Clifton Pho,AB,65.2,66,Juniors,205,132.5,285.5,623,Raw,2
SBD,M,Arnold Vendiola,AB,64.3,66,Juniors,175,102.5,215,492.5,Raw,6
SBD,M,Alan Chung,AB,65.3,66,Juniors,170,100,220,490,Raw,7
SBD,M,Addison Komarinski,SK,65.3,66,Juniors,175,100,197.5,472.5,Raw,8
SBD,F,Taylor Langlais,ON,61.7,63,Juniors,140,85,150,375,Raw,3
SBD,F,Roselle Mary Lucero,ON,61.2,63,Juniors,137.5,65,150,352.5,Raw,5
SBD,F,Meghan Law,AB,60,63,Juniors,112.5,62.5,132.5,307.5,Raw,7
SBD,F,Lorraine Yeung,ON,61.8,63,Juniors,145,70,175,390,Raw,2
SBD,F,Kirstie Armstead,SK,60.9,63,Juniors,132.5,75,157.5,365,Raw,4
SBD,F,Justine Maltais,QU,62.2,63,Juniors,137.5,94,162.5,394,Raw,1
SBD,F,Chantalle Cheung,ON,61.4,63,Juniors,127.5,80,125,332.5,Raw,6
SBD,F,Caitlin Chan-McLeod,BC,61.8,63,Juniors,97.5,52.5,135,285,Raw,8
SBD,M,John Pineda,ON,51.8,53,Juniors,147.5,113,193,453.5,Raw,1
SBD,M,Jeffrey Polasz,ON,53,53,Juniors,142.5,100,187.5,430,Raw,2
SBD,M,Jason Luo,AB,58.9,59,Juniors,195.6,115,220,530.5,Raw,1
SBD,M,Darcy Ducharme,ON,52.3,53,Juniors,170.5,92.5,157.5,420.5,Raw,3
SBD,M,Daniel Cheslo,ON,58.3,59,Juniors,130,105,155,390,Raw,6
SBD,M,Chan Woo Youn,AB,58.9,59,Juniors,155,100,165,420,Raw,5
SBD,F,Neeki Motabar,ON,54.1,57,Juniors,115,62.5,130,307.5,Raw,5
SBD,F,Natasha Anderson,AB,55.4,57,Juniors,97.5,55,110,262.5,Raw,8
SBD,F,Mikayla Lohse,SK,55,57,Juniors,115,55,140,310,Raw,4
SBD,F,Maria Mullaly,NL,55,57,Juniors,95,57.5,117.5,270,Raw,7
SBD,F,Leanne McLaughlin,NS,55.9,57,Juniors,115,67.5,135,317.5,Raw,2
SBD,F,Leah Will,ON,54.7,57,Juniors,105,55,127.5,287.5,Raw,6
SBD,F,Brynn Hamilton,AB,56.3,57,Juniors,122.5,62.5,132.5,317.5,Raw,3
SBD,F,Alexandra Stodalka,AB,55,57,Juniors,122.5,93,137.5,353,Raw,1
SBD,F,Tiffany Sengsourigna,ON,50.7,52,Juniors,136.5,72.5,170,379,Raw,1
SBD,F,Sophie Démoré,ON,51.6,52,Juniors,130,57.5,147.5,335,Raw,2
SBD,F,Natalie Hui,ON,50.1,52,Juniors,112.5,75.5,140,328,Raw,3
SBD,F,Tatiana Thompson,SK,46.1,47,Juniors,102.5,40,102.5,245,Raw,1
SBD,M,Ty Scratch,ON,143.6,120+,Juniors,347.5,220,295,862.5,Raw,1
SBD,M,Andrew Langelaar,MB,128.8,120+,Juniors,277.5,175,295,747.5,Raw,2
SBD,M,William Buhler,BC,113.8,120,Juniors,252.5,132.5,255,640,Raw,7
SBD,M,Tommi Peters,ON,113.3,120,Juniors,250,162.5,262.5,675,Raw,6
SBD,M,Stefan Rufo,ON,117.3,120,Juniors,287.5,150,265,702.5,Raw,5
SBD,M,Matthew Bannister,AB,117.3,120,Juniors,265,175,285,725,Raw,4
SBD,M,Jackson Spencer,BC,119.6,120,Juniors,345,200,315,860,Raw,1
SBD,M,Connor Lynch #1,ON,114.2,120,Juniors,275,180,275,730,Raw,3
SBD,M,Anton Zmushka,AB,118,120,Juniors,260,180,295,735,Raw,2
SBD,M,Nicholas Hadjistavropoulos,SK,102.5,105,Juniors,230,155,255,640,Raw,6
SBD,M,Nhut Tran,MB,99.9,105,Juniors,215,117.5,242.5,575,Raw,9
SBD,M,Luke Tremblay,ON,104.7,105,Juniors,290,195,305,790,Raw,2
SBD,M,Logan Vessey,PE,103.7,105,Juniors,235,142.5,272.5,650,Raw,5
SBD,M,Kevin Vuong,AB,102.7,105,Juniors,182.5,130,210,522.5,Raw,10
SBD,M,Johnnel Naron,AB,103.1,105,Juniors,265,167.5,265,697.5,Raw,4
SBD,M,Graeme Laprade,ON,104.7,105,Juniors,290,175,295,760,Raw,3
SBD,M,Fady Mitry,QU,104.9,105,Juniors,217.5,172.5,245,635,Raw,7
SBD,M,Christopher Juman,ON,101.9,105,Juniors,220,150,262.5,632.5,Raw,8
SBD,M,Cameron St Amand,BC,103.8,105,Juniors,333,182.5,305,820.5,Raw,1
SBD,F,Alexa Sperske,AB,67.99,72,Open,135,65,170,370,Raw,1
B,M,Marcus Whiteway,NL,91,93,Sub-Juniors,,147.5,,147.5,Single-ply,1
B,M,Chris Fudge,ON,84.3,93,Open,,167.5,,167.5,Single-ply,2
B,M,Barry Antoniow,ON,89.8,93,Open,,227.5,,227.5,Single-ply,1
B,F,Pamela Windrum,SK,108.2,84+,Open,,120,,120,Single-ply,1
B,F,Rebecca Adams,NL,80.3,84,Open,,90,,90,Single-ply,3
B,F,Marilyn Bernard,NL,82.2,84,Open,,97.5,,97.5,Single-ply,2
B,F,Heidi Fowler,SK,82.4,84,Open,,115,,115,Single-ply,1
B,F,Dana Sandler,AB,82.2,84,Open,,87.5,,87.5,Single-ply,4
B,M,Jake Beaton,ON,70.8,74,Open,,100,,100,Single-ply,1
B,F,Morgan Cahill,AB,72,72,Open,,100,,100,Single-ply,1
B,F,Karyne Turcotte,QU,63.6,72,Open,,87.5,,87.5,Single-ply,2
B,F,Mimi Frank,AB,60.1,63,Open,,116.5,,116.5,Single-ply,1
B,F,Carolyn Tran,SK,59.1,63,Open,,85,,85,Single-ply,2
B,M,Ryan Fowler,SK,137.2,120+,Open,,260,,260,Single-ply,1
B,M,Shane Martin,AB,112.3,120,Open,,309.5,,309.5,Single-ply,1
B,M,Matt Parry,AB,118.7,120,Open,,182.5,,182.5,Single-ply,2
B,M,Kris Hynes,AB,101.1,105,Open,,167.5,,167.5,Single-ply,3
B,M,Heinrich Janse Van Rensburg,MB,99.2,105,Open,,197.5,,197.5,Single-ply,2
B,M,Cole Thevenot,BC,102.8,105,Open,,207.5,,207.5,Single-ply,1
B,M,John Noguera,ON,86.8,93,Masters 3,,137.5,,137.5,Single-ply,1
B,F,Ellynne Dickson,ON,116.7,84+,Masters 3,,85.5,,85.5,Single-ply,1
B,F,Linda Rousseau,ON,80.2,84,Masters 3,,80,,80,Single-ply,1
B,M,Brett Zoerb,SK,79.5,83,Masters 3,,130,,130,Single-ply,1
B,M,Patrick Winstanley,SK,133.6,120+,Masters 3,,147.5,,147.5,Single-ply,1
B,M,Daniel Royer,QU,108.2,120,Masters 3,,125,,125,Single-ply,1
B,M,Darwin Eckstrom,AB,103.6,105,Masters 3,,160,,160,Single-ply,1
B,M,Andrew Bryant,BC,82.4,83,Masters 2,,175,,175,Single-ply,1
B,M,Ben Worsell,AB,122.2,120+,Masters 2,,225,,225,Single-ply,1
B,M,Robert King,NL,82.3,83,Masters 1,,160,,160,Single-ply,1
B,M,Dylan Sparks,AB,62.8,66,Juniors,,95,,95,Single-ply,1
B,M,Daniel Ferreira,ON,62,66,Juniors,,92.5,,92.5,Single-ply,2
B,F,Alexandra Stodalka,AB,55.3,57,Juniors,,110.5,,110.5,Single-ply,1
B,M,Marcus Whiteway,NL,90.7,93,Sub-Juniors,,125,,125,Raw,1
B,M,Daniel Ferreira,ON,62,66,Sub-Juniors,,90,,90,Raw,1
B,F,Marie-Li Dion,QU,55.1,57,Sub-Juniors,,71,,71,Raw,1
B,M,Jeremy Klaus,BC,87.9,93,Open,,160,,160,Raw,2
B,M,Greg Zilberbrant,ON,91.9,93,Open,,190,,190,Raw,1
B,F,Pamela Windrum,SK,109.4,84+,Open,,87.5,,87.5,Raw,1
B,F,Jillian Mullowney,NL,132.9,84+,Open,,75,,75,Raw,3
B,F,Alyssa Burg,MB,103.7,84+,Open,,85,,85,Raw,2
B,F,Rosa Trueman,AB,75.4,84,Open,,62.5,,62.5,Raw,6
B,F,Marilyn Bernard,NL,82.5,84,Open,,65,,65,Raw,5
B,F,Kyra Thomson,AB,81.4,84,Open,,75,,75,Raw,4
B,F,Julia Young,NL,81.1,84,Open,,77.5,,77.5,Raw,3
B,F,Heidi Fowler,SK,82.8,84,Open,,85,,85,Raw,2
B,F,Dana Sandler,AB,81.6,84,Open,,90,,90,Raw,1
B,M,Matthew Bowen,MB,82.7,83,Open,,142.5,,142.5,Raw,1
B,M,Loc Nguyen,ON,72.2,74,Open,,157.5,,157.5,Raw,1
B,M,Devon Yu,SK,72.3,74,Open,,132.5,,132.5,Raw,2
B,F,Ryley Kornelsen,AB,68.4,72,Open,,67.5,,67.5,Raw,3
B,F,Karyne Turcotte,QU,63.9,72,Open,,57.5,,57.5,Raw,5
B,F,Jessica Antony,MB,71.4,72,Open,,65,,65,Raw,4
B,F,Ekaterina Slivko,BC,71.9,72,Open,,70,,70,Raw,2
B,F,Christine Castro,ON,69.2,72,Open,,85,,85,Raw,1
B,F,Shalon McFarlane,AB,61.9,63,Open,,75,,75,Raw,2
B,F,Mimi Frank,AB,60.9,63,Open,,80,,80,Raw,1
B,F,Rachel Hrudko,AB,55.8,57,Open,,57.5,,57.5,Raw,1
B,F,Desiree Barr,AB,51.2,52,Open,,50,,50,Raw,1
B,M,Jason Klaus,BC,144.8,120+,Open,,205,,205,Raw,1
B,M,Garrett Bentley,ON,129.6,120+,Open,,185,,185,Raw,2
B,M,Tyler Wareham,ON,119.4,120,Open,,190,,190,Raw,2
B,M,Shane Martin,AB,111.3,120,Open,,225,,225,Raw,1
B,M,Jeff Baker,AB,116.8,120,Open,,165,,165,Raw,3
B,M,Kohlton Parenteau,SK,104.3,105,Open,,220,,220,Raw,1
B,M,Ben Kozyra,AB,102.2,105,Open,,187.5,,187.5,Raw,2
B,M,Tilman Gallant,PE,89.1,93,Masters 4,,140,,140,Raw,1
B,M,John Noguera,ON,86.1,93,Masters 3,,120,,120,Raw,1
B,F,Ellynne Dickson,ON,116.9,84+,Masters 3,,62.5,,62.5,Raw,1
B,F,Susan Haywood,MB,80.8,84,Masters 3,,52.5,,52.5,Raw,1
B,M,Brett Zoerb,SK,80.4,83,Masters 3,,115,,115,Raw,1
B,M,Robin Wass,NL,71.1,74,Masters 3,,110,,110,Raw,1
B,M,Patrick Winstanley,SK,134.1,120+,Masters 3,,125,,125,Raw,1
B,M,Daniel Royer,QU,108.6,120,Masters 3,,107.5,,107.5,Raw,1
B,M,Paul Francis,ON,102.5,105,Masters 3,,140,,140,Raw,1
B,M,Robert Truchon,ON,89.5,93,Masters 2,,122.5,,122.5,Raw,3
B,M,Gordon Sjodin,BC,92.4,93,Masters 2,,162.5,,162.5,Raw,1
B,M,Claude Dallaire,QU,92.4,93,Masters 2,,125,,125,Raw,2
B,F,Shelley Colter,ON,112.3,84+,Masters 2,,67.5,,67.5,Raw,2
B,F,Jose Schamhart,AB,98.5,84+,Masters 2,,77.5,,77.5,Raw,1
B,M,Andrew Bryant,BC,82.1,83,Masters 2,,145,,145,Raw,1
B,M,Gerald Chafe,NL,73,74,Masters 2,,87.5,,87.5,Raw,1
B,F,Lisanne Glavin,ON,69.8,72,Masters 2,,70,,70,Raw,1
B,F,Jeannie Jamison,AB,71.3,72,Masters 2,,52.5,,52.5,Raw,2
B,M,Rick Shanahan,ON,63.8,66,Masters 2,,82.5,,82.5,Raw,2
B,M,Jay McGrath,NL,64.1,66,Masters 2,,97,,97,Raw,1
B,M,David Holmes,ON,115.5,120,Masters 2,,160,,160,Raw,1
B,M,Wayne Cormier,SK,103.6,105,Masters 2,,135,,135,Raw,1
B,F,Rose Clift,AB,123.4,84+,Masters 1,,116,,116,Raw,1
B,F,Heather Unsworth,NL,79.7,84,Masters 1,,60,,60,Raw,1
B,M,Shiek Ali,NS,75.7,83,Masters 1,,122.5,,122.5,Raw,2
B,M,Robert King,NL,82.2,83,Masters 1,,130,,130,Raw,1
B,M,Ryan Lawley,AB,72.9,74,Masters 1,,105,,105,Raw,1
B,F,Joanne Rose,NL,55.1,57,Masters 1,,55,,55,Raw,1
B,M,John Giffen,AB,119.7,120,Masters 1,,220,,220,Raw,1
B,M,Matthew Shapiera,ON,91.2,93,Juniors,,130,,130,Raw,1
B,M,Nelson Dang,AB,81.6,83,Juniors,,147.5,,147.5,Raw,1
B,F,Krystin Paquette,AB,62.2,63,Juniors,,72.5,,72.5,Raw,1
B,M,Logan Vessey,PEI,106.4,120,Juniors,,150,,150,Raw,2
B,M,Fady Mitry,QU,108.4,120,Juniors,,182.5,,182.5,Raw,1
