Division,WeightClassKg,Place,Name,Team,BodyweightKg,Best3SquatKg,Best3BenchKg,Best3DeadliftKg,TotalKg,Equipment,Event,Sex
Boys,52,1,Lleyton Frazier,Tuscola Jim Ned,49.99,106.59,63.5,122.47,292.57,Single-ply,SBD,M
Boys,52,2,Isaiah Cristan,Abilene Cooper,50.8,90.72,54.43,117.93,263.08,Single-ply,SBD,M
Boys,52,3,Noah Perez,Abilene,45.72,68.04,40.82,86.18,195.04,Single-ply,SBD,M
Boys,56,1,Gilbert Borrego,Merkel,55.61,142.88,88.45,156.49,387.82,Single-ply,SBD,M
Boys,56,2,Axel Marcenaro,Merkel,53.8,140.61,79.38,149.69,369.68,Single-ply,SBD,M
Boys,56,3,Brady Montgomery,Tuscola Jim Ned,55.16,131.54,72.57,133.81,337.93,Single-ply,SBD,M
Boys,60,1,Bryce Munoz,Anson,59.87,149.69,68.04,158.76,376.48,Single-ply,SBD,M
Boys,60,2,Fox Talamantes,Abilene,57.15,138.35,70.31,122.47,331.12,Single-ply,SBD,M
Boys,60,3,Austin Tobar,Abilene Cooper,57.33,99.79,68.04,108.86,276.69,Single-ply,SBD,M
Boys,60,4,Darius Monnin,Merkel,59.24,97.52,56.7,115.67,269.89,Single-ply,SBD,M
Boys,60,DQ,Carson Parker,Merkel,58.42,,,,,Single-ply,SBD,M
Boys,67.5,1,Christian Alexander,Tuscola Jim Ned,65.77,174.63,111.13,183.7,469.47,Single-ply,SBD,M
Boys,67.5,2,Ben Lantrip,Tuscola Jim Ned,64.32,142.88,74.84,183.7,401.43,Single-ply,SBD,M
Boys,67.5,3,Michael Shubert,Abilene Cooper,67.13,138.35,77.11,176.9,392.36,Single-ply,SBD,M
Boys,67.5,4,Branson Gassiot,Tuscola Jim Ned,64.05,136.08,79.38,167.83,383.29,Single-ply,SBD,M
Boys,67.5,5,Aaron Graham,Clyde,64.59,124.74,88.45,161.03,374.21,Single-ply,SBD,M
Boys,67.5,6,Moses Ruzoviyo,Abilene,62.96,131.54,86.18,151.95,369.68,Single-ply,SBD,M
Boys,67.5,7,Noah Orozco,Abilene Cooper,67.13,151.95,74.84,142.88,369.68,Single-ply,SBD,M
Boys,67.5,8,Korbin Rockwell,Clyde,64.68,133.81,74.84,145.15,353.8,Single-ply,SBD,M
Boys,67.5,9,Tyler Razio,Tuscola Jim Ned,65.95,122.47,65.77,149.69,337.93,Single-ply,SBD,M
Boys,67.5,DQ,Kevin Yates,Christoval,66.86,183.7,90.72,,,Single-ply,SBD,M
Boys,67.5,DQ,Ramiro Leal,Merkel,60.87,111.13,61.23,,,Single-ply,SBD,M
Boys,67.5,DQ,Zach Burt,Hawley,64.77,165.56,,,,Single-ply,SBD,M
Boys,75,1,Matthew Ramirez,Roby,73.66,185.97,127.01,201.85,514.83,Single-ply,SBD,M
Boys,75,2,Tristan Wegener,Hawley,73.39,197.31,115.67,149.69,462.66,Single-ply,SBD,M
Boys,75,3,Payton Lopez,Clyde,70.85,151.95,79.38,199.58,430.91,Single-ply,SBD,M
Boys,75,4,Jacob Contreras,Tuscola Jim Ned,69.85,154.22,86.18,172.37,412.77,Single-ply,SBD,M
Boys,75,5,Jacob Cantu,Abilene Cooper,73.94,149.69,97.52,149.69,396.89,Single-ply,SBD,M
Boys,75,6,Austyn Deal,Clyde,69.04,142.88,97.52,142.88,383.29,Single-ply,SBD,M
Boys,75,7,Zackary Yost,Clyde,72.85,142.88,83.91,133.81,360.61,Single-ply,SBD,M
Boys,75,8,Colton Brown,Anson,72.3,136.08,72.57,149.69,358.34,Single-ply,SBD,M
Boys,75,9,Casey Hall,Tuscola Jim Ned,69.13,131.54,79.38,145.15,356.07,Single-ply,SBD,M
Boys,75,DQ,AJ Goodwin,Tuscola Jim Ned,74.3,117.93,72.57,,,Single-ply,SBD,M
Boys,75,DQ,Austin Eubanks,Clyde,72.12,,,,,Single-ply,SBD,M
Boys,75,DQ,Austin Rosales,Coleman,71.49,136.08,83.91,,,Single-ply,SBD,M
Boys,75,DQ,AJ Gonzales,Abilene,74.84,,,117.93,,Single-ply,SBD,M
Boys,75,DQ,Rueban Perez,Abilene Cooper,73.03,167.83,,,,Single-ply,SBD,M
Boys,82.5,1,Dante Gomez,Clyde,79.11,256.28,149.69,231.33,637.3,Single-ply,SBD,M
Boys,82.5,2,Joesph Rees,Tuscola Jim Ned,81.1,192.78,106.59,233.6,532.97,Single-ply,SBD,M
Boys,82.5,3,Devin Romero,Abilene,76.57,217.72,97.52,210.92,526.17,Single-ply,SBD,M
Boys,82.5,4,Ethan Tapia,Clyde,80.2,185.97,133.81,172.37,492.15,Single-ply,SBD,M
Boys,82.5,5,Kaleb Moore,Clyde,75.66,179.17,122.47,174.63,476.27,Single-ply,SBD,M
Boys,82.5,6,Trey Thompson,Merkel,81.92,174.63,95.25,158.76,428.64,Single-ply,SBD,M
Boys,82.5,7,Massio Sanchez,Coleman,79.29,165.56,86.18,158.76,410.5,Single-ply,SBD,M
Boys,82.5,8,Aaron Manke,Abilene Cooper,76.02,136.08,70.31,172.37,378.75,Single-ply,SBD,M
Boys,82.5,9,Noah Flowers,Abilene Cooper,82.1,138.35,79.38,149.69,367.41,Single-ply,SBD,M
Boys,82.5,DQ,Xavier Rodriguez,Anson,78.56,142.88,70.31,,,Single-ply,SBD,M
Boys,82.5,DQ,Chris Jones #5,Anson,78.29,,,,,Single-ply,SBD,M
Boys,82.5,DQ,Eduardo Marin,Anson,80.29,,,,,Single-ply,SBD,M
Boys,82.5,DQ,Jarod Pentacost,Tuscola Jim Ned,77.93,,,,,Single-ply,SBD,M
Boys,90,1,Actavias Lowry,Abilene Cooper,85.18,192.78,133.81,192.78,519.36,Single-ply,SBD,M
Boys,90,2,Tanner Schnoor,Hawley,87.09,204.12,102.06,204.12,510.29,Single-ply,SBD,M
Boys,90,3,Donte Mitchell,Abilene Cooper,83.37,154.22,102.06,170.1,426.38,Single-ply,SBD,M
Boys,90,4,Joe Valdez,Merkel,88.81,149.69,81.65,188.24,419.57,Single-ply,SBD,M
Boys,90,5,Jacob Turner,Tuscola Jim Ned,85.55,140.61,83.91,185.97,410.5,Single-ply,SBD,M
Boys,90,6,Chance Moser,Clyde,88.45,151.95,88.45,156.49,396.89,Single-ply,SBD,M
Boys,90,7,Diego Mata,Abilene Cooper,82.74,131.54,81.65,147.42,360.61,Single-ply,SBD,M
Boys,90,8,Taylor Cullum,Merkel,85.09,129.27,92.99,133.81,356.07,Single-ply,SBD,M
Boys,90,DQ,Houston Hance,Abilene Cooper,87,,,,,Single-ply,SBD,M
Boys,90,DQ,Braden Kester,Tuscola Jim Ned,89.18,165.56,92.99,,,Single-ply,SBD,M
Boys,100,1,Blake Parker,Abilene Cooper,98.88,226.8,136.08,195.04,557.92,Single-ply,SBD,M
Boys,100,2,Jessy Villagomez,Roby,98.16,226.8,111.13,206.38,544.31,Single-ply,SBD,M
Boys,100,3,Ryland Madrid,Abilene,94.35,222.26,108.86,199.58,530.7,Single-ply,SBD,M
Boys,100,4,Jax Pimentel,Clyde,99.34,204.12,129.27,183.7,517.1,Single-ply,SBD,M
Boys,100,5,Michael Martinez,Abilene,97.07,206.38,111.13,190.51,508.02,Single-ply,SBD,M
Boys,100,6,Jordan Harris,Hawley,95.62,201.85,113.4,183.7,498.95,Single-ply,SBD,M
Boys,100,7,Shane Thomas,Clyde,99.79,188.24,113.4,158.76,460.4,Single-ply,SBD,M
Boys,100,8,Andrew Purdun,Anson,99.79,170.1,108.86,181.44,460.4,Single-ply,SBD,M
Boys,100,9,Dillon Slauenwhite,Clyde,97.52,156.49,111.13,165.56,433.18,Single-ply,SBD,M
Boys,100,10,Israel DelaCruz,Anson,99.79,161.03,95.25,163.29,419.57,Single-ply,SBD,M
Boys,100,DQ,Josh Elliott,Abilene Cooper,99.79,145.15,,,,Single-ply,SBD,M
Boys,110,1,Haddan Stokes,Clyde,103.6,308.44,181.44,240.4,730.28,Single-ply,SBD,M
Boys,110,2,Brent Alexander,Abilene Cooper,106.87,226.8,122.47,199.58,548.85,Single-ply,SBD,M
Boys,110,3,Dylan Burnett,Tuscola Jim Ned,109.32,222.26,129.27,188.24,539.77,Single-ply,SBD,M
Boys,110,4,Bryce Templeton,Abilene Cooper,106.5,204.12,122.47,192.78,519.36,Single-ply,SBD,M
Boys,110,5,Jesus Lara,Abilene Cooper,102.33,172.37,102.06,192.78,467.2,Single-ply,SBD,M
Boys,110,DQ,CJ Ugalde,Merkel,103.24,145.15,63.5,,,Single-ply,SBD,M
Boys,125,1,Slayde Anderson,Abilene,118.39,233.6,136.08,219.99,589.67,Single-ply,SBD,M
Boys,125,2,Jonathan Castaneda,Abilene Cooper,115.21,217.72,124.74,233.6,576.06,Single-ply,SBD,M
Boys,125,3,Anthony Arellano,Abilene Cooper,116.57,231.33,133.81,210.92,576.06,Single-ply,SBD,M
Boys,125,4,Anthony Koch,Clyde,120.2,226.8,129.27,192.78,548.85,Single-ply,SBD,M
Boys,125,5,Robert Bellman,Abilene Cooper,114.49,226.8,117.93,192.78,537.51,Single-ply,SBD,M
Boys,125,6,Mekhi Reid,Abilene,119.66,183.7,122.47,190.51,496.68,Single-ply,SBD,M
Boys,125,7,Collin Gardner,Anson,115.67,188.24,115.67,161.03,464.93,Single-ply,SBD,M
Boys,125+,1,Ray Leon,Hawley,138.71,238.14,158.76,213.19,610.08,Single-ply,SBD,M
Boys,125+,2,Ruben Leija,Abilene,145.97,213.19,142.88,217.72,573.79,Single-ply,SBD,M
Boys,125+,3,Marquis Lyons,Abilene,125.1,231.33,129.27,185.97,546.58,Single-ply,SBD,M
Boys,125+,4,Chris De La Garza,Clyde,135.35,226.8,113.4,192.78,532.97,Single-ply,SBD,M
Boys,125+,5,Jackson Sellers,Abilene,133.81,192.78,97.52,154.22,444.52,Single-ply,SBD,M
Boys,125+,6,Jonathan Pressley,Abilene Cooper,139.53,136.08,65.77,142.88,344.73,Single-ply,SBD,M
